%time,field.header.seq,field.header.frame_id,field.point_id,field.x,field.y,field.z,field.velocity,field.intensity,normalized_x,normalized_y,normalized_z,normalized_intensity,normalized_velocity,normalized_range,range
1648383755512089649,34054,0,0,0.00784974731505,0.0454158857465,0.00857898779213,0.0,16.2000007629,0.0026253335501839467,0.015189259446989964,0.0028692266863311034,16.2000007629,0.0,0.01563644317123996,0.0468809155476596
1648383755512092655,34055,0,1,0.0316766984761,0.0161153152585,-0.030572924763,0.0,16.2000007629,0.01059421353715719,0.005389737544648829,-0.01022505844916388,16.2000007629,0.0,0.015922436740083677,0.04688091659503532
1648383755512107486,34056,0,2,0.952437400818,-0.061531201005,0.241486161947,0.0,16.2000007629,0.3185409367284281,-0.020578996991638794,0.08076460265785954,16.2000007629,0.0,0.4509547115407829,0.9844991912571376
1648383755707088058,34057,2,0,0.00775059545413,0.0454158857465,0.00866866949946,0.0,17.2999992371,0.0025921723926856186,0.015189259446989964,0.0028992205683812705,17.2999992371,0.0,0.01562537417071274,0.04688091550859038
1648383755707090963,34058,2,1,0.0315993279219,0.0161153152585,-0.0306528843939,0.0,17.2999992371,0.010568337097625417,0.005389737544648829,-0.01025180080063545,17.2999992371,0.0,0.015888007075095616,0.04688091544181289
1648383755707094588,34059,2,2,0.920909762383,-0.0293005723506,0.173766463995,0.0809188112617,17.2999992371,0.3079965760478261,-0.009799522525284281,0.0581158742458194,17.2999992371,0.010934974494824324,0.43568315592422463,0.9376183114688578
1648383755707200714,34060,2,3,0.578475236893,0.0952268540859,0.166522845626,0.161837622523,17.2999992371,0.1934699788939799,0.03184844618257525,0.05569325940668896,17.2999992371,0.021869948989594594,0.27545523954123374,0.6094518943714019
1648383755812123715,34061,3,0,0.00775059545413,0.0454158857465,0.00866866949946,0.0,36.7999992371,0.0025921723926856186,0.015189259446989964,0.0028992205683812705,36.7999992371,0.0,0.01562537417071274,0.04688091550859038
1648383755812128534,34062,3,1,0.0317965820432,0.0161153152585,-0.0304482225329,0.0,36.7999992371,0.010634308375652175,0.005389737544648829,-0.010183352017692307,36.7999992371,0.0,0.015975803580951076,0.046880915849882784
1648383755812131388,34063,3,2,0.879463672638,0.139177724719,-0.0242152027786,0.0,36.7999992371,0.29413500757123745,0.04654773401973244,-0.008098730026287625,36.7999992371,0.0,0.41856600065011923,0.8907374285351917
1648383755812139324,34064,3,3,0.962180972099,-0.153827995062,-0.140653625131,0.0,36.7999992371,0.3217996562204013,-0.05144748998729097,-0.04704134619765886,36.7999992371,0.0,0.457992228878536,0.9844992216333455
1648383755812141751,34065,3,4,0.63481771946,-0.082041606307,0.145080879331,0.323675245047,36.7999992371,0.21231361854849495,-0.027438664316722407,0.04852203322107023,36.7999992371,0.04373989797932432,0.3015079195341267,0.6563328604094756
1648383755812143553,34066,3,5,0.586703896523,-0.076181486249,0.146309703588,0.404594063759,36.7999992371,0.196222038970903,-0.02547875794280936,0.04893301123344481,36.7999992371,0.05467487348094594,0.27866708499947646,0.6094518934307991
1648383756007091345,34067,5,0,0.00775059545413,0.0454158857465,0.00866866949946,0.0,40.7000007629,0.0025921723926856186,0.015189259446989964,0.0028992205683812705,40.7000007629,0.0,0.01562537417071274,0.04688091550859038
1648383756007101442,34068,5,1,0.0317032895982,0.0161153152585,-0.0305453501642,0.0,40.7000007629,0.010603106889030099,0.005389737544648829,-0.010215836175317725,40.7000007629,0.0,0.015934271938202644,0.046880916947962654
1648383756007104008,34069,5,2,1.02157104015,-0.032230630517,0.13819822669,0.0,40.7000007629,0.3416625552341137,-0.010779475089297658,0.04622014270568562,40.7000007629,0.0,0.48330404548421524,1.0313801207493465
1648383756007107253,34070,5,3,0.27987664938,0.791115403175,-0.0888775587082,0.242756426334,40.7000007629,0.0936042305618729,0.2645870913628762,-0.02972493602280936,40.7000007629,0.03280492247756756,0.2958544116183288,0.8438564691052903
1648383756007110157,34071,5,4,0.651917695999,-0.0879017189145,-0.248568311334,0.323675245047,40.7000007629,0.21803267424715717,-0.02939856819882943,-0.08313321449297659,40.7000007629,0.04373989797932432,0.3097430707713655,0.7032137654683707
1648383756007160665,34072,5,5,0.682168066502,-0.304725944996,-0.0665640234947,0.485512852669,40.7000007629,0.2281498550173913,-0.10191503177123744,-0.02226221521561873,40.7000007629,0.06560984495527027,0.3383657582998694,0.7500946218528601
1648383756112364763,34073,6,0,0.00777089362964,0.0454158857465,0.00865047797561,0.0,30.2999992371,0.002598961080147157,0.015189259446989964,0.0028931364466923074,30.2999992371,0.0,0.015627629376850898,0.046880915468331404
1648383756112388883,34074,6,1,0.0316766984761,0.0161153152585,-0.030572924763,0.0,30.2999992371,0.01059421353715719,0.005389737544648829,-0.01022505844916388,30.2999992371,0.0,0.015922436740083677,0.04688091659503532
1648383756112391842,34075,6,2,0.690064847469,-0.0439508594573,-0.128017351031,0.242756426334,30.2999992371,0.23079091888595316,-0.014699284099431437,-0.04281516756889632,30.2999992371,0.03280492247756756,0.3267184803978511,0.7032137754086191
1648383756112394772,34076,6,3,0.974098324776,-0.061531201005,0.128783166409,-0.0809188112617,30.2999992371,0.32578539290167224,-0.020578996991638794,0.04307129311337792,30.2999992371,-0.010934974494824324,0.46118948337248084,0.9844992325943457
