%time,field.header.seq,field.header.frame_id,field.point_id,field.x,field.y,field.z,field.velocity,field.intensity,normalized_x,normalized_y,normalized_z,normalized_intensity,normalized_velocity,normalized_range,range
1648466020913142252,110681,0,0,0.0133034354076,0.0439508594573,0.00944249983877,0.0,12.0,0.004449309500869565,0.014699284099431437,0.0031580267019297656,12.0,0.0,0.01598942347631253,0.046880915561502146
1648466020913145228,110682,0,1,0.0336977690458,0.0146502861753,-0.0291144233197,0.0,12.0,0.011270156871505016,0.0048997612626421405,-0.009737265324314381,12.0,0.0,0.016674547437563397,0.04688091476198981
1648466020913149200,110683,0,2,2.03659892082,-1.0987714529,0.373519331217,0.0,12.0,0.6811367628160534,-0.3674820912709029,0.12492285324983277,12.0,0.0,1.0309886840911016,2.3440457676389252
1648466020913155963,110684,0,3,1.41205573082,-0.0454158857465,0.340795069933,-0.485512852669,12.0,0.47225944174581935,-0.015189259446989964,0.11397828425852842,12.0,-0.06560984495527027,0.6680484071073697,1.4533083875455965
1648466020913193269,110685,0,4,0.68127155304,-0.0,0.174294769764,-0.161837622523,12.0,0.2278500177391304,-0.0,0.05829256513846153,12.0,-0.021869948989594594,0.3222285852736285,0.7032137624852199
1648466021018719278,110686,1,0,0.013252383098,0.0439508594573,0.00951401796192,0.0,27.7000007629,0.004432235149832775,0.014699284099431437,0.003181945806662207,27.7000007629,0.0,0.015979936479305047,0.046880915547706924
1648466021018761775,110687,1,1,0.0337118916214,0.0146502861753,-0.0290980711579,0.0,27.7000007629,0.011274880140936454,0.0048997612626421405,-0.009731796373879597,27.7000007629,0.0,0.016680932372498097,0.04688091580612966
1648466021018771149,110688,1,2,2.03670477867,-1.0987714529,0.372942239046,0.0,27.7000007629,0.6811721667792642,-0.3674820912709029,0.1247298458347826,27.7000007629,0.0,1.0310354644697493,2.3440458559571384
1648466021213618806,110689,3,0,0.0133259519935,0.0439508594573,0.00941069517285,0.0,12.5,0.004456840131605351,0.014699284099431437,0.003147389689916388,12.5,0.0,0.015993617506779818,0.04688091538360472
1648466021213651167,110690,3,1,0.0336977690458,0.0146502861753,-0.0291144233197,0.0,12.5,0.011270156871505016,0.0048997612626421405,-0.009737265324314381,12.5,0.0,0.016674547437563397,0.04688091476198981
1648466021213671041,110691,3,2,0.981657147408,0.128922522068,0.288917392492,0.0,12.5,0.3283134272267558,0.04311790035719063,0.09662789046555183,12.5,0.0,0.4663030841909253,1.0313801585438622
1648466021213838437,110692,3,3,0.677238285542,0.773535132408,0.0820773020387,0.0,12.5,0.22650109884347827,0.2587074021431438,0.02745060268852843,12.5,0.0,0.4117462998962596,1.0313801335992863
1648466021213852912,110693,3,4,2.04866886139,-1.0987714529,0.300347507,0.0,12.5,0.6851735322374581,-0.3674820912709029,0.1004506712374582,12.5,0.0,1.0363245755854418,2.3440459539646596
1648466021213864677,110694,3,5,0.601808488369,-0.0,0.261914759874,0.0809188112617,12.5,0.20127374192943143,-0.0,0.08759690965685618,12.5,0.010934974494824324,0.2846440555861842,0.6563328409525429
1648466021318576456,110695,4,0,0.0133139379323,0.0439508594573,0.00942768435925,0.0,16.2000007629,0.004452822050936455,0.014699284099431437,0.0031530716920568557,16.2000007629,0.0,0.015991378973384682,0.04688091533532723
1648466021318587694,110696,4,1,0.0336977690458,0.0146502861753,-0.0291144233197,0.0,16.2000007629,0.011270156871505016,0.0048997612626421405,-0.009737265324314381,16.2000007629,0.0,0.016674547437563397,0.04688091476198981
1648466021318634843,110697,4,2,2.04296875,-1.0987714529,0.336942851543,0.0,16.2000007629,0.6832671404682273,-0.3674820912709029,0.11268991690401338,16.2000007629,0.0,1.0338041680570322,2.344045755609405
1648466021318678237,110698,4,3,0.570032715797,-0.102552011609,0.308737158775,0.0809188112617,16.2000007629,0.1906463932431438,-0.03429833164180602,0.10325657484113712,16.2000007629,0.010934974494824324,0.27178754582697523,0.6563328769552957
