%time,field.header.seq,field.header.frame_id,field.point_id,field.x,field.y,field.z,field.velocity,field.intensity,normalized_x,normalized_y,normalized_z,normalized_intensity,normalized_velocity,normalized_range,range
1648465429699421249,96332,0,0,0.0133034354076,0.0439508594573,0.00944249983877,0.0,12.1000003815,0.004449309500869565,0.014699284099431437,0.0031580267019297656,12.1000003815,0.0,0.01598942347631253,0.046880915561502146
1648465429699439889,96333,0,1,0.0336977690458,0.0146502861753,-0.0291144233197,0.0,12.1000003815,0.011270156871505016,0.0048997612626421405,-0.009737265324314381,12.1000003815,0.0,0.016674547437563397,0.04688091476198981
1648465429699445254,96334,0,2,0.906173586845,-0.0293005723506,0.238995820284,0.0,12.1000003815,0.3030680892458194,-0.009799522525284281,0.07993171246956521,12.1000003815,0.0,0.428715014992416,0.9376183099475114
1648465429699463849,96335,0,3,2.17359113693,-0.9713139534,0.220409721136,0.0,12.1000003815,0.7269535575016721,-0.3248541650167224,0.0737156257979933,12.1000003815,0.0,1.0781712192677866,2.390926529984022
1648465429699472455,96336,0,4,0.324358463287,0.237334623933,0.128402844071,-0.242756426334,12.1000003815,0.10848109140033445,0.07937612840568561,0.04294409500702341,12.1000003815,-0.03280492247756756,0.17273350614021393,0.42192822468856506
1648465429999260260,96337,3,0,0.0133034354076,0.0439508594573,0.00944249983877,0.0,27.2000007629,0.004449309500869565,0.014699284099431437,0.0031580267019297656,27.2000007629,0.0,0.01598942347631253,0.046880915561502146
1648465429999263507,96338,3,1,0.0337347723544,0.0146502861753,-0.0290715377778,0.0,27.2000007629,0.011282532559999999,0.0048997612626421405,-0.009722922333712374,27.2000007629,0.0,0.016691277433612105,0.04688091359591267
1648465429999266180,96339,3,2,2.17299199104,-0.9713139534,0.226239994168,0.0,27.2000007629,0.7267531742608695,-0.3248541650167224,0.07566554988896321,27.2000007629,0.0,1.0779010071083575,2.390926499111727
