%time,field.header.seq,field.header.frame_id,field.point_id,field.x,field.y,field.z,field.velocity,field.intensity,normalized_x,normalized_y,normalized_z,normalized_intensity,normalized_velocity,normalized_range,range
1648382912498517758,15218,0,0,0.00756888370961,0.0454158857465,0.00882777199149,0.0,12.0,0.0025313992339832773,0.015189259446989964,0.002952432104177257,12.0,0.0,0.015605433884118575,0.04688091548895431
1648382912498551616,15219,0,1,0.0317120365798,0.0161153152585,-0.0305362660438,0.0,12.0,0.010606032300936454,0.005389737544648829,-0.010212798007959866,12.0,0.0,0.015938165300222358,0.046880915027515714
1648382912498566739,15220,0,2,1.0293353796,0.064461261034,-0.00764930946752,0.0,12.0,0.3442593242809364,0.021558950178595316,-0.0025582974807759197,12.0,0.0,0.4873333079541527,1.0313801868397994
1648382912498574413,15221,0,3,0.716041088104,0.528875350952,-0.0314528159797,-0.404594063759,12.0,0.2394786247839465,0.17688138827826086,-0.010519336448060199,12.0,-0.05467487348094594,0.3820825159256379,0.8907374789076826
1648382912693640320,15222,2,0,0.00756888370961,0.0454158857465,0.00882777199149,0.0,21.8999996185,0.0025313992339832773,0.015189259446989964,0.002952432104177257,21.8999996185,0.0,0.015605433884118575,0.04688091548895431
1648382912693646767,15223,2,1,0.0317120365798,0.0161153152585,-0.0305362660438,0.0,21.8999996185,0.010606032300936454,0.005389737544648829,-0.010212798007959866,21.8999996185,0.0,0.015938165300222358,0.046880915027515714
1648382912693651201,15224,2,2,0.781565248966,0.263705134392,0.178070604801,0.0,21.8999996185,0.26139305985484945,0.08819569712107023,0.05955538622107023,21.8999996185,0.0,0.3800409773580125,0.8438564905184899
1648382912693658880,15225,2,3,0.764187455177,0.263705134392,0.242014154792,0.161837622523,21.8999996185,0.25558108868795987,0.08819569712107023,0.08094118889364547,21.8999996185,0.021869948989594594,0.3720508927290958,0.8438564544247371
1648382912798531239,15226,3,0,0.00758975045756,0.0454158857465,0.00880983844399,0.0,27.6000003815,0.002538378079451505,0.015189259446989964,0.0029464342622040132,27.6000003815,0.0,0.015607700954863715,0.04688091555800055
1648382912798533134,15227,3,1,0.0317869521677,0.0161153152585,-0.0304582752287,0.0,27.6000003815,0.010631087681505016,0.005389737544648829,-0.010186714123311036,27.6000003815,0.0,0.015971515938817224,0.04688091556166252
1648382912798537140,15228,3,2,0.817983031273,0.079111546278,0.191673874855,0.0809188112617,27.6000003815,0.27357292015819396,0.026458711129765885,0.06410497486789297,27.6000003815,0.010934974494824324,0.38779420919143637,0.843856475063735
1648382912798661034,15229,3,3,0.83883357048,0.083506628871,0.287746489048,0.323675245047,27.6000003815,0.28054634464214045,0.027928638418394644,0.09623628396254179,27.6000003815,0.04373989797932432,0.39773422260102126,0.8907374237052549
1648382912993563741,15230,5,0,0.00756888370961,0.0454158857465,0.00882777199149,0.0,30.2999992371,0.0025313992339832773,0.015189259446989964,0.002952432104177257,30.2999992371,0.0,0.015605433884118575,0.04688091548895431
1648382912993578683,15231,5,1,0.0318039134145,0.0161153152585,-0.030440563336,0.0,30.2999992371,0.010636760339297658,0.005389737544648829,-0.010180790413377926,30.2999992371,0.0,0.015979067927495285,0.04688091499289325
1648382912993581671,15232,5,2,0.837020397186,-0.0527410283685,-0.0933216810226,0.0,30.2999992371,0.27993993216923074,-0.017639139922575247,-0.031211264556053508,30.2999992371,0.0,0.3962876108371737,0.843856443672536
1648382913098516867,15233,6,0,0.00764421746135,0.0454158857465,0.00876261945814,0.0,15.6999998093,0.0025565944686789296,0.015189259446989964,0.0029306419592441467,15.6999998093,0.0,0.015613646374326955,0.046880915504112365
1648382913098541526,15234,6,1,0.0317385159433,0.0161153152585,-0.0305087435991,0.0,15.6999998093,0.01061488827535117,0.005389737544648829,-0.010203593176956521,15.6999998093,0.0,0.015949952256874397,0.04688091526580487
1648382913098543958,15235,6,2,1.02612841129,0.064461261034,-0.0815492421389,-0.0809188112617,15.6999998093,0.3431867596287625,0.021558950178595316,-0.027273994026387957,15.6999998093,-0.010934974494824324,0.48581796210286743,1.0313801673117733
