%time,field.header.seq,field.header.frame_id,field.point_id,field.x,field.y,field.z,field.velocity,field.intensity,normalized_x,normalized_y,normalized_z,normalized_intensity,normalized_velocity,normalized_range,range
1648383584006818740,29393,0,0,0.00782407168299,0.0454158857465,0.00860241055489,0.0,13.8999996185,0.002616746382270903,0.015189259446989964,0.002877060386250836,13.8999996185,0.0,0.01563356407880908,0.04688091555414197
1648383584006823784,29394,0,1,0.0316606387496,0.0161153152585,-0.0305895525962,0.0,13.8999996185,0.010588842391170568,0.005389737544648829,-0.010230619597391305,13.8999996185,0.0,0.01591528941522267,0.046880914666303196
1648383584006835070,29395,0,2,0.932397246361,0.0586011447012,-0.0795571953058,0.0,13.8999996185,0.3118385439334448,0.019599045050568562,-0.026607757627357856,13.8999996185,0.0,0.4414415901701562,0.9376182946736862
1648383584006942280,29396,0,3,1.04076981544,0.101086974144,0.263109058142,0.0,13.8999996185,0.34808355031438126,0.03380835255652174,0.08799634051571904,13.8999996185,0.0,0.49342407795071663,1.0782609895331332
1648383584006965498,29397,0,4,0.245956793427,1.04456532001,0.105049304664,0.0,13.8999996185,0.08225979713277591,0.34935294983612036,0.03513354671036789,13.8999996185,0.0,0.36821302530987376,1.078261011263449
1648383584111736703,29398,1,0,0.00782407168299,0.0454158857465,0.00860241055489,0.0,15.3000001907,0.002616746382270903,0.015189259446989964,0.002877060386250836,15.3000001907,0.0,0.01563356407880908,0.04688091555414197
1648383584111755993,29399,1,1,0.0316433869302,0.0161153152585,-0.0306073985994,0.0,15.3000001907,0.010583072551906355,0.005389737544648829,-0.010236588160334447,15.3000001907,0.0,0.015907612016830955,0.04688091478755239
1648383584111763366,29400,1,2,1.04276549816,0.134782627225,0.23899897933,0.0,15.3000001907,0.348751002729097,0.04507780174749164,0.07993276900668896,15.3000001907,0.0,0.4952641033019528,1.0782609855110812
1648383584111769195,29401,1,3,0.332070380449,0.876087069511,0.533711075783,0.0,15.3000001907,0.11106032790936454,0.2930057088665552,0.17849868755284282,15.3000001907,0.0,0.33244719625688474,1.0782610089163767
1648383584111773128,29402,1,4,0.526015341282,0.158223092556,0.121488511562,-0.485512852669,15.3000001907,0.17592486330501672,0.05291742225953177,0.040631609218060194,15.3000001907,-0.06560984495527027,0.2543607057632354,0.5625710130495115
1648383584111775298,29403,1,5,0.489288777113,0.11280720681,0.117504402995,-0.323675245047,15.3000001907,0.16364173147591973,0.03772816281270903,0.039299131436454846,15.3000001907,-0.04373989797932432,0.23447952326396504,0.5156900794471622
1648383584307163644,29404,3,0,0.00780410459265,0.0454158857465,0.00862052850425,0.0,35.0,0.0026100684256354515,0.015189259446989964,0.0028831199010869563,35.0,0.0,0.01563133125875631,0.046880915502203545
1648383584307175544,29405,3,1,0.0316433869302,0.0161153152585,-0.0306073985994,0.0,35.0,0.010583072551906355,0.005389737544648829,-0.010236588160334447,35.0,0.0,0.015907612016830955,0.04688091478755239
1648383584307193844,29406,3,2,0.987399220467,0.128922522068,0.268638938665,0.0,35.0,0.33023385299899666,0.04311790035719063,0.08984579888461537,35.0,0.0,0.4690074078992127,1.031380199849828
1648383584307199615,29407,3,3,0.984149336815,-0.0,-0.0262437462807,0.0809188112617,35.0,0.3291469353896321,-0.0,-0.008777172669130435,35.0,0.010934974494824324,0.46548406004155857,0.9844991881013667
1648383584307220286,29408,3,4,1.02596437931,0.0336956568062,0.330012977123,0.242756426334,35.0,0.34313189943478256,0.011269450436856187,0.110372233151505,35.0,0.03280492247756756,0.48539262595613486,1.0782610398090717
1648383584307224253,29409,3,5,0.703933775425,-0.336956560612,-0.74403244257,0.242756426334,35.0,0.23542935632943143,-0.11269450187692308,-0.2488402817959866,35.0,0.03280492247756756,0.3515025098013791,1.0782609885923924
1648383584307247898,29410,3,6,0.472248077393,-0.11280720681,0.173759952188,0.404594063759,35.0,0.15794250080033445,-0.03772816281270903,0.058113696383946485,35.0,0.05467487348094594,0.22652832358747013,0.5156900556478039
1648383584307401678,29411,3,7,0.34326377511,-0.281285494566,-0.345737725496,-0.647350490093,35.0,0.11480393816387958,-0.09407541624280935,-0.11563134631973244,35.0,-0.08747979595851352,0.1876434714481951,0.5625709942639732
1648383584307424492,29412,3,8,0.522049427032,-0.0703213736415,0.197497814894,-0.647350490093,35.0,0.1745984705792642,-0.023518854060702338,0.06605278090100335,35.0,-0.08747979595851352,0.24803707052286558,0.5625709615178974
1648383584411868342,29413,4,0,0.00785633083433,0.0454158857465,0.00857295840979,0.0,38.2000007629,0.00262753539609699,0.015189259446989964,0.002867210170498328,38.2000007629,0.0,0.015637182836542488,0.04688091539436463
1648383584411878983,29414,4,1,0.0316433869302,0.0161153152585,-0.0306073985994,0.0,38.2000007629,0.010583072551906355,0.005389737544648829,-0.010236588160334447,38.2000007629,0.0,0.015907612016830955,0.04688091478755239
1648383584411896910,29415,4,2,0.996217131615,0.134782627225,0.38991266489,0.0,38.2000007629,0.33318298716220734,0.04507780174749164,0.130405573541806,38.2000007629,0.0,0.4733432307311993,1.0782610148598126
1648383584411904427,29416,4,3,0.219528526068,1.04456532001,0.152765586972,0.0,38.2000007629,0.07342091172842809,0.34935294983612036,0.051092169555852836,38.2000007629,0.0,0.36445677949143174,1.0782610101863472
1648383584411965676,29417,4,4,0.971148312092,0.0351606868207,0.567079424858,0.323675245047,38.2000007629,0.3247987665859532,0.011759427030334446,0.18965867052107022,38.2000007629,0.04373989797932432,0.4594853225899547,1.1251419430783496
1648383584411970441,29418,4,5,0.907921373844,-0.351606875658,-0.56391119957,0.323675245047,38.2000007629,0.3036526333926421,-0.11759427279531771,-0.18859906340133778,38.2000007629,0.04373989797932432,0.44523954959867634,1.1251419719720852
1648383584411972730,29419,4,6,0.207692444324,-0.334026515484,-0.402214199305,-0.647350490093,38.2000007629,0.06946235596120401,-0.11171455367357858,-0.1345197990986622,38.2000007629,-0.08747979595851352,0.14876215679348326,0.5625709969401399
1648383584411989717,29420,4,7,0.522832691669,-0.12306240201,0.167295262218,-0.647350490093,38.2000007629,0.17486043199632106,-0.04115799398327759,0.055951592715050166,38.2000007629,-0.08747979595851352,0.25069168678798975,0.5625709582149722
1648383584412047410,29421,4,8,0.562052488327,-0.190453708172,0.138765931129,-0.485512852669,38.2000007629,0.1879774208451505,-0.06369689236521739,0.04641001041103678,38.2000007629,-0.06560984495527027,0.27336480313342415,0.6094518834437516
1648383584606874833,29422,6,0,0.00770388310775,0.0454158857465,0.00871020928025,0.0,32.5,0.0025765495343645483,0.015189259446989964,0.002913113471655518,32.5,0.0,0.015620205426115311,0.04688091550708849
1648383584606877262,29423,6,1,0.0316433869302,0.0161153152585,-0.0306073985994,0.0,32.5,0.010583072551906355,0.005389737544648829,-0.010236588160334447,32.5,0.0,0.015907612016830955,0.04688091478755239
1648383584606889219,29424,6,2,1.00382244587,0.101086974144,0.380484819412,0.0,32.5,0.3357265705250836,0.03380835255652174,0.1272524479638796,32.5,0.0,0.4759912446838218,1.078260996687259
1648383584607062551,29425,6,3,0.262854039669,-1.04456532001,-0.0493746809661,0.0,32.5,0.08791105005652174,-0.34935294983612036,-0.0165132712261204,32.5,0.0,0.3708155727626327,1.0782610134185555
1648383584607064765,29426,6,4,1.07874321938,0.439508616924,-0.129549399018,0.0,32.5,0.3607836854113712,0.1469928484695652,-0.0433275582,32.5,0.0,0.5309770548895866,1.1720229539111846
1648383584607070711,29427,6,5,0.695352256298,-0.281285494566,0.00239352928475,-0.566431701183,32.5,0.23255928304280934,-0.09407541624280935,0.0008005114664715719,32.5,-0.07654482448418919,0.3420786813001197,0.7500946732075863
