%time,field.header.seq,field.header.frame_id,field.point_id,field.x,field.y,field.z,field.velocity,field.intensity,normalized_x,normalized_y,normalized_z,normalized_intensity,normalized_velocity,normalized_range,range
1648383742207009056,33692,0,0,0.00775059545413,0.0454158857465,0.00866866949946,0.0,11.6999998093,0.0025921723926856186,0.015189259446989964,0.0028992205683812705,11.6999998093,0.0,0.01562537417071274,0.04688091550859038
1648383742207015003,33693,0,1,0.0317965820432,0.0161153152585,-0.0304482225329,0.0,11.6999998093,0.010634308375652175,0.005389737544648829,-0.010183352017692307,11.6999998093,0.0,0.015975803580951076,0.046880915849882784
1648383742207019516,33694,0,2,0.901388645172,-0.0293005723506,0.256452828646,0.0,11.6999998093,0.3014677743050167,-0.009799522525284281,0.08577017680468227,11.6999998093,0.0,0.4264524223527925,0.9376182946730621
1648383742207034846,33695,0,3,2.4899559021,0.164083212614,0.815819263458,0.0,11.6999998093,0.832761171270903,0.054877328633444813,0.27284925199264215,11.6999998093,0.0,1.1789800074432626,2.625331363027058
1648383742311954119,33696,1,0,0.00775059545413,0.0454158857465,0.00866866949946,0.0,12.1999998093,0.0025921723926856186,0.015189259446989964,0.0028992205683812705,12.1999998093,0.0,0.01562537417071274,0.04688091550859038
1648383742311978348,33697,1,1,0.0317701548338,0.0161153152585,-0.0304757971317,0.0,12.1999998093,0.010625469844080268,0.005389737544648829,-0.010192574291538461,12.1999998093,0.0,0.015964037384543907,0.046880916531750985
1648383742312007652,33698,1,2,0.868826985359,0.0879017189145,0.341381072998,0.0,12.1999998093,0.29057758707658865,0.02939856819882943,0.11417427190568562,12.1999998093,0.0,0.4119890096041958,0.9376183016971232
1648383742312018229,33699,1,3,1.0290504694,0.032230630517,0.0613301247358,0.0,12.1999998093,0.34416403658862876,0.010779475089297658,0.02051174740327759,12.1999998093,0.0,0.4868408007194536,1.031380175452288
1648383742312028265,33700,1,4,2.50119161606,0.082041606307,0.793520510197,0.0,12.1999998093,0.8365189351371236,0.027438664316722407,0.2653914749822742,12.1999998093,0.0,1.183334584124617,2.625331431556323
1648383742312034321,33701,1,5,0.50400531292,0.228544458747,0.101154454052,-0.485512852669,12.1999998093,0.16856364980602004,0.07643627382842809,0.03383092108762542,12.1999998093,-0.06560984495527027,0.25033959340988704,0.5625710165393383
1648383742312072118,33702,1,6,0.520936489105,0.193383783102,0.0878292545676,-0.242756426334,12.1999998093,0.17422625053678928,0.06467685053578595,0.02937433263130435,12.1999998093,-0.03280492247756756,0.25474039284621613,0.562570965484165
1648383742507310528,33703,3,0,0.00784974731505,0.0454158857465,0.00857898779213,0.0,32.2000007629,0.0026253335501839467,0.015189259446989964,0.0028692266863311034,32.2000007629,0.0,0.01563644317123996,0.0468809155476596
1648383742507345988,33704,3,1,0.0316260531545,0.0161153152585,-0.0306253097951,0.0,32.2000007629,0.01057727530250836,0.005389737544648829,-0.010242578526789297,32.2000007629,0.0,0.01589989863018956,0.046880915350043566
1648383742507372311,33705,3,2,0.933733284473,-0.0293005723506,-0.0800731107593,0.0,32.2000007629,0.31228537942240797,-0.009799522525284281,-0.026780304601772574,32.2000007629,0.0,0.44174692646776637,0.9376182982106739
1648383742507392930,33706,3,3,2.48420667648,0.164083212614,0.833162248135,0.0,32.2000007629,0.8308383533377925,0.054877328633444813,0.2786495813160535,32.2000007629,0.0,1.176263686403713,2.6253314921828266
1648383742507600571,33707,3,4,0.537041544914,-0.0879017189145,0.142638653517,0.323675245047,32.2000007629,0.17961255682742475,-0.02939856819882943,0.04770523528996655,32.2000007629,0.04373989797932432,0.2557061144210498,0.5625709898571757
1648383742612607309,33708,4,0,0.00777089362964,0.0454158857465,0.00865047797561,0.0,37.5999984741,0.002598961080147157,0.015189259446989964,0.0028931364466923074,37.5999984741,0.0,0.015627629376850898,0.046880915468331404
1648383742612679716,33709,4,1,0.0316766984761,0.0161153152585,-0.030572924763,0.0,37.5999984741,0.01059421353715719,0.005389737544648829,-0.01022505844916388,37.5999984741,0.0,0.015922436740083677,0.04688091659503532
1648383742612707354,33710,4,2,0.968969345093,-0.061531201005,0.162944987416,0.0,37.5999984741,0.32407001508127087,-0.020578996991638794,0.05449665130969899,37.5999984741,0.0,0.4587660018644931,0.98449923786211
1648383742612715952,33711,4,3,0.556834638119,-0.228544458747,0.0955731645226,0.404594063759,37.5999984741,0.1862323204411371,-0.07643627382842809,0.031964269071103675,37.5999984741,0.05467487348094594,0.27423978250894815,0.6094518960590252
1648383742807394777,33712,6,0,0.00775059545413,0.0454158857465,0.00866866949946,0.0,37.4000015259,0.0025921723926856186,0.015189259446989964,0.0028992205683812705,37.4000015259,0.0,0.01562537417071274,0.04688091550859038
1648383742807431113,33713,6,1,0.0316260531545,0.0161153152585,-0.0306253097951,0.0,37.4000015259,0.01057727530250836,0.005389737544648829,-0.010242578526789297,37.4000015259,0.0,0.01589989863018956,0.046880915350043566
1648383742807461310,33714,6,2,0.902653872967,-0.0293005723506,0.251963317394,0.0,37.4000015259,0.3018909274137123,-0.009799522525284281,0.08426866802474917,37.4000015259,0.0,0.42705069342075325,0.9376182865295382
1648383742807485714,33715,6,3,0.656866550446,-0.241729721427,-0.0678425580263,0.242756426334,37.4000015259,0.21968780951371233,-0.08084606067792642,-0.022689818737892976,37.4000015259,0.03280492247756756,0.3210320121498871,0.7032137199995135
1648383742807560150,33716,6,4,0.569316506386,0.373582303524,-0.175569295883,0.242756426334,37.4000015259,0.19040685832307688,0.12494391422207357,-0.058718828054515046,37.4000015259,0.03280492247756756,0.29685101497899824,0.7032137652284054
