%time,field.header.seq,field.header.frame_id,field.point_id,field.x,field.y,field.z,field.velocity,field.intensity,normalized_x,normalized_y,normalized_z,normalized_intensity,normalized_velocity,normalized_range,range
1648383444607475076,25788,0,0,0.00777811044827,0.0454158857465,0.00864398945123,0.0,14.8999996185,0.002601374731862876,0.015189259446989964,0.0028909663716488294,14.8999996185,0.0,0.015628432536218186,0.04688091545519993
1648383444607545501,25789,0,1,0.031720533967,0.0161153152585,-0.0305274389684,0.0,14.8999996185,0.01060887423645485,0.005389737544648829,-0.010209845808829431,14.8999996185,0.0,0.015941947683079008,0.04688091499748945
1648383444607550569,25790,0,2,1.01076948643,0.0351606868207,0.493004381657,0.0,14.8999996185,0.33804999546153847,0.011759427030334446,0.16488440858093645,14.8999996185,0.0,0.4782194924793155,1.1251420127826846
1648383444607553500,25791,0,3,0.60363471508,-0.949338555336,0.0180535446852,0.0,14.8999996185,0.20188452009364546,-0.3175045335571906,0.006037974811103678,14.8999996185,0.0,0.42699396686165514,1.1251419876499396
1648383444712453487,25792,1,0,0.00782407168299,0.0454158857465,0.00860241055489,0.0,11.8000001907,0.002616746382270903,0.015189259446989964,0.002877060386250836,11.8000001907,0.0,0.01563356407880908,0.04688091555414197
1648383444712461050,25793,1,1,0.0317103527486,0.0161153152585,-0.0305380169302,0.0,11.8000001907,0.010605469146688962,0.005389737544648829,-0.010213383588695652,11.8000001907,0.0,0.01593741580190905,0.046880916537016086
1648383444712463760,25794,1,2,0.674883902073,-0.952268660069,-0.106554701924,0.0,11.8000001907,0.2257136796230769,-0.3184845016953177,-0.035637024054849496,11.8000001907,0.0,0.45091652016542133,1.17202294633211
1648383444907863064,25795,3,0,0.00774472299963,0.0454158857465,0.00867391657084,0.0,12.5,0.0025902083610802673,0.015189259446989964,0.0029009754417525084,12.5,0.0,0.015624722757719388,0.04688091553242142
1648383444907919971,25796,3,1,0.0318137221038,0.0161153152585,-0.0304303113371,0.0,12.5,0.010640040837391304,0.005389737544648829,-0.010177361651204012,12.5,0.0,0.015983435451832825,0.046880914539410304
1648383444907943403,25797,3,2,0.434516787529,-1.01965987682,-0.193477123976,0.0,12.5,0.14532334031070235,-0.34102337017391304,-0.064708068219398,12.5,0.0,0.3981641438940655,1.1251419912807112
1648383444907955302,25798,3,3,0.309605181217,1.22622895241,-0.0521363504231,0.0,12.5,0.10354688335016721,0.4101100175284281,-0.017436906496020064,12.5,0.0,0.4354700225965432,1.2657847411785221
1648383444907964000,25799,3,4,0.787578225136,0.290075659752,-0.0875806361437,-0.404594063759,12.5,0.26340408867424747,0.09701527082006689,-0.02929118265675585,12.5,-0.05467487348094594,0.384935566858809,0.8438564551606305
1648383444908006724,25800,3,5,0.329893857241,0.892202436924,0.253739088774,-0.404594063759,12.5,0.11033239372608696,0.2983954638541806,0.08486257149632105,12.5,-0.05467487348094594,0.3367288628249859,0.9844991979023291
1648383445012865059,25801,4,0,0.00782407168299,0.0454158857465,0.00860241055489,0.0,21.0,0.002616746382270903,0.015189259446989964,0.002877060386250836,21.0,0.0,0.01563356407880908,0.04688091555414197
1648383445012890520,25802,4,1,0.031804472208,0.0161153152585,-0.0304399821907,0.0,21.0,0.010636947226755853,0.005389737544648829,-0.010180596050401336,21.0,0.0,0.015979316737888865,0.04688091673677489
1648383445012919653,25803,4,2,0.696001946926,0.395557701588,0.26685026288,-0.404594063759,21.0,0.23277657087826087,0.13229354568160534,0.08924757955852843,21.0,-0.05467487348094594,0.3547836610227351,0.8438564263009963
1648383445012944068,25804,4,3,0.446323394775,0.361862063408,-0.680635333061,-0.242756426334,21.0,0.1492720383862876,0.12102410147424747,-0.22763723513745818,21.0,-0.03280492247756756,0.24333334343168753,0.8907374373340521
