%time,field.header.seq,field.header.frame_id,field.point_id,field.x,field.y,field.z,field.velocity,field.intensity,normalized_x,normalized_y,normalized_z,normalized_intensity,normalized_velocity,normalized_range,range
1648383426907315336,25364,0,0,0.00779817998409,0.0454158857465,0.00862588826567,0.0,12.8000001907,0.002608086951200669,0.015189259446989964,0.002884912463434782,12.8000001907,0.0,0.01563066977573323,0.04688091549420965
1648383426907319910,25365,0,1,0.0316167213023,0.0161153152585,-0.0306349415332,0.0,12.8000001907,0.010574154281705684,0.005389737544648829,-0.010245799843879598,12.8000001907,0.0,0.01589574623434919,0.04688091396859425
1648383426907329711,25366,0,2,0.332379370928,1.14272224903,0.263507664204,0.0,12.8000001907,0.11116366920668896,0.3821813541906354,0.0881296535799331,12.8000001907,0.0,0.41325211456685407,1.2189038000354753
1648383427012234326,25367,1,0,0.00777811044827,0.0454158857465,0.00864398945123,0.0,11.6000003815,0.002601374731862876,0.015189259446989964,0.0028909663716488294,11.6000003815,0.0,0.015628432536218186,0.04688091545519993
1648383427012254814,25368,1,1,0.0316433869302,0.0161153152585,-0.0306073985994,0.0,11.6000003815,0.010583072551906355,0.005389737544648829,-0.010236588160334447,11.6000003815,0.0,0.015907612016830955,0.04688091478755239
1648383427012257656,25369,1,2,0.389319688082,1.10463154316,0.337558686733,0.0,11.6000003815,0.13020725353913043,0.3694419876789297,0.11289588185050166,11.6000003815,0.0,0.4127895832122769,1.2189038242048533
1648383427012288991,25370,1,3,1.14115333557,0.380907416344,-0.195971950889,0.0,11.6000003815,0.3816566339698997,0.12739378473043478,-0.06554245849130434,11.6000003815,0.0,0.5545743853572866,1.21890377005063
1648383427012303225,25371,1,4,0.708052515984,0.501039803028,-0.202568277717,-0.323675245047,11.6000003815,0.23680686153311034,0.16757184047759197,-0.06774858786521738,11.6000003815,-0.04373989797932432,0.37448004093592346,0.8907374230079487
1648383427207237799,25372,3,0,0.00777811044827,0.0454158857465,0.00864398945123,0.0,15.3000001907,0.002601374731862876,0.015189259446989964,0.0028909663716488294,15.3000001907,0.0,0.015628432536218186,0.04688091545519993
1648383427207242716,25373,3,1,0.0316340327263,0.0161153152585,-0.030617069453,0.0,15.3000001907,0.010579944055618727,0.005389737544648829,-0.01023982255953177,15.3000001907,0.0,0.01590344941326382,0.046880916739109185
1648383427207414796,25374,3,2,0.70934844017,0.448298752308,0.089144334197,-0.485512852669,15.3000001907,0.23724028099331101,0.14993269307959864,0.02981415859431438,15.3000001907,-0.06560984495527027,0.367485665442438,0.8438564411153996
1648383427207419805,25375,3,3,0.752762138844,0.36918720603,0.0956227257848,-0.323675245047,15.3000001907,0.25175991265685616,0.12347398194983276,0.031980844744080264,15.3000001907,-0.04373989797932432,0.37684470470012355,0.8438564667404915
1648383427207422503,25376,3,4,0.527691304684,0.830671191216,-0.0276771169156,-0.242756426334,15.3000001907,0.1764853861819398,0.2778164519117057,-0.009256560841337792,15.3000001907,-0.03280492247756756,0.37346507738259266,0.9844992451780095
1648383427312226856,25377,4,0,0.00779817998409,0.0454158857465,0.00862588826567,0.0,24.1000003815,0.002608086951200669,0.015189259446989964,0.002884912463434782,24.1000003815,0.0,0.01563066977573323,0.04688091549420965
1648383427312231257,25378,4,1,0.0317103527486,0.0161153152585,-0.0305380169302,0.0,24.1000003815,0.010605469146688962,0.005389737544648829,-0.010213383588695652,24.1000003815,0.0,0.01593741580190905,0.046880916537016086
1648383427312237471,25379,4,2,0.751174509525,0.199243888259,0.176660209894,-0.161837622523,24.1000003815,0.251228932951505,0.06663675192608695,0.05908368223879598,24.1000003815,-0.021869948989594594,0.3614863900773616,0.7969755959428628
1648383427507193075,25380,6,0,0.00777811044827,0.0454158857465,0.00864398945123,0.0,37.9000015259,0.002601374731862876,0.015189259446989964,0.0028909663716488294,37.9000015259,0.0,0.015628432536218186,0.04688091545519993
1648383427507206783,25381,6,1,0.0316433869302,0.0161153152585,-0.0306073985994,0.0,37.9000015259,0.010583072551906355,0.005389737544648829,-0.010236588160334447,37.9000015259,0.0,0.015907612016830955,0.04688091478755239
1648383427507208773,25382,6,2,0.72993427515,-0.117202289402,0.126891747117,-0.323675245047,37.9000015259,0.24412517563545147,-0.03919809010100334,0.04243871141036789,37.9000015259,-0.04373989797932432,0.34746322542917607,0.7500946194755904
1648383427507211480,25383,6,3,0.764041364193,-0.174338400364,0.144972220063,-0.0809188112617,37.9000015259,0.25553222882709026,-0.058307157312374576,0.04848569232876254,37.9000015259,-0.010934974494824324,0.3660507676983219,0.7969755508353902
