%time,field.header.seq,field.header.frame_id,field.point_id,field.x,field.y,field.z,field.velocity,field.intensity,normalized_x,normalized_y,normalized_z,normalized_intensity,normalized_velocity,normalized_range,range
1648383643306632232,30967,0,0,0.00769781274721,0.0454158857465,0.0087155746296,0.0,29.6000003815,0.00257451931344816,0.015189259446989964,0.0029149079028762542,29.6000003815,0.0,0.015619535906633368,0.04688091552385018
1648383643306660125,30968,0,1,0.0317032895982,0.0161153152585,-0.0305453501642,0.0,29.6000003815,0.010603106889030099,0.005389737544648829,-0.010215836175317725,29.6000003815,0.0,0.015934271938202644,0.046880916947962654
1648383643306666612,30969,0,2,1.02561020851,0.101086974144,0.317099332809,0.0,29.6000003815,0.34301344766220737,0.03380835255652174,0.10605328856488293,29.6000003815,0.0,0.4862709689636158,1.0782610365813226
1648383643306686975,30970,0,3,0.529551565647,0.12306240201,0.144626900554,-0.647350490093,29.6000003815,0.17710754703913043,0.04115799398327759,0.048370200854180596,29.6000003815,-0.08747979595851352,0.2538270019228906,0.5625710229220098
1648383643411826903,30971,1,0,0.00775693543255,0.0454158857465,0.00866299681365,0.0,40.7000007629,0.00259429278680602,0.015189259446989964,0.002897323349046823,40.7000007629,0.0,0.015626077968425772,0.04688091551193514
1648383643411837324,30972,1,1,0.0317032895982,0.0161153152585,-0.0305453501642,0.0,40.7000007629,0.010603106889030099,0.005389737544648829,-0.010215836175317725,40.7000007629,0.0,0.015934271938202644,0.046880916947962654
1648383643411840151,30973,1,2,0.470705747604,-0.064461261034,0.200542062521,0.0,40.7000007629,0.15742667143946487,-0.021558950178595316,0.06707092392006687,40.7000007629,0.0,0.2236763333341764,0.5156900947678855
1648383643411845564,30974,1,3,0.471882909536,-0.096691891551,0.184156104922,0.161837622523,40.7000007629,0.15782037108227423,-0.032338425267892976,0.06159067054247491,40.7000007629,0.021869948989594594,0.2255223111044683,0.5156900941301023
1648383643411891027,30975,1,4,0.996506631374,0.0673913136125,0.406300067902,0.161837622523,40.7000007629,0.33327980982408023,0.02253890087374582,0.13588631033511706,40.7000007629,0.021869948989594594,0.4718674234627208,1.0782610076878165
1648383643411899965,30976,1,5,0.550828933716,-0.0,0.114339850843,-0.242756426334,40.7000007629,0.18422372365083609,-0.0,0.038240752790301,40.7000007629,-0.03280492247756756,0.2605316884978855,0.5625709872625009
1648383643606904000,30977,3,0,0.00775693543255,0.0454158857465,0.00866299681365,0.0,32.9000015259,0.00259429278680602,0.015189259446989964,0.002897323349046823,32.9000015259,0.0,0.015626077968425772,0.04688091551193514
1648383643606908362,30978,3,1,0.0317965820432,0.0161153152585,-0.0304482225329,0.0,32.9000015259,0.010634308375652175,0.005389737544648829,-0.010183352017692307,32.9000015259,0.0,0.015975803580951076,0.046880915849882784
1648383643606912152,30979,3,2,1.03043961525,0.101086974144,0.301035404205,0.0,32.9000015259,0.34462863386287623,0.03380835255652174,0.10068073719230769,32.9000015259,0.0,0.4885496855581537,1.078260957098524
1648383643606941279,30980,3,3,0.617881536484,-0.205104023218,0.0832318142056,-0.242756426334,32.9000015259,0.2066493433056856,-0.06859666328361204,0.027836727159063542,32.9000015259,-0.03280492247756756,0.3001889478161837,0.6563328335257913
1648383643711853364,30981,4,0,0.00775693543255,0.0454158857465,0.00866299681365,0.0,33.0,0.00259429278680602,0.015189259446989964,0.002897323349046823,33.0,0.0,0.015626077968425772,0.04688091551193514
1648383643711860956,30982,4,1,0.0317196249962,0.0161153152585,-0.0305283833295,0.0,33.0,0.010608570232842809,0.005389737544648829,-0.010210161648662206,33.0,0.0,0.01594154307369629,0.046880914928073794
1648383643711869733,30983,4,2,1.03112769127,0.168478280306,0.266528367996,0.0,33.0,0.3448587596220736,0.05634725093846154,0.08913992240668896,33.0,0.0,0.49094820588782295,1.0782609227757811
1648383643711872693,30984,4,3,0.727980554104,-0.323771327734,-0.0196586996317,-0.404594063759,33.0,0.24347175722541803,-0.10828472499464883,-0.006574815930334448,33.0,-0.05467487348094594,0.3609467755778302,0.7969755481113668
1648383643906804578,30985,6,0,0.00777717260644,0.0454158857465,0.00864483322948,0.0,31.8999996185,0.0026010610723879598,0.015189259446989964,0.0028912485717324412,31.8999996185,0.0,0.015628328124036743,0.04688091545026637
1648383643906815593,30986,6,1,0.0317196249962,0.0161153152585,-0.0305283833295,0.0,31.8999996185,0.010608570232842809,0.005389737544648829,-0.010210161648662206,31.8999996185,0.0,0.01594154307369629,0.046880914928073794
1648383643906821599,30987,6,2,1.03742229939,0.134782627225,0.261219203472,0.0,31.8999996185,0.3469639797290969,0.04507780174749164,0.08736428209765885,31.8999996185,0.0,0.49274741467540195,1.0782610333939802
1648383643906827621,30988,6,3,0.65870654583,-0.527410268784,0.00615020934492,0.161837622523,31.8999996185,0.22030319258528427,-0.17639139424214045,0.002056926202314381,31.8999996185,0.021869948989594594,0.3580236267192766,0.8438564630392347
