%time,field.header.seq,field.header.frame_id,field.point_id,field.x,field.y,field.z,field.velocity,field.intensity,normalized_x,normalized_y,normalized_z,normalized_intensity,normalized_velocity,normalized_range,range
1648465745304890057,101974,0,0,0.0132584534585,0.0439508594573,0.00950555689633,0.0,26.2000007629,0.0044342653707357856,0.014699284099431437,0.0031791160188394648,26.2000007629,0.0,0.015981062911834463,0.04688091559532422
1648465745304920500,101975,0,1,0.0336977690458,0.0146502861753,-0.0291144233197,0.0,26.2000007629,0.011270156871505016,0.0048997612626421405,-0.009737265324314381,26.2000007629,0.0,0.016674547437563397,0.04688091476198981
1648465745304938829,101976,0,2,0.782332360744,-0.0249054860324,0.150019481778,0.0,26.2000007629,0.26164961897792643,-0.00832959399076923,0.05017373972508361,26.2000007629,0.0,0.3701221803116361,0.7969755647538574
1648465745304989199,101977,0,3,0.550861477852,0.190453708172,0.178074762225,-0.0809188112617,26.2000007629,0.18423460797725752,0.06369689236521739,0.05955677666387959,26.2000007629,-0.010934974494824324,0.26822019992918805,0.6094518879117901
1648465745410202764,101978,1,0,0.0132584534585,0.0439508594573,0.00950555689633,0.0,21.1000003815,0.0044342653707357856,0.014699284099431437,0.0031791160188394648,21.1000003815,0.0,0.015981062911834463,0.04688091559532422
1648465745410251662,101979,1,1,0.0336607210338,0.0146502861753,-0.0291572511196,0.0,21.1000003815,0.011257766232040134,0.0048997612626421405,-0.0097515890032107,21.1000003815,0.0,0.016657798819214222,0.046880916356070806
1648465745410290670,101980,1,2,0.317724794149,0.574291229248,0.00365346227773,0.0,21.1000003815,0.10626247295953177,0.1920706452334448,0.0012218937383712374,21.1000003815,0.0,0.24387406397430264,0.656332848937807
1648465745410346762,101981,1,3,0.74554002285,-0.0,0.082535520196,0.0,21.1000003815,0.2493444892474916,-0.0,0.0276038529083612,21.1000003815,0.0,0.352626358396795,0.7500946858665264
1648465745410429090,101982,1,4,0.292429417372,0.679773271084,0.122618533671,0.0,21.1000003815,0.0978024807264214,0.22734892009498325,0.04100954303377926,21.1000003815,0.0,0.26611685767880083,0.7500946400451044
1648465745410486093,101983,1,5,0.517544150352,0.0879017189145,0.202256023884,-0.0809188112617,21.1000003815,0.17309168908093642,0.02939856819882943,0.0676441551451505,21.1000003815,-0.010934974494824324,0.24654764543577445,0.5625710256928119
1648465745410504941,101984,1,6,0.520017445087,0.0527410283685,0.208053737879,-0.0809188112617,21.1000003815,0.1739188779555184,0.017639139922575247,0.06958318992608695,21.1000003815,-0.010934974494824324,0.24659012850440948,0.5625709885104293
1648465745604983022,101985,3,0,0.0132584534585,0.0439508594573,0.00950555689633,0.0,12.8000001907,0.0044342653707357856,0.014699284099431437,0.0031791160188394648,12.8000001907,0.0,0.015981062911834463,0.04688091559532422
1648465745605013628,101986,3,1,0.033736359328,0.0146502861753,-0.029069699347,0.0,12.8000001907,0.011283063320401339,0.0048997612626421405,-0.009722307473913042,12.8000001907,0.0,0.016691994974096437,0.046880915582474404
1648465745605042569,101987,3,2,0.313706189394,0.574291229248,0.0505056418478,0.0,12.8000001907,0.10491845799130435,0.1920706452334448,0.016891519012642138,12.8000001907,0.0,0.24270743378590198,0.6563328493331272
1648465745605075691,101988,3,3,0.539364755154,0.0879017189145,0.133585572243,-0.0809188112617,12.8000001907,0.18038955021872907,0.02939856819882943,0.044677448910702335,12.8000001907,-0.010934974494824324,0.25679769365859184,0.5625710234289959
