%time,field.header.seq,field.header.frame_id,field.point_id,field.x,field.y,field.z,field.velocity,field.intensity,normalized_x,normalized_y,normalized_z,normalized_intensity,normalized_velocity,normalized_range,range
1648465804106550184,103642,0,0,0.0132478391752,0.0439508594573,0.00952034443617,0.0,11.3999996185,0.004430715443210702,0.014699284099431437,0.0031840616843377923,11.3999996185,0.0,0.015979093582340943,0.046880915605719706
1648465804106563191,103643,0,1,0.0336091145873,0.0146502861753,-0.0292167179286,0.0,11.3999996185,0.011240506550936455,0.0048997612626421405,-0.009771477568093644,11.3999996185,0.0,0.016634471301312202,0.046880913759010975
1648465804106568883,103644,0,2,0.317099660635,0.574291229248,0.0202533025295,0.0,11.3999996185,0.10605339820568561,0.1920706452334448,0.006773679775752508,11.3999996185,0.0,0.24369197627812708,0.6563328477452295
1648465804106592759,103645,0,3,0.319704562426,0.336956590414,0.063492320478,-0.485512852669,11.3999996185,0.10692460281806018,0.11269451184414715,0.021234889791973244,11.3999996185,-0.06560984495527027,0.18858895613314813,0.4688091571408448
1648465804106600871,103646,0,4,0.35654091835,0.197778850794,0.108561232686,-0.323675245047,11.3999996185,0.11924445429765886,0.06614677284080267,0.03630810457725752,11.3999996185,-0.04373989797932432,0.18114600552798743,0.42192824214735913
1648465804106604059,103647,0,5,0.478984206915,0.145037829876,0.124396160245,-0.161837622523,11.3999996185,0.16019538692809362,0.048507635410033445,0.0416040669715719,11.3999996185,-0.021869948989594594,0.23168537864776012,0.5156900689879831
1648465804106662611,103648,0,6,0.334733277559,0.338421612978,-0.198395326734,-0.161837622523,11.3999996185,0.11195092894949832,0.11318448594581938,-0.06635295208494983,11.3999996185,-0.021869948989594594,0.19461949759500108,0.5156900822256643
1648465804211511364,103649,1,0,0.0132584534585,0.0439508594573,0.00950555689633,0.0,13.3000001907,0.0044342653707357856,0.014699284099431437,0.0031791160188394648,13.3000001907,0.0,0.015981062911834463,0.04688091559532422
1648465804211525425,103650,1,1,0.0337503887713,0.0146502861753,-0.0290534067899,0.0,13.3000001907,0.011287755441906355,0.0048997612626421405,-0.009716858458160534,13.3000001907,0.0,0.01669833842822278,0.04688091374249746
1648465804211529057,103651,1,2,0.316490411758,0.574291229248,0.028217215091,0.0,13.3000001907,0.10584963603946489,0.1920706452334448,0.009437195682608694,13.3000001907,0.0,0.24351472986200687,0.6563328484491837
1648465804211532134,103652,1,3,0.790788531303,-0.0747164562345,0.0651229545474,0.0,13.3000001907,0.2644777696665552,-0.024988781349331104,0.021780252356989965,13.3000001907,0.0,0.3748618685448222,0.7969755637920026
1648465804211534294,103653,1,4,0.323780119419,0.250519871712,0.102125734091,-0.485512852669,13.3000001907,0.10828766535752507,0.08378591027157191,0.03415576391003344,13.3000001907,-0.06560984495527027,0.17456378690095656,0.42192823728355094
1648465804211547684,103654,1,5,0.488981872797,0.11280720681,0.118775047362,-0.161837622523,13.3000001907,0.16353908789197324,0.03772816281270903,0.0397240961076923,13.3000001907,-0.021869948989594594,0.23433625585107265,0.5156900713686283
1648465804406762683,103655,3,0,0.331619739532,0.197778850794,0.170103773475,-0.242756426334,16.2999992371,0.11090961188361204,0.06614677284080267,0.05689089413879598,16.2999992371,-0.03280492247756756,0.1702271411191519,0.4219282157181491
1648465804706739395,103656,6,0,0.0133139379323,0.0439508594573,0.00942768435925,0.0,28.3999996185,0.004452822050936455,0.014699284099431437,0.0031530716920568557,28.3999996185,0.0,0.015991378973384682,0.04688091533532723
1648465804706745225,103657,6,1,0.0336977690458,0.0146502861753,-0.0291144233197,0.0,28.3999996185,0.011270156871505016,0.0048997612626421405,-0.009737265324314381,28.3999996185,0.0,0.016674547437563397,0.04688091476198981
1648465804706811312,103658,6,2,0.82819634676,-0.293005734682,0.327668398619,0.0,28.3999996185,0.27698874473578594,-0.09799522899063544,0.10958809318361203,28.3999996185,0.0,0.4037927616061732,0.9376183278907727
1648465804706821832,103659,6,3,0.738686561584,0.498109728098,0.292159259319,0.0,28.3999996185,0.24705236173377926,0.1665918823070234,0.0977121268625418,28.3999996185,0.0,0.38706923686476735,0.9376183500212029
