%time,field.header.seq,field.header.frame_id,field.point_id,field.x,field.y,field.z,field.velocity,field.intensity,normalized_x,normalized_y,normalized_z,normalized_intensity,normalized_velocity,normalized_range,range
1648383711111979648,32834,0,0,0.00777089362964,0.0454158857465,0.00865047797561,0.0,21.0,0.002598961080147157,0.015189259446989964,0.0028931364466923074,21.0,0.0,0.015627629376850898,0.046880915468331404
1648383711111984700,32835,0,1,0.0317032895982,0.0161153152585,-0.0305453501642,0.0,21.0,0.010603106889030099,0.005389737544648829,-0.010215836175317725,21.0,0.0,0.015934271938202644,0.046880916947962654
1648383711112032956,32836,0,2,0.974631726742,-0.0307656005025,0.135591953993,0.0,21.0,0.32596378820802674,-0.010289498495819397,0.045348479596321066,21.0,0.0,0.46109723077150455,0.9844992142881638
1648383711306929898,32837,2,0,0.00777089362964,0.0454158857465,0.00865047797561,0.0,26.3999996185,0.002598961080147157,0.015189259446989964,0.0028931364466923074,26.3999996185,0.0,0.015627629376850898,0.046880915468331404
1648383711306973254,32838,2,1,0.0316940024495,0.0161153152585,-0.0305549837649,0.0,26.3999996185,0.010600000819230768,0.005389737544648829,-0.01021905811535117,26.3999996185,0.0,0.01593013827735287,0.046880915200356935
1648383711307076969,32839,2,2,0.926916599274,-0.0,0.141257464886,0.0,26.3999996185,0.3100055515966555,-0.0,0.04724329929297658,26.3999996185,0.0,0.4384140554789425,0.9376182876819845
1648383711307081564,32840,2,3,0.4781049788,0.177268475294,0.0769919902086,-0.404594063759,26.3999996185,0.15990133070234114,0.05928711548294314,0.02574982950120401,26.3999996185,-0.05467487348094594,0.23377731537308483,0.515690071305129
1648383711307083456,32841,2,4,0.480407476425,0.128922522068,0.13610252738,-0.242756426334,26.3999996185,0.16067139679765885,0.04311790035719063,0.0455192399264214,26.3999996185,-0.03280492247756756,0.2312785092243421,0.5156900794669551
1648383711412116852,32842,3,0,0.00775059545413,0.0454158857465,0.00866866949946,0.0,24.6000003815,0.0025921723926856186,0.015189259446989964,0.0028992205683812705,24.6000003815,0.0,0.01562537417071274,0.04688091550859038
1648383711412119423,32843,3,1,0.0317368544638,0.0161153152585,-0.0305104702711,0.0,24.6000003815,0.010614332596588628,0.005389737544648829,-0.01020417065923077,24.6000003815,0.0,0.015949212637061585,0.04688091416878453
1648383711412122292,32844,3,2,0.509057283401,-0.0161153152585,0.080853253603,0.161837622523,24.6000003815,0.17025327204046822,-0.005389737544648829,0.027041221940802673,24.6000003815,0.021869948989594594,0.24083480344786456,0.5156900908371983
1648383711606991462,32845,5,0,0.00777089362964,0.0454158857465,0.00865047797561,0.0,34.7999992371,0.002598961080147157,0.015189259446989964,0.0028931364466923074,34.7999992371,0.0,0.015627629376850898,0.046880915468331404
1648383711607170071,32846,5,1,0.0316930636764,0.0161153152585,-0.0305559579283,0.0,34.7999992371,0.010599686848294314,0.005389737544648829,-0.010219383922508362,34.7999992371,0.0,0.01592972044211712,0.04688091547733712
1648383711607173881,32847,5,2,0.980706930161,-0.0,0.0863288491964,0.0,34.7999992371,0.32799562881638794,-0.0,0.028872524814849497,34.7999992371,0.0,0.46385586667122736,0.984499239750538
1648383711607174962,32848,5,3,0.564959526062,-0.228544458747,-0.00444683758542,0.485512852669,34.7999992371,0.1889496742682274,-0.07643627382842809,-0.0014872366506421405,34.7999992371,0.06560984495527027,0.27793247879460387,0.6094518931602968
1648383711607175958,32849,5,4,1.54301762581,-0.096691891551,0.0563357397914,0.566431701183,34.7999992371,0.5160594066254179,-0.032338425267892976,0.018841384545618726,34.7999992371,0.07654482448418919,0.7305343223161825,1.5470702734620312
1648383711607184349,32850,5,5,1.52803969383,-0.241729736328,-0.00936052482575,0.566431701183,34.7999992371,0.511050064826087,-0.08084606566153846,-0.0031306103096153844,34.7999992371,0.07654482448418919,0.727241654369746,1.5470701958121675
1648383711712074291,32851,6,0,0.00774472299963,0.0454158857465,0.00867391657084,0.0,13.8999996185,0.0025902083610802673,0.015189259446989964,0.0029009754417525084,13.8999996185,0.0,0.015624722757719388,0.04688091553242142
1648383711712085252,32852,6,1,0.0316260531545,0.0161153152585,-0.0306253097951,0.0,13.8999996185,0.01057727530250836,0.005389737544648829,-0.010242578526789297,13.8999996185,0.0,0.01589989863018956,0.046880915350043566
1648383711712088921,32853,6,2,0.920169591904,-0.0293005723506,0.177644073963,0.0,13.8999996185,0.30774902739264215,-0.009799522525284281,0.05941273376688963,13.8999996185,0.0,0.4353331578962921,0.9376182690301094
1648383711712092048,32854,6,3,0.581855297089,-0.246124818921,-0.177875846624,0.566431701183,13.8999996185,0.19460043380903008,-0.08231599295016721,-0.05949024970702341,13.8999996185,0.07654482448418919,0.2872535123766068,0.656332865283789
