%time,field.header.seq,field.header.frame_id,field.point_id,field.x,field.y,field.z,field.velocity,field.intensity,normalized_x,normalized_y,normalized_z,normalized_intensity,normalized_velocity,normalized_range,range
1648383367506039245,23888,0,0,0.00781066855416,0.0454158857465,0.00861458200961,0.0,17.3999996185,0.002612263730488294,0.015189259446989964,0.002881131106892976,17.3999996185,0.0,0.015632064679472868,0.04688091556915651
1648383367506044739,23889,0,1,0.0316872633994,0.0161153152585,-0.0305619724095,0.0,17.3999996185,0.010597746956321069,0.005389737544648829,-0.010221395454682274,17.3999996185,0.0,0.015927138848538434,0.04688091514873442
1648383367506073139,23890,0,2,0.518036067486,-0.943478405476,-0.0642953291535,0.0,17.3999996185,0.17325620986153845,-0.3155446172160535,-0.02150345456638796,17.3999996185,0.0,0.39950448553826856,1.0782609879648117
1648383367611260393,23891,1,0,0.00772544462234,0.0454158857465,0.00869109109044,0.0,16.5,0.002583760743257525,0.015189259446989964,0.0029067194282408025,16.5,0.0,0.015622587548315138,0.046880915489080514
1648383367611267752,23892,1,1,0.0316433869302,0.0161153152585,-0.0306073985994,0.0,16.5,0.010583072551906355,0.005389737544648829,-0.010236588160334447,16.5,0.0,0.015907612016830955,0.04688091478755239
1648383367611294751,23893,1,2,0.497419893742,-0.902457654476,-0.0434586778283,0.0,16.5,0.16636116847558527,-0.30182530250033446,-0.014534674858963209,16.5,0.0,0.38268863320268937,1.031380155660952
1648383367611333416,23894,1,3,0.84727460146,0.290075659752,-0.511592447758,0.0,16.5,0.2833694319264214,0.09701527082006689,-0.17110115309632104,16.5,0.0,0.41232078855291354,1.0313801293716987
1648383367806641387,23895,3,0,0.00778458407149,0.0454158857465,0.00863816030324,0.0,12.8999996185,0.0026035398232408026,0.015189259446989964,0.0028890168238260867,12.8999996185,0.0,0.015629153584579537,0.046880915527853215
1648383367806675193,23896,3,1,0.0317540019751,0.0161153152585,-0.0304926261306,0.0,12.8999996185,0.010620067550200667,0.005389737544648829,-0.010198202719264214,12.8999996185,0.0,0.015956846190329953,0.04688091590035382
1648383367806708953,23897,3,2,0.971735298634,0.153827995062,-0.0361401848495,0.0809188112617,12.8999996185,0.32499508315518394,0.05144748998729097,-0.012087018344314379,12.8999996185,0.010934974494824324,0.46248292117231987,0.984499190267346
1648383367806767124,23898,3,3,0.738548338413,0.298865824938,-0.0198915414512,0.242756426334,12.8999996185,0.247006133248495,0.09995512539732442,-0.006652689448561872,12.8999996185,0.03280492247756756,0.36333880444832944,0.7969755974368219
1648383367806798497,23899,3,4,0.409844100475,0.389697611332,-0.688169121742,0.404594063759,12.8999996185,0.13707160551003342,0.13033364927491636,-0.2301568969036789,12.8999996185,0.05467487348094594,0.23358961922036123,0.8907374220785742
1648383367911511469,23900,4,0,0.00772544462234,0.0454158857465,0.00869109109044,0.0,26.8999996185,0.002583760743257525,0.015189259446989964,0.0029067194282408025,26.8999996185,0.0,0.015622587548315138,0.046880915489080514
1648383367911530669,23901,4,1,0.0317540019751,0.0161153152585,-0.0304926261306,0.0,26.8999996185,0.010620067550200667,0.005389737544648829,-0.010198202719264214,26.8999996185,0.0,0.015956846190329953,0.04688091590035382
1648383367911561135,23902,4,2,0.971774876118,0.153827995062,-0.0350615493953,0.0809188112617,26.8999996185,0.3250083197719063,0.05144748998729097,-0.01172627070076923,26.8999996185,0.010934974494824324,0.46250152439522596,0.9844992504643911
1648383367911587441,23903,4,3,0.80073350668,0.210964113474,0.162522956729,0.404594063759,26.8999996185,0.26780384838795984,0.07055655969030099,0.05435550392274247,26.8999996185,0.05467487348094594,0.3852480117250883,0.8438564554222815
1648383368106693449,23904,6,0,0.007745730225,0.0454158857465,0.00867301691324,0.0,42.2999992371,0.002590545225752508,0.015189259446989964,0.0029006745529230765,42.2999992371,0.0,0.015624834452925002,0.046880915490580675
1648383368106791032,23905,6,1,0.0317368544638,0.0161153152585,-0.0305104702711,0.0,42.2999992371,0.010614332596588628,0.005389737544648829,-0.01020417065923077,42.2999992371,0.0,0.015949212637061585,0.04688091416878453
1648383368106808353,23906,6,2,0.971864640713,0.153827995062,0.0324774831533,0.0,42.2999992371,0.3250383413755853,0.05144748998729097,0.010862034499431437,42.2999992371,0.0,0.46254371788445625,0.9844992223689037
1648383368106839456,23907,6,3,0.92170715332,-0.0879017189145,0.147842288017,0.0809188112617,42.2999992371,0.3082632619799331,-0.02939856819882943,0.04944558127658862,42.2999992371,0.010934974494824324,0.4369402169463907,0.9376183289566621
1648383368106862738,23908,6,4,0.932148754597,-0.0879017189145,0.0500008165836,0.242756426334,42.2999992371,0.31175543632006686,-0.02939856819882943,0.016722681131638793,42.2999992371,0.03280492247756756,0.4418678308752197,0.9376183096249181
