%time,field.header.seq,field.header.frame_id,field.point_id,field.x,field.y,field.z,field.velocity,field.intensity,normalized_x,normalized_y,normalized_z,normalized_intensity,normalized_velocity,normalized_range,range
1648383015400246688,17562,0,0,0.00769191095605,0.0454158857465,0.00872078351676,0.0,19.2999992371,0.002572545470250836,0.015189259446989964,0.002916650005605351,19.2999992371,0.0,0.015618885457707603,0.046880915492779535
1648383015400250801,17563,0,1,0.0317385159433,0.0161153152585,-0.0305087435991,0.0,19.2999992371,0.01061488827535117,0.005389737544648829,-0.010203593176956521,19.2999992371,0.0,0.015949952256874397,0.04688091526580487
1648383015400253446,17564,0,2,0.795169174671,0.0249054860324,-0.0474942773581,0.0,19.2999992371,0.2659428677829431,0.00832959399076923,-0.015884373698361202,19.2999992371,0.0,0.37619223807155167,0.7969755366152951
1648383015595146924,17565,2,0,0.00773179670796,0.0454158857465,0.00868544075638,0.0,15.3999996185,0.0025858851866086955,0.015189259446989964,0.002904829684408026,15.3999996185,0.0,0.015623290528714444,0.0468809155158573
1648383015595150785,17566,2,1,0.0317385159433,0.0161153152585,-0.0305087435991,0.0,15.3999996185,0.01061488827535117,0.005389737544648829,-0.010203593176956521,15.3999996185,0.0,0.015949952256874397,0.04688091526580487
1648383015595281462,17567,2,2,0.796932160854,-0.0,0.00831593573093,0.0809188112617,15.3999996185,0.2665324952688963,-0.0,0.002781249408337793,15.3999996185,0.010934974494824324,0.3769338696224159,0.7969755477996214
1648383015595287558,17568,2,3,0.451559633017,0.306190997362,0.704098105431,-0.485512852669,15.3999996185,0.15102328863444814,0.10240501584013377,0.23548431619765886,15.3999996185,-0.06560984495527027,0.23686041182338957,0.8907374310690596
1648383015700333368,17569,3,0,0.00763018382713,0.0454158857465,0.00877484213561,0.0,36.9000015259,0.002551900945528428,0.015189259446989964,0.0029347298112408025,36.9000015259,0.0,0.015612110665107124,0.04688091549745818
1648383015700346520,17570,3,1,0.0317974686623,0.0161153152585,-0.0304472967982,0.0,36.9000015259,0.010634604903779264,0.005389737544648829,-0.010183042407424748,36.9000015259,0.0,0.015976198350019604,0.04688091596298513
1648383015700351395,17571,3,2,0.711966097355,0.348676800728,0.0818462744355,-0.485512852669,36.9000015259,0.23811575162374582,0.11661431462474915,0.027373335931605347,36.9000015259,-0.06560984495527027,0.3563665538712672,0.7969755628548431
1648383015895309091,17572,5,0,0.0077518960461,0.0454158857465,0.00866750627756,0.0,41.2000007629,0.002592607373277592,0.015189259446989964,0.0028988315309565215,41.2000007629,0.0,0.01562551850441836,0.046880915472292395
1648383015895364376,17573,5,1,0.0317215062678,0.0161153152585,-0.0305264294147,0.0,41.2000007629,0.010609199420668895,0.005389737544648829,-0.010209508165451504,41.2000007629,0.0,0.015942380483956582,0.04688091550502805
1648383015895373380,17574,5,2,0.843444287777,0.0263705141842,-0.000160405092174,0.0809188112617,41.2000007629,0.28208839056086954,0.008819569961270902,-5.36471880180602e-05,41.2000007629,0.010934974494824324,0.39903070682936803,0.8438564429639579
1648383015895377775,17575,5,3,0.68225812912,0.131852582097,0.107927531004,-0.323675245047,41.2000007629,0.22817997629431436,0.04409785354414715,0.03609616421538461,41.2000007629,-0.04373989797932432,0.3256943718435257,0.7032137726926202
1648383015895379716,17576,5,4,0.676331043243,0.0439508594573,0.187494531274,-0.0809188112617,41.2000007629,0.22619767332541804,0.014699284099431437,0.06270720109498328,41.2000007629,-0.010934974494824324,0.3202293612220792,0.7032137351892787
1648383016000293131,17577,6,0,0.00763018382713,0.0454158857465,0.00877484213561,0.0,19.3999996185,0.002551900945528428,0.015189259446989964,0.0029347298112408025,19.3999996185,0.0,0.015612110665107124,0.04688091549745818
1648383016000296690,17578,6,1,0.0317650102079,0.0161153152585,-0.0304811578244,0.0,19.3999996185,0.01062374923341137,0.005389737544648829,-0.01019436716535117,19.3999996185,0.0,0.0159617469704608,0.04688091553825304
1648383016000321217,17579,6,2,0.650518000126,0.082041606307,-0.0294676013291,-0.404594063759,19.3999996185,0.21756454853712373,0.027438664316722407,-0.009855385059899665,19.3999996185,-0.05467487348094594,0.3089037809088952,0.6563328676681172
