%time,field.header.seq,field.header.frame_id,field.point_id,field.x,field.y,field.z,field.velocity,field.intensity,normalized_x,normalized_y,normalized_z,normalized_intensity,normalized_velocity,normalized_range,range
1648479472421940668,71709,0,0,0.0131334252656,0.0439508594573,0.00967756938189,0.0,12.8000001907,0.004392449921605351,0.014699284099431437,0.00323664527822408,12.8000001907,0.0,0.01595795054709155,0.04688091568414307
1648479472421985654,71710,0,1,0.0338153243065,0.0146502861753,-0.0289778038859,0.0,12.8000001907,0.011309473012207357,0.0048997612626421405,-0.00969157320598662,12.8000001907,0.0,0.01672770217509212,0.04688091467774106
1648479472422000689,71711,0,2,1.02285957336,-0.096691891551,0.090299770236,0.0,12.8000001907,0.34209350279598666,-0.032338425267892976,0.03020059205217391,12.8000001907,0.0,0.4848728730907335,1.0313801807338487
1648479472422002696,71712,0,3,0.767720282078,0.879017233849,-0.107573509216,0.0,12.8000001907,0.2567626361464883,0.29398569693946486,-0.03597776227959866,12.8000001907,0.0,0.46720626349265776,1.1720229472166988
1648479472422008911,71713,0,4,1.15629327297,-0.109877154231,0.15668605268,0.0,12.8000001907,0.38672015818394645,-0.0367482121173913,0.052403362100334444,12.8000001907,0.0,0.5481381145162758,1.1720228842654983
1648479472422019364,71714,0,5,1.93327558041,-1.31852579117,0.1359654814,0.0,12.8000001907,0.6465804616755852,-0.44097852547491634,0.04547340515050167,12.8000001907,0.0,1.015182075674732,2.3440459346869527
1648479472422049752,71715,0,6,0.638621330261,0.131852582097,0.26322478056,0.0809188112617,12.8000001907,0.21358572918428093,0.04409785354414715,0.08803504366555183,12.8000001907,0.010934974494824324,0.3052578387356548,0.7032137597991349
1648479472722040068,71716,3,0,0.0131334252656,0.0439508594573,0.00967756938189,0.0,20.0,0.004392449921605351,0.014699284099431437,0.00323664527822408,20.0,0.0,0.01595795054709155,0.04688091568414307
1648479472722047614,71717,3,1,0.0339150689542,0.0146502861753,-0.0288610011339,0.0,20.0,0.011342832426153847,0.0048997612626421405,-0.009652508740434782,20.0,0.0,0.016772815962935467,0.046880914812291195
1648479472722080924,71718,3,2,0.732540309429,-0.0234404578805,0.159615814686,0.0,20.0,0.24499675900635448,-0.007839618020234113,0.05338321561404682,20.0,0.0,0.34656641998026677,0.750094639563474
1648479472722088881,71719,3,3,1.05950641632,-0.168478280306,0.108202852309,0.0,20.0,0.3543499720133779,-0.05634725093846154,0.03618824491939799,20.0,0.0,0.5042844614105072,1.0782609305756747
1648479472722091106,71720,3,4,1.98224437237,-1.24527442455,0.120622992516,0.0,20.0,0.6629579840702341,-0.4164797406521739,0.04034213796521739,20.0,0.0,1.0259054301730934,2.34404587210967
1648479472722092934,71721,3,5,1.29659819603,-0.123062409461,0.163646146655,-0.242756426334,20.0,0.43364488161538456,-0.041157996475250834,0.054731152727424744,20.0,-0.03280492247756756,0.6146460342150583,1.3126657228272651
1648479473021989725,71722,6,0,0.0131517294794,0.0439508594573,0.00965267792344,0.0,14.8999996185,0.004398571732240802,0.014699284099431437,0.003228320375732441,14.8999996185,0.0,0.015961322614468188,0.046880915375324336
1648479473022010921,71723,6,1,0.0338290072978,0.0146502861753,-0.0289618279785,0.0,14.8999996185,0.01131404926347826,0.0048997612626421405,-0.009686230093143811,14.8999996185,0.0,0.016733890220260034,0.04688091402296906
1648479473022018393,71724,6,2,1.98184478283,-1.24527442455,0.127020299435,0.0,14.8999996185,0.6628243420836121,-0.4164797406521739,0.04248170549665552,14.8999996185,0.0,1.0257327094769126,2.3440459236408704
1648479473022025289,71725,6,3,0.70305454731,-0.234404578805,0.115804605186,0.0809188112617,14.8999996185,0.23513530010367892,-0.07839618020234114,0.038730637185953175,14.8999996185,0.010934974494824324,0.34164774224339933,0.7500946004607045
