%time,field.header.seq,field.header.frame_id,field.point_id,field.x,field.y,field.z,field.velocity,field.intensity,normalized_x,normalized_y,normalized_z,normalized_intensity,normalized_velocity,normalized_range,range
1648539381105083648,14869,0,0,0.00645441934466,0.0454158857465,0.00967254023999,0.0,13.6000003815,0.0021586686771438122,0.015189259446989964,0.003234963290966555,13.6000003815,0.0,0.01549300821220132,0.046880915540442346
1648539381105095003,14870,0,1,0.034184448421,0.0146502861753,-0.0285414196551,0.0,13.6000003815,0.011432925893311035,0.0048997612626421405,-0.00954562530270903,13.6000003815,0.0,0.0168947106928403,0.046880913331490505
1648539381105097335,14871,0,2,0.863562762737,0.32230630517,0.171773403883,0.0,13.6000003815,0.28881697750401336,0.10779475089297658,0.057449298957525076,13.6000003815,0.0,0.42243366498088947,0.9376183135049408
1648539381105108747,14872,0,3,0.596761822701,0.266635209322,0.0596134886146,-0.242756426334,13.6000003815,0.19958589387993309,0.0891756552916388,0.019937621610234112,13.6000003815,-0.03280492247756756,0.2960090464299985,0.6563328240370198
1648539381300099502,14873,2,0,0.00638913922012,0.0454158857465,0.0097157843411,0.0,34.7000007629,0.002136835859571906,0.015189259446989964,0.0032494262010367893,34.7000007629,0.0,0.015486953784701454,0.04688091555714309
1648539381300104066,14874,2,1,0.034184448421,0.0146502861753,-0.0285414196551,0.0,34.7000007629,0.011432925893311035,0.0048997612626421405,-0.00954562530270903,34.7000007629,0.0,0.0168947106928403,0.046880913331490505
1648539381300114145,14875,2,2,0.899254739285,0.399952799082,0.0248460918665,0.0,34.7000007629,0.3007540934063545,0.13376347795384613,0.008309729721237459,34.7000007629,0.0,0.4458684979180134,0.9844991904014438
1648539381300286574,14876,2,3,0.713189423084,-0.646077632904,0.20780582726,0.0,34.7000007629,0.23852489066354515,-0.2160794758876254,0.06950027667558528,34.7000007629,0.0,0.40059778685357617,0.98449922436787
1648539381300294183,14877,2,4,0.805661082268,0.250519901514,0.285592645407,0.0809188112617,34.7000007629,0.2694518669792642,0.08378592023879598,0.0955159349187291,34.7000007629,0.010934974494824324,0.3901649621217724,0.8907374246355644
1648539381300296036,14878,2,5,0.593850255013,0.0380907431245,0.13161547482,-0.0809188112617,34.7000007629,0.19861212542240803,0.01273937897140468,0.04401855345150501,34.7000007629,-0.010934974494824324,0.2811687118194159,0.6094519368275696
1648539381405137453,14879,3,0,0.00638913922012,0.0454158857465,0.0097157843411,0.0,13.8000001907,0.002136835859571906,0.015189259446989964,0.0032494262010367893,13.8000001907,0.0,0.015486953784701454,0.04688091555714309
1648539381405143861,14880,3,1,0.034184448421,0.0146502861753,-0.0285414196551,0.0,13.8000001907,0.011432925893311035,0.0048997612626421405,-0.00954562530270903,13.8000001907,0.0,0.0168947106928403,0.046880913331490505
1648539381405146022,14881,3,2,0.896245598793,0.399952799082,0.0775902047753,0.0,13.8000001907,0.29974769190401335,0.13376347795384613,0.025949901262642138,13.8000001907,0.0,0.44451099608207184,0.9844991898048585
1648539381405148512,14882,3,3,0.536594331264,0.0527410283685,0.160533517599,-0.161837622523,13.8000001907,0.17946298704481606,0.017639139922575247,0.053690139665217386,13.8000001907,-0.021869948989594594,0.25441121574196335,0.5625709756917209
1648539381600180939,14883,5,0,0.855782330036,0.351606875658,0.152109414339,0.0,32.5999984741,0.2862148260989966,0.11759427279531771,0.0508727138257525,32.5999984741,0.0,0.4215047643289662,0.9376182940527445
1648539381600187345,14884,5,1,0.545231580734,-0.0527410283685,0.128167867661,-0.0809188112617,32.5999984741,0.18235169924214045,-0.017639139922575247,0.04286550757892976,32.5999984741,-0.010934974494824324,0.2584867959687695,0.5625709688597794
1648539381705085213,14885,6,0,0.00638913922012,0.0454158857465,0.0097157843411,0.0,17.6000003815,0.002136835859571906,0.015189259446989964,0.0032494262010367893,17.6000003815,0.0,0.015486953784701454,0.04688091555714309
1648539381705280897,14886,6,1,0.0341353341937,0.0146502861753,-0.0286001432687,0.0,17.6000003815,0.011416499730334446,0.0048997612626421405,-0.009565265307257525,17.6000003815,0.0,0.016872480333855525,0.04688091424582009
1648539381705286756,14887,6,2,0.523111641407,-0.0879017189145,0.187386199832,0.0,17.6000003815,0.1749537262230769,-0.02939856819882943,0.06267096984347825,17.6000003815,0.0,0.24916237366588861,0.5625709639246659
1648539381705288805,14888,6,3,0.422619909048,-1.14272224903,0.0361209921539,0.0,17.6000003815,0.14134445118662206,-0.3821813541906354,0.01208059938257525,17.6000003815,0.0,0.43129931051820924,1.2189037911279557
1648539381705410726,14889,6,4,1.1962351799,0.228544458747,-0.0501529946923,0.0,17.6000003815,0.4000786554849498,0.07643627382842809,-0.016773576820167224,17.6000003815,0.0,0.5709363932226292,1.2189038100403782
