%time,field.header.seq,field.header.frame_id,field.point_id,field.x,field.y,field.z,field.velocity,field.intensity,normalized_x,normalized_y,normalized_z,normalized_intensity,normalized_velocity,normalized_range,range
1648478636316115684,45007,0,0,0.013080727309,0.0439508594573,0.00974867958575,0.0,14.8999996185,0.004374825186956521,0.014699284099431437,0.003260427955100334,14.8999996185,0.0,0.01594826460366946,0.0468809153881766
1648478636316120964,45008,0,1,0.033900372684,0.0146502861753,-0.0288782604039,0.0,14.8999996185,0.011337917285618728,0.0048997612626421405,-0.00965828107153846,14.8999996185,0.0,0.016766168231947105,0.04688091378255908
1648478636316151026,45009,0,2,0.964857459068,-0.32230630517,0.170040562749,0.0,14.8999996185,0.3226948023638796,-0.10779475089297658,0.0568697534277592,14.8999996185,0.0,0.46891745463930584,1.0313801741605717
1648478636316176996,45010,0,3,1.48127436638,-0.234404578805,0.0380601212382,0.0,14.8999996185,0.49540948708361204,-0.07839618020234114,0.01272913753785953,14.8999996185,0.0,0.7049872912721286,1.5001892640223389
1648478636316184974,45011,0,4,0.389571487904,0.219754293561,0.140442594886,-0.242756426334,14.8999996185,0.1302914675264214,0.07349641925117056,0.04697076752040134,14.8999996185,-0.03280492247756756,0.19837705679619527,0.4688091468652715
1648478636421104624,45012,1,0,0.0130922468379,0.0439508594573,0.00973320472986,0.0,21.8999996185,0.004378677872207358,0.014699284099431437,0.0032552524180133775,21.8999996185,0.0,0.01595037908179347,0.04688091561193326
1648478636421109375,45013,1,1,0.033900372684,0.0146502861753,-0.0288782604039,0.0,21.8999996185,0.011337917285618728,0.0048997612626421405,-0.00965828107153846,21.8999996185,0.0,0.016766168231947105,0.04688091378255908
1648478636421148222,45014,1,2,0.94811552763,-0.354536950588,0.197801887989,0.0,21.8999996185,0.31709549419063543,-0.11857423096588628,0.0661544775882943,21.8999996185,0.0,0.4638522966647443,1.0313801869133243
1648478636421175072,45015,1,3,1.48518931866,-0.187523663044,0.0980582237244,0.0,21.8999996185,0.4967188356722408,-0.0627169441618729,0.03279539254996655,21.8999996185,0.0,0.7052606741540156,1.500189271959768
1648478636421227421,45016,1,4,1.81436002254,-1.46502864361,0.237360194325,0.0,21.8999996185,0.6068093720869565,-0.489976134986622,0.07938468037625418,21.8999996185,0.0,0.9881861367989137,2.344045878356289
1648478636421237349,45017,1,5,0.401758670807,0.219754293561,0.100399427116,-0.323675245047,21.8999996185,0.13436744843043477,0.07349641925117056,0.033578403717725754,21.8999996185,-0.04373989797932432,0.20374235209733624,0.46880915527784073
