%time,field.header.seq,field.header.frame_id,field.point_id,field.x,field.y,field.z,field.velocity,field.intensity,normalized_x,normalized_y,normalized_z,normalized_intensity,normalized_velocity,normalized_range,range
1648478897316221984,54668,0,0,0.013080727309,0.0439508594573,0.00974867958575,0.0,19.2000007629,0.004374825186956521,0.014699284099431437,0.003260427955100334,19.2000007629,0.0,0.01594826460366946,0.0468809153881766
1648478897316232180,54669,0,1,0.0338654480875,0.0146502861753,-0.0289192087948,0.0,19.2000007629,0.011326236818561873,0.0048997612626421405,-0.009671976185551838,19.2000007629,0.0,0.016750371380097266,0.046880913989624615
1648478897316236099,54670,0,2,1.32781231403,-0.212429150939,0.200387328863,0.0,19.2000007629,0.44408438596321065,-0.07104653877558528,0.06701917353277592,19.2000007629,0.0,0.6320359913680822,1.3595465299235683
1648478897316245838,54671,0,3,2.30689024925,-1.33610606194,0.183835238218,0.0,19.2000007629,0.7715352004180601,-0.4468582146956522,0.061483357263545146,19.2000007629,0.0,1.1790739565477892,2.672212084705892
1648478897316249674,54672,0,4,0.453106611967,0.20949909091,0.129386171699,-0.161837622523,19.2000007629,0.1515406728986622,0.07006658558862876,0.04327296712341137,19.2000007629,-0.021869948989594594,0.22547389538748672,0.515690073908014
1648478897421551346,54673,1,0,0.0130992634222,0.0439508594573,0.0097237592563,0.0,27.3999996185,0.004381024555919732,0.014699284099431437,0.0032520933967558527,27.3999996185,0.0,0.015951667792269912,0.04688091555541555
1648478897421576223,54674,1,1,0.0338654480875,0.0146502861753,-0.0289192087948,0.0,27.3999996185,0.011326236818561873,0.0048997612626421405,-0.009671976185551838,27.3999996185,0.0,0.016750371380097266,0.046880913989624615
1648478897421579619,54675,1,2,1.36329627037,-0.307656019926,-0.157509982586,0.0,27.3999996185,0.45595192988963207,-0.10289498994180601,-0.05267892394180601,27.3999996185,0.0,0.6529714417149377,1.4064275104020476
1648478897421584866,54676,1,3,2.3062942028,-1.33610606194,0.191169455647,0.0,27.3999996185,0.7713358537792642,-0.4468582146956522,0.06393627279163878,27.3999996185,0.0,1.1788130736854585,2.6722122145132996
1648478897421667724,54677,1,4,0.468852162361,0.177268475294,0.121201485395,-0.242756426334,27.3999996185,0.1568067432645485,0.05928711548294314,0.0405356138444816,27.3999996185,-0.03280492247756756,0.22954666525296308,0.5156900838154632
