%time,field.header.seq,field.header.frame_id,field.point_id,field.x,field.y,field.z,field.velocity,field.intensity,normalized_x,normalized_y,normalized_z,normalized_intensity,normalized_velocity,normalized_range,range
1648479084416556233,60932,0,0,0.0130922468379,0.0439508594573,0.00973320472986,0.0,28.7999992371,0.004378677872207358,0.014699284099431437,0.0032552524180133775,28.7999992371,0.0,0.01595037908179347,0.04688091561193326
1648479084416760556,60933,0,1,0.0338654480875,0.0146502861753,-0.0289192087948,0.0,28.7999992371,0.011326236818561873,0.0048997612626421405,-0.009671976185551838,28.7999992371,0.0,0.016750371380097266,0.046880913989624615
1648479084416769549,60934,0,2,0.82426315546,-0.167013257742,-0.293445050716,0.0,28.7999992371,0.2756732961404682,-0.05585727683678929,-0.09814215743010034,28.7999992371,0.0,0.3938420594420082,0.8907374335348142
1648479084416772514,60935,0,3,0.634186089039,0.612381994724,-0.127316519618,0.0,28.7999992371,0.2121023709160535,0.20481003168026754,-0.04258077579197324,28.7999992371,0.0,0.36321065591925367,0.8907374468160459
1648479084416775162,60936,0,4,0.681928157806,0.707608819008,0.0591816231608,0.0,28.7999992371,0.22806961799531772,0.23665846789565215,0.01979318500361204,28.7999992371,0.0,0.400048411735102,0.9844992217704026
1648479084416777607,60937,0,5,2.30665302277,-1.33610606194,0.186790212989,0.0,28.7999992371,0.7714558604581939,-0.4468582146956522,0.06247164314013377,28.7999992371,0.0,1.1789701240114485,2.672212222087772
1648479084416797037,60938,0,6,0.550571799278,-0.190453708172,0.178968384862,-0.0809188112617,28.7999992371,0.1841377255110368,-0.06369689236521739,0.05985564711103679,28.7999992371,-0.010934974494824324,0.2680871089958298,0.6094518880902681
1648479084521557291,60939,1,0,0.0130922468379,0.0439508594573,0.00973320472986,0.0,21.7999992371,0.004378677872207358,0.014699284099431437,0.0032552524180133775,21.7999992371,0.0,0.01595037908179347,0.04688091561193326
1648479084521567546,60940,1,1,0.0339512899518,0.0146502861753,-0.0288183819503,0.0,21.7999992371,0.011354946472173912,0.0048997612626421405,-0.009638254832876253,21.7999992371,0.0,0.016789201267563565,0.04688091416176479
1648479084521569978,60941,1,2,1.00358760357,-0.193383783102,0.138418570161,0.0,21.7999992371,0.33564802794983273,-0.06467685053578595,0.04629383617424749,21.7999992371,0.0,0.4790639751937645,1.031380175382304
1648479084521573646,60942,1,3,0.665919721127,0.773535132408,0.148119211197,0.0,21.7999992371,0.22271562579498327,0.2587074021431438,0.04953819772474916,21.7999992371,0.0,0.4075954119836929,1.031380132046834
1648479084521578928,60943,1,4,0.486009567976,-0.228544458747,0.167476117611,-0.0809188112617,21.7999992371,0.1625450060120401,-0.07643627382842809,0.05601207946856187,21.7999992371,-0.010934974494824324,0.2422483476015528,0.5625709908609142
1648479084521651866,60944,1,5,0.501960039139,-0.193383783102,0.164696633816,-0.0809188112617,21.7999992371,0.1678796117521739,-0.06467685053578595,0.055082486226086955,21.7999992371,-0.010934974494824324,0.24606954927286245,0.5625710174276572
