%time,field.header.seq,field.header.frame_id,field.point_id,field.x,field.y,field.z,field.velocity,field.intensity,normalized_x,normalized_y,normalized_z,normalized_intensity,normalized_velocity,normalized_range,range
1648539301899999414,12575,0,0,0.00625048251823,0.0454158857465,0.00980556104332,0.0,33.7999992371,0.0020904623806789293,0.015189259446989964,0.003279451853953177,33.7999992371,0.0,0.01547429056461205,0.046880915490464935
1648539301900004260,12576,0,1,0.0341105870903,0.0146502861753,-0.0286296512932,0.0,33.7999992371,0.011408223107123746,0.0048997612626421405,-0.009575134211772574,33.7999992371,0.0,0.016861280181371546,0.04688091263865664
1648539301900015778,12577,0,2,0.932541966438,0.41899818182,0.136202320457,0.0,33.7999992371,0.31188694529698996,0.14013317117725752,0.045552615537458194,33.7999992371,0.0,0.46280043102569574,1.03138017609143
1648539301900028840,12578,0,3,2.50560164452,-0.079111546278,0.35291031003,0.0,33.7999992371,0.8379938610434782,-0.026458711129765885,0.11803020402341137,33.7999992371,0.0,1.1853976065809146,2.531569458794543
1648539301900031061,12579,0,4,0.74085944891,0.117202289402,-0.0057384762913,0.242756426334,33.7999992371,0.24777907990301,0.03919809010100334,-0.0019192228398996654,33.7999992371,0.03280492247756756,0.35259812129778967,0.7500946805506922
1648539302005314552,12580,1,0,0.00627921707928,0.0454158857465,0.0097871851176,0.0,36.0,0.0021000726017658864,0.015189259446989964,0.0032733060593979927,36.0,0.0,0.01547689285397264,0.0468809154965433
1648539302005321412,12581,1,1,0.0341105870903,0.0146502861753,-0.0286296512932,0.0,36.0,0.011408223107123746,0.0048997612626421405,-0.009575134211772574,36.0,0.0,0.016861280181371546,0.04688091263865664
1648539302005336249,12582,1,2,0.87940967083,0.293005734682,0.141118213534,0.0,36.0,0.2941169467658863,0.09799522899063544,0.04719672693444816,36.0,0.0,0.4273319806130843,0.9376183018141738
1648539302005361340,12583,1,3,0.835026621819,0.0527410283685,0.109738878906,0.323675245047,36.0,0.2792731176652174,0.017639139922575247,0.036701966189297656,36.0,0.04373989797932432,0.3953455295790113,0.8438564432196769
1648539302005369272,12584,1,4,0.822559773922,0.111342176795,0.32312771678,0.485512852669,36.0,0.2751036033183946,0.037238186219063545,0.10806947049498328,36.0,0.06560984495527027,0.3908332990296693,0.8907374379465122
1648539302200430743,12585,3,0,0.00625048251823,0.0454158857465,0.00980556104332,0.0,27.8999996185,0.0020904623806789293,0.015189259446989964,0.003279451853953177,27.8999996185,0.0,0.01547429056461205,0.046880915490464935
1648539302200593530,12586,3,1,0.0341914109886,0.0146502861753,-0.0285330787301,0.0,27.8999996185,0.011435254511237457,0.0048997612626421405,-0.009542835695685618,27.8999996185,0.0,0.016897862347185863,0.04688091351741803
1648539302200824438,12587,3,2,0.879321336746,0.32230630517,0.0451743304729,0.0,27.8999996185,0.2940874035939799,0.10779475089297658,0.015108471730066889,27.8999996185,0.0,0.42964463248756607,0.93761830599812
1648539302200829153,12588,3,3,1.16631734371,0.109877154231,0.0356186851859,0.0,27.8999996185,0.39007269020401336,0.0367482121173913,0.01191260374110368,27.8999996185,0.0,0.552868735216432,1.1720229630834993
1648539302200835219,12589,3,4,0.457029998302,0.512760043144,-0.949651777744,0.0,27.8999996185,0.15285284224147155,0.17149165322541807,-0.3176092902153846,27.8999996185,0.0,0.27593000903957404,1.1720229435319527
1648539302200837532,12590,3,5,1.05797338486,0.168478280306,-0.122287362814,0.0809188112617,27.8999996185,0.3538372524615384,0.05634725093846154,-0.04089878354983277,27.8999996185,0.010934974494824324,0.5035639136667588,1.0782610134429398
1648539302200840013,12591,3,6,0.837250232697,-0.079111546278,-0.0696212425828,0.242756426334,27.8999996185,0.2800168002331104,-0.026458711129765885,-0.023284696515986622,27.8999996185,0.03280492247756756,0.3968864827885017,0.843856448884791
1648539302200843553,12592,3,7,0.268383741379,0.237334623933,0.764026284218,0.242756426334,27.8999996185,0.08976044862173913,0.07937612840568561,0.2555271853571906,27.8999996185,0.03280492247756756,0.1497145485055732,0.8438564565907951
1648539302305511844,12593,4,0,0.00625048251823,0.0454158857465,0.00980556104332,0.0,34.5,0.0020904623806789293,0.015189259446989964,0.003279451853953177,34.5,0.0,0.01547429056461205,0.046880915490464935
1648539302305535024,12594,4,1,0.0340891294181,0.0146502861753,-0.0286552011967,0.0,34.5,0.01140104662812709,0.0048997612626421405,-0.00958367933,34.5,0.0,0.016851569329422843,0.04688091493481664
1648539302305567772,12595,4,2,1.16261768341,0.146502867341,-0.0222462210804,0.0,34.5,0.3888353456220735,0.04899761449531772,-0.007440207719197324,34.5,0.0,0.5520748302868973,1.1720229785584955
1648539302305575996,12596,4,3,0.28496825695,-1.13539719582,-0.0574815459549,0.0,34.5,0.09530710934782607,-0.37973150361872904,-0.019224597309331102,34.5,0.0,0.40294280614625416,1.1720229638835604
1648539302305587666,12597,4,4,2.50507259369,-0.079111546278,0.356646299362,0.0,34.5,0.8378169209665551,-0.026458711129765885,0.11927969878327759,34.5,0.0,1.1851474378786828,2.531569457719825
1648539302305592251,12598,4,5,0.885812699795,-0.083506628871,-0.04213854298,0.161837622523,34.5,0.29625842802508356,-0.027928638418394644,-0.014093158187290969,34.5,0.021869948989594594,0.4199025139192342,0.8907374208979788
1648539302500236365,12599,6,0,0.00627921707928,0.0454158857465,0.0097871851176,0.0,33.5999984741,0.0021000726017658864,0.015189259446989964,0.0032733060593979927,33.5999984741,0.0,0.01547689285397264,0.0468809154965433
1648539302500245753,12600,6,1,0.0341105870903,0.0146502861753,-0.0286296512932,0.0,33.5999984741,0.011408223107123746,0.0048997612626421405,-0.009575134211772574,33.5999984741,0.0,0.016861280181371546,0.04688091263865664
1648539302500250044,12601,6,2,0.862459659576,0.32230630517,0.177228748798,0.0,33.5999984741,0.28844804668093643,0.10779475089297658,0.05927382902943143,33.5999984741,0.0,0.42192921158432994,0.9376182848839881
1648539302500358154,12602,6,3,1.15750157833,0.183128580451,-0.0170790143311,0.0,33.5999984741,0.3871242736889632,0.061247016873244145,-0.0057120449267892975,33.5999984741,0.0,0.550891644186301,1.1720228980463485
1648539302500368703,12603,6,4,1.16679704189,0.109877154231,0.0122235966846,0.0,33.5999984741,0.3902331243779264,0.0367482121173913,0.004088159426287625,33.5999984741,0.0,0.5530951218527796,1.1720229273785838
1648539302500374129,12604,6,5,2.49764537811,-0.079111546278,0.405404537916,0.0,33.5999984741,0.8353329023779263,-0.026458711129765885,0.13558680197859532,33.5999984741,0.0,1.1816353832654594,2.5315694560710016
