%time,field.header.seq,field.header.frame_id,field.point_id,field.x,field.y,field.z,field.velocity,field.intensity,normalized_x,normalized_y,normalized_z,normalized_intensity,normalized_velocity,normalized_range,range
1648539577404618707,19750,0,0,0.006659288425,0.0454158857465,0.00953265093267,0.0,17.0,0.0022271867642140466,0.015189259446989964,0.0031881775694548495,17.0,0.0,0.01551239260441001,0.0468809154589649
1648539577404621169,19751,0,1,0.0341741666198,0.0146502861753,-0.0285537336022,0.0,17.0,0.011429487163812709,0.0048997612626421405,-0.00954974367966555,17.0,0.0,0.0168900566632089,0.04688091564593683
1648539577404625788,19752,0,2,0.648222088814,0.102552011609,0.00799948163331,-0.0809188112617,17.0,0.21679668522207357,0.03429833164180602,0.0026754119174949827,17.0,-0.010934974494824324,0.30850928835282904,0.6563328296054064
