%time,field.header.seq,field.header.frame_id,field.point_id,field.x,field.y,field.z,field.velocity,field.intensity,normalized_x,normalized_y,normalized_z,normalized_intensity,normalized_velocity,normalized_range,range
1648478848716371504,53159,0,0,0.0130922468379,0.0439508594573,0.00973320472986,0.0,33.7000007629,0.004378677872207358,0.014699284099431437,0.0032552524180133775,33.7000007629,0.0,0.01595037908179347,0.04688091561193326
1648478848716375634,53160,0,1,0.033900372684,0.0146502861753,-0.0288782604039,0.0,33.7000007629,0.011337917285618728,0.0048997612626421405,-0.00965828107153846,33.7000007629,0.0,0.016766168231947105,0.04688091378255908
1648478848716383764,53161,0,2,1.28036439419,-0.205104023218,0.204182520509,0.0,33.7000007629,0.428215516451505,-0.06859666328361204,0.06828846839765886,33.7000007629,0.0,0.609460875916825,1.312665663423533
1648478848716432106,53162,0,3,2.30531597137,-1.33610606194,0.202624633908,0.0,33.7000007629,0.7710086860769231,-0.4468582146956522,0.06776743608963211,33.7000007629,0.0,1.178384933734776,2.6722121695091454
1648478848716471787,53163,0,4,0.428168058395,0.117202289402,0.150724098086,-0.161837622523,33.7000007629,0.14320001953010034,0.03919809010100334,0.05040939735317726,33.7000007629,-0.021869948989594594,0.20627404454852918,0.4688091473239963
