%time,field.header.seq,field.header.frame_id,field.point_id,field.x,field.y,field.z,field.velocity,field.intensity,normalized_x,normalized_y,normalized_z,normalized_intensity,normalized_velocity,normalized_range,range
1648479494921961322,72146,0,0,0.0131517294794,0.0439508594573,0.00965267792344,0.0,16.2000007629,0.004398571732240802,0.014699284099431437,0.003228320375732441,16.2000007629,0.0,0.015961322614468188,0.046880915375324336
1648479494921969417,72147,0,1,0.0339376479387,0.0146502861753,-0.0288344435394,0.0,16.2000007629,0.011350383925986621,0.0048997612626421405,-0.00964362660180602,16.2000007629,0.0,0.016783029850580597,0.046880912606904114
1648479494921971596,72148,0,2,0.7329403162,-0.140642747283,0.0752331763506,0.0,16.2000007629,0.24513054053511704,-0.047037708121404675,0.02516159744167224,16.2000007629,0.0,0.34984355044990006,0.7500946075652499
1648479494922002043,72149,0,3,1.98299741745,-1.24527442455,0.107536070049,0.0,16.2000007629,0.6632098386120401,-0.4164797406521739,0.03596524081906354,16.2000007629,0.0,1.0262309459557915,2.344045894690052
1648479495222021283,72150,3,0,0.0131517294794,0.0439508594573,0.00965267792344,0.0,12.8999996185,0.004398571732240802,0.014699284099431437,0.003228320375732441,12.8999996185,0.0,0.015961322614468188,0.046880915375324336
1648479495222027522,72151,3,1,0.0339150689542,0.0146502861753,-0.0288610011339,0.0,12.8999996185,0.011342832426153847,0.0048997612626421405,-0.009652508740434782,12.8999996185,0.0,0.016772815962935467,0.046880914812291195
1648479495222030197,72152,3,2,0.712319910526,-0.0263705141842,-0.451662093401,0.0,12.8999996185,0.23823408378795985,-0.008819569961270902,-0.15105755632140466,12.8999996185,0.0,0.337029289781881,0.8438564484350887
1648479495222112764,72153,3,3,1.25315392017,0.158223092556,0.0823504030704,0.0,12.8999996185,0.4191150234682274,0.05291742225953177,0.02754194082622073,12.8999996185,0.0,0.5950756753322548,1.2657846908306642
1648479495222115725,72154,3,4,1.97810208797,-1.24527442455,0.175940200686,0.0,12.8999996185,0.6615726046722408,-0.4164797406521739,0.058842876483612035,12.8999996185,0.0,1.0241152263682676,2.3440459076321516
1648479495222117827,72155,3,5,0.690079927444,-0.281285494566,0.0854996666312,0.0809188112617,12.8999996185,0.23079596235585284,-0.09407541624280935,0.028595206231170567,12.8999996185,0.010934974494824324,0.33968181644119,0.7500946798294212
1648479495327139084,72156,4,0,0.0130558377132,0.0439508594573,0.00978198740631,0.0,13.8000001907,0.004366500907424749,0.014699284099431437,0.00327156769441806,13.8000001907,0.0,0.015943701370286643,0.04688091533925036
1648479495327145422,72157,4,1,0.033851724118,0.0146502861753,-0.028935270384,0.0,13.8000001907,0.011321646862207357,0.0048997612626421405,-0.00967734795451505,13.8000001907,0.0,0.016744164230440048,0.046880912778811776
1648479495327147434,72158,4,2,1.97819411755,-1.24527442455,0.174902439117,0.0,13.8000001907,0.6616033837959866,-0.4164797406521739,0.05849579903578595,13.8000001907,0.0,1.0241549927986004,2.344045908756233
1648479495327149692,72159,4,3,0.731927752495,-0.164083212614,0.000698928779457,0.0809188112617,13.8000001907,0.24479189046655517,-0.054877328633444813,0.00023375544463444812,13.8000001907,0.010934974494824324,0.3505105711306336,0.750094676714581
1648479495327151439,72160,4,4,0.249989330769,0.117202289402,0.69743168354,0.0809188112617,13.8000001907,0.08360847182909699,0.03919809010100334,0.23325474365886284,13.8000001907,0.010934974494824324,0.12456822785429753,0.7500946575898546
1648479495327161505,72161,4,5,2.53746294975,-0.492249637842,-0.459714800119,0.161837622523,13.8000001907,0.8486498159698996,-0.16463198590033443,-0.15375076927056855,13.8000001907,0.021869948989594594,1.2114110413369101,2.6253315266377317
1648479495327165973,72162,4,6,1.35938465595,0.492249637842,2.19137597084,0.161837622523,13.8000001907,0.45464369764214047,0.16463198590033443,0.7329016624882942,13.8000001907,0.021869948989594594,0.6637058643653256,2.6253314065776214
