%time,field.header.seq,field.header.frame_id,field.point_id,field.x,field.y,field.z,field.velocity,field.intensity,normalized_x,normalized_y,normalized_z,normalized_intensity,normalized_velocity,normalized_range,range
1648479235621725168,66109,0,0,0.013122103177,0.0439508594573,0.00969291571528,0.0,33.2999992371,0.004388663269899665,0.014699284099431437,0.003241777831197324,33.2999992371,0.0,0.0159558667464018,0.04688091566817666
1648479235621729536,66110,0,1,0.0339376479387,0.0146502861753,-0.0288344435394,0.0,33.2999992371,0.011350383925986621,0.0048997612626421405,-0.00964362660180602,33.2999992371,0.0,0.016783029850580597,0.046880912606904114
1648479235621732261,66111,0,2,0.788835227489,-0.0498109720647,-0.10211661458,0.0,33.2999992371,0.26382449079899667,-0.016659187981505015,-0.034152713906354513,33.2999992371,0.0,0.37347590609690323,0.7969755027847047
1648479235621746032,66112,0,3,0.5838996768,0.224149376154,0.493951648474,0.0,33.2999992371,0.19528417284280936,0.07496634653979932,0.16520122022541806,33.2999992371,0.0,0.2861673801105321,0.7969755369065941
1648479235621857153,66113,0,4,1.98586010933,-1.24527442455,0.0142303565517,0.0,33.2999992371,0.6641672606454848,-0.4164797406521739,0.004759316572474916,33.2999992371,0.0,1.0274685759673416,2.3440459187725144
