%time,field.header.seq,field.header.frame_id,field.point_id,field.x,field.y,field.z,field.velocity,field.intensity,normalized_x,normalized_y,normalized_z,normalized_intensity,normalized_velocity,normalized_range,range
1648479315031740027,68797,0,0,0.0131446821615,0.0439508594573,0.00966227333993,0.0,11.8999996185,0.004396214769732442,0.014699284099431437,0.00323152954512709,11.8999996185,0.0,0.01596002386085388,0.046880915544149894
1648479315031867299,68798,0,1,0.0338290072978,0.0146502861753,-0.0289618279785,0.0,11.8999996185,0.01131404926347826,0.0048997612626421405,-0.009686230093143811,11.8999996185,0.0,0.016733890220260034,0.04688091402296906
1648479315031871013,68799,0,2,0.962211310863,0.12306240201,0.168058931828,0.0,11.8999996185,0.321809802964214,0.04115799398327759,0.05620700061137123,11.8999996185,0.0,0.45696507419764587,0.9844992463726583
1648479315031880460,68800,0,3,1.98509705067,-1.24527442455,0.0568554773927,0.0,11.8999996185,0.6639120570802676,-0.4164797406521739,0.019015209830334445,11.8999996185,0.0,1.0271386534673919,2.34404591216269
1648479315031884116,68801,0,4,0.531593739986,0.266635209322,0.133211895823,-0.323675245047,11.8999996185,0.177790548490301,0.0891756552916388,0.04455247351939799,11.8999996185,-0.04373989797932432,0.26677941405149186,0.6094519246267481
1648479315031893618,68802,0,5,1.86668252945,0.175803437829,-0.0331914275885,-0.242756426334,11.8999996185,0.6243085382775919,0.05879713639765886,-0.01110081190250836,11.8999996185,-0.03280492247756756,0.8848612349861258,1.8752365678419638
1648479315121797583,68803,1,0,0.0130513049662,0.0439508594573,0.00978803448379,0.0,14.0,0.004364984938528427,0.014699284099431437,0.0032735901283578593,14.0,0.0,0.01594287113612093,0.046880915385815104
1648479315121810311,68804,1,1,0.033851724118,0.0146502861753,-0.028935270384,0.0,14.0,0.011321646862207357,0.0048997612626421405,-0.00967734795451505,14.0,0.0,0.016744164230440048,0.046880912778811776
1648479315121813972,68805,1,2,0.967510998249,0.0922968015075,0.156979128718,0.0,14.0,0.32358227366187287,0.03086849548745819,0.05250138084214046,14.0,0.0,0.45865437932067493,0.9844992017032588
1648479315121816424,68806,1,3,1.98482465744,-1.24527442455,0.0656816214323,0.0,14.0,0.6638209556655518,-0.4164797406521739,0.021967097468996652,14.0,0.0,1.0270208842741002,2.344045944219977
1648479315121915814,68807,1,4,0.497459501028,0.158223092556,0.209727466106,-0.323675245047,14.0,0.16637441505953177,0.05291742225953177,0.0701429652528428,14.0,-0.04373989797932432,0.24116621975599378,0.5625709841613364
