%time,field.header.seq,field.header.frame_id,field.point_id,field.x,field.y,field.z,field.velocity,field.intensity,normalized_x,normalized_y,normalized_z,normalized_intensity,normalized_velocity,normalized_range,range
1648539184200728859,8817,0,0,0.00599730713293,0.0454158857465,0.00996242277324,0.0,12.6999998093,0.002005788338772575,0.015189259446989964,0.0033319139709832774,12.6999998093,0.0,0.015451859961437846,0.046880915504057784
1648539184200731391,8818,0,1,0.0341291837394,0.0146502861753,-0.0286074839532,0.0,12.6999998093,0.011414442722207357,0.0048997612626421405,-0.009567720385685619,12.6999998093,0.0,0.016869696670301856,0.046880915156047316
1648539184200742579,8819,0,2,0.881297528744,-0.293005734682,0.128803819418,0.0,12.6999998093,0.2947483373725752,-0.09799522899063544,0.04307820047424749,12.6999998093,0.0,0.42820115561815325,0.9376183224657487
1648539184200826033,8820,0,3,0.741970837116,0.556710898876,0.136676132679,0.0,12.6999998093,0.24815078164414714,0.18619093607892975,0.04571108116354515,12.6999998093,0.0,0.39727155138412623,0.9376183196279972
1648539184200850609,8821,0,4,1.65119445324,-1.57930088043,0.237344458699,0.0,12.6999998093,0.5522389475719063,-0.5281942743913043,0.0793794176250836,12.6999998093,0.0,0.9428281401880247,2.2971649451906226
1648539184200878515,8822,0,5,0.429349720478,0.175803437829,0.0673349574208,-0.242756426334,12.6999998093,0.14359522424013377,0.05879713639765886,0.02252005264909699,12.6999998093,-0.03280492247756756,0.211414947668592,0.4688091591659582
1648539184305721797,8823,1,0,0.00599730713293,0.0454158857465,0.00996242277324,0.0,21.6000003815,0.002005788338772575,0.015189259446989964,0.0033319139709832774,21.6000003815,0.0,0.015451859961437846,0.046880915504057784
1648539184305746958,8824,1,1,0.0340635925531,0.0146502861753,-0.0286855529994,0.0,21.6000003815,0.011392505870602006,0.0048997612626421405,-0.00959383043458194,21.6000003815,0.0,0.016840013077616383,0.04688091481107405
1648539184305856391,8825,1,2,0.887341439724,-0.263705164194,0.149039804935,0.0,21.6000003815,0.2967697122822742,-0.0881957070882943,0.04984608860702341,21.6000003815,0.0,0.4288624569777726,0.9376183166561479
1648539184305862858,8826,1,3,0.858363866806,-0.32230630517,0.196107491851,0.0,21.6000003815,0.2870782163230769,-0.10779475089297658,0.0655877899167224,21.6000003815,0.0,0.42005655916145096,0.937618275499457
1648539184305867141,8827,1,4,1.74082422256,-1.53828012943,0.312692284584,0.0,21.6000003815,0.5822154590501671,-0.5144749596755852,0.10457935939264214,21.6000003815,0.0,0.9708934883122806,2.344045902982526
1648539184305872233,8828,1,5,0.579269707203,0.076181486249,-0.17342031002,0.161837622523,21.6000003815,0.19373568802775917,0.02547875794280936,-0.058000103685618726,21.6000003815,0.021869948989594594,0.27516576955989047,0.609451898395262
1648539184305885891,8829,1,6,0.442868888378,0.131852582097,0.0791459083557,-0.161837622523,21.6000003815,0.14811668507625417,0.04409785354414715,0.026470203463444815,21.6000003815,-0.021869948989594594,0.21406009783039334,0.46880916214197477
1648539184500804369,8830,3,0,0.914822697639,-0.205104008317,0.0126445190981,0.0,31.2999992371,0.3059607684411371,-0.06859665829999999,0.004228936153210702,31.2999992371,0.0,0.4380975749534677,0.9376183158441496
1648539184500810632,8831,3,1,0.731756329536,0.586011469364,0.0158537440002,0.0,31.2999992371,0.24473455837324412,0.19599045798127088,0.005302255518461538,31.2999992371,0.0,0.39774648677769864,0.9376183174623761
1648539184500813034,8832,3,2,1.66808271408,-1.61153149605,0.339142203331,0.0,31.2999992371,0.5578871953444816,-0.5389737444983277,0.11342548606387959,31.2999992371,0.0,0.9554940830362123,2.3440458907312065
1648539184500819859,8833,3,3,0.412792444229,-0.0146502861753,0.221742585301,0.0809188112617,31.2999992371,0.13805767365518395,-0.0048997612626421405,0.07416139976622073,31.2999992371,0.010934974494824324,0.19530450627313603,0.4688091371054339
1648539184500842640,8834,3,4,0.46083638072,0.276890397072,-1.14593744278,0.161837622523,31.2999992371,0.15412587983946488,0.09260548397056856,-0.3832566698260869,31.2999992371,0.021869948989594594,0.23682345604690755,1.2657847702318765
1648539184605732388,8835,4,0,0.00613931007683,0.0454158857465,0.00987554714084,0.0,13.6999998093,0.0020532809621505014,0.015189259446989964,0.003302858575531772,13.6999998093,0.0,0.015464330828297526,0.04688091549542907
1648539184605738641,8836,4,1,0.0340492911637,0.0146502861753,-0.0287025291473,0.0,13.6999998093,0.01138772279722408,0.0048997612626421405,-0.009599508076020067,13.6999998093,0.0,0.016833541559746795,0.04688091608768125
1648539184605747338,8837,4,2,0.816899478436,-0.306190997362,0.179820716381,0.0,13.6999998093,0.2732105279050167,-0.10240501584013377,0.060140707819732436,13.6999998093,0.0,0.3997183663349657,0.8907374331273618
1648539184605749746,8838,4,3,0.716503620148,0.528875350952,-0.0180725473911,0.0,13.6999998093,0.2396333177752508,0.17688138827826086,-0.006044330231137124,13.6999998093,0.0,0.3822764438141507,0.8907374425154666
1648539184605751455,8839,4,4,0.397363573313,-0.117202289402,0.219426125288,0.0809188112617,13.6999998093,0.13289751615819398,-0.03919809010100334,0.07338666397591972,13.6999998093,0.010934974494824324,0.19198955666806786,0.4688091407983116
1648539184800823273,8840,6,0,0.764894902706,0.615311980247,0.0746036246419,0.0,15.5,0.25581769321270903,0.2057899599488294,0.024951045030735784,15.5,0.0,0.41621495880984893,0.9844992361758415
1648539184800830263,8841,6,1,1.65263295174,-1.57930088043,0.22711147368,0.0,15.5,0.5527200507491639,-0.5281942743913043,0.07595701460869565,15.5,0.0,0.9433918064622318,2.2971648973421432
1648539184800832344,8842,6,2,0.392213970423,-0.205104008317,0.15453992784,0.0809188112617,15.5,0.13117524094414715,-0.06859665829999999,0.05168559459531773,15.5,0.010934974494824324,0.19778622096454818,0.468809174525698
