%time,field.header.seq,field.header.frame_id,field.point_id,field.x,field.y,field.z,field.velocity,field.intensity,normalized_x,normalized_y,normalized_z,normalized_intensity,normalized_velocity,normalized_range,range
1648539855804402068,23890,0,0,0.00688009662554,0.0454158857465,0.00937453098595,0.0,20.7000007629,0.0023010356607157186,0.015189259446989964,0.003135294644130434,20.7000007629,0.0,0.015533934877285431,0.04688091550857817
1648539855804407888,23891,0,1,0.0342117398977,0.0146502861753,-0.0285087004304,0.0,20.7000007629,0.011442053477491639,0.0048997612626421405,-0.009534682418193979,20.7000007629,0.0,0.0169070646770646,0.04688091330249821
1648539855804421809,23892,0,2,0.511218428612,-0.064461261034,0.0208987444639,0.0809188112617,20.7000007629,0.17097606308093644,-0.021558950178595316,0.006989546643444815,20.7000007629,0.010934974494824324,0.2427558786643814,0.515690113776465
1648539855804426577,23893,0,3,0.0668361410499,0.128922522068,-0.494821339846,0.0809188112617,20.7000007629,0.02235322443140468,0.04311790035719063,-0.1654920869050167,20.7000007629,0.010934974494824324,0.053464816619662264,0.5156900666231673
1648539855804434549,23894,0,4,0.842028319836,0.0527410283685,0.017332745716,-0.323675245047,20.7000007629,0.2816148226876254,0.017639139922575247,0.00579690492173913,20.7000007629,-0.04373989797932432,0.39865393008469585,0.8438564638333106
1648539855804436764,23895,0,5,0.234247624874,-0.501039743423,-0.637323260307,-0.323675245047,20.7000007629,0.07834368724882942,-0.16757182054280934,-0.21315159207591974,20.7000007629,-0.04373989797932432,0.20088748518391158,0.8438564524709401
