%time,field.header.seq,field.header.frame_id,field.point_id,field.x,field.y,field.z,field.velocity,field.intensity,normalized_x,normalized_y,normalized_z,normalized_intensity,normalized_velocity,normalized_range,range
1648539155700874249,7913,0,0,0.00603109970689,0.0454158857465,0.00994200166315,0.0,37.2000007629,0.002017090202973244,0.015189259446989964,0.0033250841682775922,37.2000007629,0.0,0.015454802112024442,0.04688091550816459
1648539155700880745,7914,0,1,0.0339767746627,0.0146502861753,-0.0287883337587,0.0,37.2000007629,0.011363469786856187,0.0048997612626421405,-0.009628205270468227,37.2000007629,0.0,0.01680073068721939,0.04688091575577834
1648539155700884591,7915,0,2,0.859956085682,-0.293005734682,0.231843069196,0.0,37.2000007629,0.28761073099732437,-0.09799522899063544,0.07753948802541806,37.2000007629,0.0,0.4183813213738845,0.9376182797878181
1648539155700889969,7916,0,3,1.74505615234,-1.53828012943,0.288139134645,0.0,37.2000007629,0.583630820180602,-0.5144749596755852,0.09636760356020067,37.2000007629,0.0,0.9725915651816847,2.344045838359999
1648539155700893738,7917,0,4,0.603395223618,0.0190453715622,0.0835647508502,0.161837622523,37.2000007629,0.2018044226147157,0.006369689485685618,0.027948077207424746,37.2000007629,0.021869948989594594,0.28546562475692516,0.6094518764001097
1648539155700897542,7918,0,5,0.767653822899,0.158223092556,0.993923604488,0.242756426334,37.2000007629,0.25674040899632106,0.05291742225953177,0.33241592123344477,37.2000007629,0.03280492247756756,0.3669216930106341,1.265784764637279
1648539155805910878,7919,1,0,0.00606105756015,0.0454158857465,0.00992376636714,0.0,17.7999992371,0.002027109551889632,0.015189259446989964,0.003318985407070234,17.7999992371,0.0,0.015457423744553885,0.046880915475235464
1648539155805914403,7920,1,1,0.0340255275369,0.0146502861753,-0.0287306923419,0.0,17.7999992371,0.011379775095953176,0.0048997612626421405,-0.009608927204648829,17.7999992371,0.0,0.016822788796743565,0.046880913937629644
1648539155805916898,7921,1,2,0.830650568008,-0.278355449438,0.161093473434,0.0,17.7999992371,0.2778095545177257,-0.09309546803946488,0.05387741586421404,17.7999992371,0.0,0.4037611463875164,0.8907374638729836
1648539155805925047,7922,1,3,1.7468650341,-1.53828012943,0.276962429285,0.0,17.7999992371,0.5842357973578595,-0.5144749596755852,0.09262957501170567,17.7999992371,0.0,0.9733177374125793,2.3440459447706696
1648539156000999582,7923,3,0,0.00607068277895,0.0454158857465,0.00991788133979,0.0,12.8999996185,0.00203032868861204,0.015189259446989964,0.0033170171704983275,12.8999996185,0.0,0.01545826871663111,0.04688091549673424
1648539156001002183,7924,3,1,0.0341046340764,0.0146502861753,-0.0286367479712,0.0,12.8999996185,0.01140623213257525,0.0048997612626421405,-0.009577507682675585,12.8999996185,0.0,0.01685858604258592,0.046880915998616726
1648539156001004329,7925,3,2,1.67731940746,-1.61153149605,0.290029793978,0.0,12.8999996185,0.5609763904548495,-0.5389737444983277,0.09699993109632106,12.8999996185,0.0,0.9591046442146196,2.344045954924527
1648539156001007401,7926,3,3,0.594610452652,-0.133317604661,0.00982080120593,-0.0809188112617,12.8999996185,0.1988663721244147,-0.0445878276458194,0.0032845488983043476,12.8999996185,-0.010934974494824324,0.2847520716307884,0.60945190314896
1648539156106138451,7927,4,0,0.00603109970689,0.0454158857465,0.00994200166315,0.0,11.8999996185,0.002017090202973244,0.015189259446989964,0.0033250841682775922,11.8999996185,0.0,0.015454802112024442,0.04688091550816459
1648539156106145482,7928,4,1,0.0340564623475,0.0146502861753,-0.0286940168589,0.0,11.8999996185,0.011390121186454848,0.0048997612626421405,-0.009596661156822742,11.8999996185,0.0,0.016836786561429815,0.04688091419910355
1648539156106149019,7929,4,2,0.759946405888,0.615311980247,0.114504642785,0.0,11.8999996185,0.25416267755451505,0.2057899599488294,0.03829586715217391,11.8999996185,0.0,0.41418213498303086,0.9844992057268983
1648539156106152164,7930,4,3,0.933916807175,-0.215359210968,0.225074544549,0.0,11.8999996185,0.31234675825250835,-0.07202649196254181,0.0752757674076923,11.8999996185,0.0,0.44755872276845626,0.9844992346755002
1648539156106161488,7931,4,4,1.75331580639,-1.53828012943,0.232656240463,0.0,11.8999996185,0.5863932462842809,-0.5144749596755852,0.07781145165986622,11.8999996185,0.0,0.9759090955149612,2.344045861275451
1648539156106166091,7932,4,5,0.565241515636,-0.20949909091,0.0896871760488,-0.161837622523,11.8999996185,0.18904398516254178,-0.07006658558862876,0.029995711053110365,11.8999996185,-0.021869948989594594,0.2763776095640153,0.6094519092087638
