%time,field.header.seq,field.header.frame_id,field.point_id,field.x,field.y,field.z,field.velocity,field.intensity,normalized_x,normalized_y,normalized_z,normalized_intensity,normalized_velocity,normalized_range,range
1648539058801580326,4982,0,0,0.0339646376669,0.0146502861753,-0.0288026500493,0.0,11.1999998093,0.011359410590936455,0.0048997612626421405,-0.009632993327525083,11.1999998093,0.0,0.016795239753508943,0.04688091452525676
1648539058801589417,4983,0,1,0.00575696723536,0.0454158857465,0.0101032117382,0.0,11.1999998093,0.00192540710212709,0.015189259446989964,0.0033790005813377926,11.1999998093,0.0,0.015431396163854286,0.04688091549143481
1648539058801591901,4984,0,2,0.912359893322,-0.175803437829,0.125780299306,0.0,11.1999998093,0.3051370880675585,-0.05879713639765886,0.042066989734448154,11.1999998093,0.0,0.43551623193316547,0.9376183164745306
1648539058801600513,4985,0,3,0.705737233162,0.615312039852,0.0495387166739,0.0,11.1999998093,0.2360325194521739,0.20578997988361203,0.016568132666856188,11.1999998093,0.0,0.3921380066996556,0.9376182768630748
1648539058801693294,4986,0,4,1.75264966488,-1.53828012943,0.237622305751,0.0,11.1999998093,0.5861704564816054,-0.5144749596755852,0.0794723430605351,11.1999998093,0.0,0.9756413748078248,2.344045853773679
1648539058801701827,4987,0,5,0.475799322128,0.193383783102,0.0464108176529,-0.161837622523,11.1999998093,0.1591302080695652,0.06467685053578595,0.015522012592943142,11.1999998093,-0.021869948989594594,0.23415367013086646,0.5156900682575887
1648539058906737699,4988,1,0,0.0339646376669,0.0146502861753,-0.0288026500493,0.0,20.8999996185,0.011359410590936455,0.0048997612626421405,-0.009632993327525083,20.8999996185,0.0,0.016795239753508943,0.04688091452525676
1648539058906742813,4989,1,1,0.00579896662384,0.0454158857465,0.010079164058,0.0,20.8999996185,0.001939453720347826,0.015189259446989964,0.0033709578789297657,20.8999996185,0.0,0.015434913800041642,0.04688091552168783
1648539058906744903,4990,1,2,0.836417973042,-0.250519901514,0.176232486963,0.0,20.8999996185,0.27973845252240803,-0.08378592023879598,0.058940631091304346,20.8999996185,0.0,0.4043850690487038,0.8907374114425846
1648539058906757965,4991,1,3,0.948994994164,-0.153827995062,0.212094753981,0.0,20.8999996185,0.31738963015518395,-0.05144748998729097,0.07093470032809364,20.8999996185,0.0,0.4517955277402393,0.9844992309186362
1648539058906762776,4992,1,4,0.702521264553,0.676843225956,0.132611751556,0.0,20.8999996185,0.23495694466655517,0.22636897189163876,0.04435175637324414,20.8999996185,0.0,0.4020602481337379,0.9844992414026643
1648539058906898792,4993,1,5,0.490949362516,0.128922522068,0.0910161435604,-0.161837622523,20.8999996185,0.16419711120936453,0.04311790035719063,0.030440181792775918,20.8999996185,-0.021869948989594594,0.23617903376509414,0.5156900538500312
1648539059101537543,4994,3,0,0.841971099377,-0.22268435359,0.18684092164,0.0,26.0,0.2815956854103679,-0.07447637243812709,0.06248860255518394,26.0,0.0,0.40514070412020114,0.8907374380361447
1648539059101545487,4995,3,1,0.165322512388,0.0556710883975,-0.873488605022,0.0,26.0,0.0552918101632107,0.018619093109531772,-0.2921366571979933,26.0,0.0,0.08038058951308129,0.8907374171375771
1648539059101551984,4996,3,2,1.68407332897,-1.61153149605,0.247819334269,0.0,26.0,0.5632352270802675,-0.5389737444983277,0.08288272049130434,26.0,0.0,0.9617486882272674,2.3440458959983657
1648539059101557172,4997,3,3,0.502337694168,-0.0,0.116589345038,0.0809188112617,26.0,0.1680059177819398,-0.0,0.038993091985953174,26.0,0.010934974494824324,0.2375962474861584,0.5156900564858827
1648539059101562112,4998,3,4,0.436302244663,0.75155967474,-0.920331120491,0.242756426334,26.0,0.14592048316488293,0.25135775074916383,-0.30780305033143807,26.0,0.03280492247756756,0.3252173022393251,1.2657847229041304
1648539059206771773,4999,4,0,1.72654259205,-1.50751447678,0.153027519584,0.0,17.2000007629,0.5774389939966554,-0.5041854437391304,0.051179772436120395,17.2000007629,0.0,0.9597262866328935,2.297164913891478
1648539059206776311,5000,4,1,1.23782300949,-0.158223092556,0.212062448263,-0.323675245047,17.2000007629,0.41398762859197324,-0.05291742225953177,0.07092389574013377,17.2000007629,-0.04373989797932432,0.5878535249813552,1.2657846703938875
1648539059401800117,5001,6,0,0.778138279915,0.584546387196,0.14847573638,0.0,25.1000003815,0.26024691635953173,0.1955004639451505,0.04965743691638796,25.1000003815,0.0,0.4167461413763291,0.9844992157165764
1648539059401806035,5002,6,1,0.963469862938,-0.184593603015,0.0830043330789,0.0,25.1000003815,0.3222307233906354,-0.06173699097491638,0.027760646514682272,25.1000003815,0.0,0.4598659959687619,0.9844992099406179
1648539059401808151,5003,6,2,1.7497985363,-1.53828012943,0.257779985666,0.0,25.1000003815,0.5852169017725752,-0.5144749596755852,0.08621404202876254,25.1000003815,0.0,0.9744958329176061,2.3440459029734813
1648539059401813060,5004,6,3,0.491460859776,-0.11280720681,0.108060143888,0.0809188112617,25.1000003815,0.1643681805270903,-0.03772816281270903,0.036140516350501674,25.1000003815,0.010934974494824324,0.2354935493995421,0.5156900593351926
