%time,field.header.seq,field.header.frame_id,field.point_id,field.x,field.y,field.z,field.velocity,field.intensity,normalized_x,normalized_y,normalized_z,normalized_intensity,normalized_velocity,normalized_range,range
1648479396321809044,70316,0,0,0.0131446821615,0.0439508594573,0.00966227333993,0.0,11.8000001907,0.004396214769732442,0.014699284099431437,0.00323152954512709,11.8000001907,0.0,0.01596002386085388,0.046880915544149894
1648479396321815800,70317,0,1,0.0338153243065,0.0146502861753,-0.0289778038859,0.0,11.8000001907,0.011309473012207357,0.0048997612626421405,-0.00969157320598662,11.8000001907,0.0,0.01672770217509212,0.04688091467774106
1648479396321836973,70318,0,2,1.02729105949,0.032230630517,0.0859025791287,0.0,11.8000001907,0.343575605180602,0.010779475089297658,0.028729959574816052,11.8000001907,0.0,0.4860088374028137,1.0313801372687825
1648479396321843073,70319,0,3,1.97290539742,-1.24527442455,0.226907417178,0.0,11.8000001907,0.659834581076923,-0.4164797406521739,0.07588876828695652,11.8000001907,0.0,1.0218702085605682,2.3440458774473023
1648479396321954866,70320,0,4,0.677923440933,-0.0439508594573,0.181652754545,0.161837622523,11.8000001907,0.22673024780367892,-0.014699284099431437,0.06075342961371236,11.8000001907,0.021869948989594594,0.3209817432367005,0.7032137605644959
1648479396321961335,70321,0,5,0.7775811553,-0.174338400364,-0.0119853895158,0.242756426334,11.8000001907,0.2600605870568562,-0.058307157312374576,-0.004008491476856188,11.8000001907,0.03280492247756756,0.3723744653901008,0.7969755206284611
