%time,field.header.seq,field.header.frame_id,field.point_id,field.x,field.y,field.z,field.velocity,field.intensity,normalized_x,normalized_y,normalized_z,normalized_intensity,normalized_velocity,normalized_range,range
1648539003602197676,3193,0,0,0.851002752781,-0.22268435359,0.140068247914,0.0,16.2000007629,0.2846163052779264,-0.07447637243812709,0.04684556786421404,16.2000007629,0.0,0.40934046038921956,0.8907374027446774
1648539003602204204,3194,0,1,1.75525772572,-1.53828012943,0.217522203922,0.0,16.2000007629,0.5870427176321069,-0.5144749596755852,0.07274990097725752,16.2000007629,0.0,0.976689709571558,2.344045935876259
1648539003602209748,3195,0,2,0.462950080633,-0.0146502861753,0.0724196210504,-0.0809188112617,16.2000007629,0.15483280288729095,-0.0048997612626421405,0.02422060904695652,16.2000007629,-0.010934974494824324,0.21902146324116337,0.4688091397959333
1648539003707392178,3196,1,0,0.442808359861,-0.0,0.153957039118,0.0,21.6000003815,0.1480964414250836,-0.0,0.05149064853444815,21.6000003815,0.0,0.2094399960025459,0.46880914395601353
1648539003707398014,3197,1,1,1.75525772572,-1.53828012943,0.217522203922,0.0,21.6000003815,0.5870427176321069,-0.5144749596755852,0.07274990097725752,21.6000003815,0.0,0.976689709571558,2.344045935876259
1648539003707402743,3198,1,2,0.534080982208,1.14711737633,0.0330186225474,0.161837622523,21.6000003815,0.17862240207625418,0.3836512964314381,0.011043017574381269,21.6000003815,0.021869948989594594,0.45934762685846675,1.265784736860661
1648539003902158407,3199,3,0,0.0338342525065,0.0146502861753,-0.028955699876,0.0,14.1000003815,0.011315803513879596,0.0048997612626421405,-0.009684180560535115,14.1000003815,0.0,0.016736262389205905,0.046880913845623505
1648539003902162527,3200,3,1,0.00555066484958,0.0454158857465,0.01021800749,0.0,14.1000003815,0.0018564096486889633,0.015189259446989964,0.0034173938093645484,14.1000003815,0.0,0.015414477484347787,0.046880915471833526
1648539003902165702,3201,3,2,1.07716417313,0.0336956568062,0.0350540727377,0.0,14.1000003815,0.3602555762976588,0.011269450436856187,0.011723770146387959,14.1000003815,0.0,0.5096029444776249,1.0782610264578505
1648539003902168222,3202,3,3,1.75952601433,-1.53828012943,0.179759755731,0.0,14.1000003815,0.5884702389063545,-0.5144749596755852,0.06012031964247491,14.1000003815,0.0,0.9784063206511899,2.3440458872393393
1648539004007265697,3203,4,0,0.0339008867741,0.0146502861753,-0.0288776550442,0.0,13.0,0.011338089222107021,0.0048997612626421405,-0.009658078610100334,13.0,0.0,0.016766400772014467,0.046880912639797705
1648539004007269610,3204,4,1,0.00555066484958,0.0454158857465,0.01021800749,0.0,13.0,0.0018564096486889633,0.015189259446989964,0.0034173938093645484,13.0,0.0,0.015414477484347787,0.046880915471833526
1648539004007271624,3205,4,2,0.910513579845,-0.175803437829,0.138514563441,0.0,13.0,0.30451959192140465,-0.05879713639765886,0.04632594095016722,13.0,0.0,0.4346509714432058,0.9376183189976096
1648539004007273446,3206,4,3,0.706769585609,0.615312039852,0.0315583832562,0.0,13.0,0.236377787829097,0.20578997988361203,0.010554643229498327,13.0,0.0,0.3925537326003316,0.9376183045794766
1648539004007278973,3207,4,4,1.07799601555,-0.0,0.0239069219679,0.0,13.0,0.3605337844648829,-0.0,0.007995626076220735,13.0,0.0,0.5098717676839357,1.0782610771328318
1648539004007521174,3208,4,5,1.75390791893,-1.53828012943,0.228149563074,0.0,13.0,0.5865912772341136,-0.5144749596755852,0.07630420169698997,13.0,0.0,0.976147087885577,2.344045854460914
