%time,field.header.seq,field.header.frame_id,field.point_id,field.x,field.y,field.z,field.velocity,field.intensity,normalized_x,normalized_y,normalized_z,normalized_intensity,normalized_velocity,normalized_range,range
1648479387321945575,70169,0,0,0.0131334252656,0.0439508594573,0.00967756938189,0.0,13.1999998093,0.004392449921605351,0.014699284099431437,0.00323664527822408,13.1999998093,0.0,0.01595795054709155,0.04688091568414307
1648479387321948945,70170,0,1,0.0339150689542,0.0146502861753,-0.0288610011339,0.0,13.1999998093,0.011342832426153847,0.0048997612626421405,-0.009652508740434782,13.1999998093,0.0,0.016772815962935467,0.046880914812291195
1648479387321977570,70171,0,2,0.847278654575,-0.0278355441988,-0.273417681456,0.0,13.1999998093,0.28337078748327754,-0.009309546554782609,-0.09144404062073577,13.1999998093,0.0,0.40085492893918784,0.8907374273892615
1648479387322082288,70172,0,3,1.01722121239,0.032230630517,0.167234539986,0.0,13.1999998093,0.34020776334113706,0.010779475089297658,0.05593128427625418,13.1999998093,0.0,0.48124717303934267,1.0313802401849832
1648479387322087795,70173,0,4,1.97389686108,-1.24527442455,0.218115463853,0.0,13.1999998093,0.6601661742742475,-0.4164797406521739,0.07294831566989966,13.1999998093,0.0,1.02229845431043,2.344045982098393
1648479387322090477,70174,0,5,2.08312773705,-1.24234426022,0.539292931557,0.0,13.1999998093,0.6966982398160534,-0.41549975258193983,0.1803655289488294,13.1999998093,0.0,1.0693067469726483,2.4846885711887468
1648479387322095692,70175,0,6,0.779016911983,-0.0249054860324,0.166380122304,0.404594063759,13.1999998093,0.26054077323846153,-0.00832959399076923,0.0556455258541806,13.1999998093,0.05467487348094594,0.3685544344807723,0.7969755187506912
