%time,field.header.seq,field.header.frame_id,field.point_id,field.x,field.y,field.z,field.velocity,field.intensity,normalized_x,normalized_y,normalized_z,normalized_intensity,normalized_velocity,normalized_range,range
1648478801216387654,51430,0,0,0.0130687002093,0.0439508594573,0.00976479705423,0.0,17.7999992371,0.004370802745585284,0.014699284099431437,0.0032658184127859527,17.7999992371,0.0,0.01594605864523988,0.04688091545294517
1648478801216393737,51431,0,1,0.0339376479387,0.0146502861753,-0.0288344435394,0.0,17.7999992371,0.011350383925986621,0.0048997612626421405,-0.00964362660180602,17.7999992371,0.0,0.016783029850580597,0.046880912606904114
1648478801216427569,51432,0,2,1.78378260136,-1.46502864361,0.407874673605,0.0,17.7999992371,0.5965828098193979,-0.489976134986622,0.1364129343160535,17.7999992371,0.0,0.9756529663771049,2.344045870899456
1648478801216432445,51433,0,3,2.31100344658,-1.33610606194,0.121661625803,0.0,17.7999992371,0.7729108516989966,-0.4468582146956522,0.04068950695752508,17.7999992371,0.0,1.1808745205944289,2.672212171600617
1648478801216445172,51434,0,4,0.29581284523,-0.123062409461,0.0710183754563,0.161837622523,17.7999992371,0.09893406194983277,-0.041157996475250834,0.02375196503555184,17.7999992371,0.021869948989594594,0.14584196207416938,0.32816642984599564
1648478801216454788,51435,0,5,0.922455191612,-0.24612480402,0.240286886692,-0.0809188112617,17.7999992371,0.3085134420107023,-0.08231598796655518,0.08036350725484949,17.7999992371,-0.010934974494824324,0.4440011370227468,0.984499257288673
