%time,field.header.seq,field.header.frame_id,field.point_id,field.x,field.y,field.z,field.velocity,field.intensity,normalized_x,normalized_y,normalized_z,normalized_intensity,normalized_velocity,normalized_range,range
1648479135116518372,62642,0,0,0.0131107158959,0.0439508594573,0.00970831234008,0.0,15.6000003815,0.004384854814682274,0.014699284099431437,0.003246927204040134,15.6000003815,0.0,0.015953772485762813,0.04688091559292428
1648479135116534615,62643,0,1,0.033928707242,0.0146502861753,-0.0288449693471,0.0,15.6000003815,0.011347393726421403,0.0048997612626421405,-0.009647146938829431,15.6000003815,0.0,0.016778985344642987,0.046880916338811765
1648479135116544088,62644,0,2,0.684330880642,0.707608819008,0.0148231033236,0.0,15.6000003815,0.22887320422809362,0.23665846789565215,0.0049575596399999994,15.6000003815,0.0,0.4009652324753191,0.9844992226153833
1648479135116554539,62645,0,3,2.30630040169,-1.33610606194,0.191093400121,0.0,15.6000003815,0.7713379269866221,-0.4468582146956522,0.06391083616086957,15.6000003815,0.0,1.178815786820411,2.672212124655914
1648479135116642789,62646,0,4,0.915169894695,-0.032230630517,0.474521100521,-0.323675245047,15.6000003815,0.3060768878578595,-0.010779475089297658,0.1587027092043478,15.6000003815,-0.04373989797932432,0.4329922858951487,1.0313801551994501
1648479135116645575,62647,0,5,0.881714582443,-0.451228827238,-0.287605494261,-0.323675245047,15.6000003815,0.29488782021505017,-0.15091265125016723,-0.09618912851538461,15.6000003815,-0.04373989797932432,0.4435000353209931,1.0313801334873234
1648479135116654793,62648,0,6,0.421769827604,-0.0879017189145,0.184839144349,-0.161837622523,15.6000003815,0.14106014301137124,-0.02939856819882943,0.06181911182240803,15.6000003815,-0.021869948989594594,0.20164375444064278,0.46880913914822747
1648479135221621190,62649,1,0,0.0130922468379,0.0439508594573,0.00973320472986,0.0,15.3000001907,0.004378677872207358,0.014699284099431437,0.0032552524180133775,15.3000001907,0.0,0.01595037908179347,0.04688091561193326
1648479135221627786,62650,1,1,0.0339512899518,0.0146502861753,-0.0288183819503,0.0,15.3000001907,0.011354946472173912,0.0048997612626421405,-0.009638254832876253,15.3000001907,0.0,0.016789201267563565,0.04688091416176479
1648479135221636602,62651,1,2,0.371498733759,-0.145037829876,0.137753948569,-0.161837622523,15.3000001907,0.12424706814682274,-0.048507635410033445,0.04607155470535117,15.3000001907,-0.021869948989594594,0.18228455386904058,0.4219282304208034
1648479135221638602,62652,1,3,0.362109839916,-0.171408340335,0.132359698415,-0.161837622523,15.3000001907,0.12110696987157189,-0.05732720412541805,0.0442674576638796,15.3000001907,-0.021869948989594594,0.18061064374998775,0.4219282463463427
