%time,field.header.seq,field.header.frame_id,field.point_id,field.x,field.y,field.z,field.velocity,field.intensity,normalized_x,normalized_y,normalized_z,normalized_intensity,normalized_velocity,normalized_range,range
1648479005616402891,57936,0,0,0.0130922468379,0.0439508594573,0.00973320472986,0.0,31.3999996185,0.004378677872207358,0.014699284099431437,0.0032552524180133775,31.3999996185,0.0,0.01595037908179347,0.04688091561193326
1648479005616490856,57937,0,1,0.0338654480875,0.0146502861753,-0.0289192087948,0.0,31.3999996185,0.011326236818561873,0.0048997612626421405,-0.009671976185551838,31.3999996185,0.0,0.016750371380097266,0.046880913989624615
1648479005616494002,57938,0,2,1.29873681068,-0.38237246871,-0.124261818826,0.0,31.3999996185,0.4343601373511705,-0.1278837687993311,-0.041559136731103674,31.3999996185,0.0,0.627448576507889,1.3595466184947773
1648479005616497701,57939,0,3,0.679760217667,0.0849716588855,-1.17433929443,0.0,31.3999996185,0.22734455440367893,0.028418615011872907,-0.3927556168662207,31.3999996185,0.0,0.32276726989149274,1.3595465842621175
1648479005616581317,57940,0,4,1.81766188145,-1.46502864361,0.210588365793,0.0,31.3999996185,0.6079136727257525,-0.489976134986622,0.07043089156956521,31.3999996185,0.0,0.9895426619556404,2.3440458830154065
1648479005616584712,57941,0,5,2.30673933029,-1.33610606194,0.185720577836,0.0,31.3999996185,0.7714847258494983,-0.4468582146956522,0.062113905630769226,31.3999996185,0.0,1.1790079000919107,2.672212169662303
1648479005616593699,57942,0,6,0.576094210148,-0.190453708172,0.0572229996324,0.404594063759,31.3999996185,0.19267364887892974,-0.06369689236521739,0.01913812696735786,31.3999996185,0.05467487348094594,0.2798277399430376,0.6094519059035282
1648479005616662697,57943,0,7,0.538043439388,-0.266635209322,0.104146659374,0.566431701183,31.3999996185,0.17994763859130436,-0.0891756552916388,0.034831658653511705,31.3999996185,0.07654482448418919,0.26965645322496284,0.6094518883204967
1648479005616684448,57944,0,8,1.25853228569,-0.118667319417,0.0650047361851,-0.0809188112617,31.3999996185,0.4209138079230769,-0.039688066694648826,0.021740714443177257,31.3999996185,-0.010934974494824324,0.5965836152950973,1.2657847615405262
1648479005721283821,57945,1,0,0.0130922468379,0.0439508594573,0.00973320472986,0.0,13.1999998093,0.004378677872207358,0.014699284099431437,0.0032552524180133775,13.1999998093,0.0,0.01595037908179347,0.04688091561193326
1648479005721290676,57946,1,1,0.0338743589818,0.0146502861753,-0.0289087686688,0.0,13.1999998093,0.011329217050769232,0.0048997612626421405,-0.009668484504615384,13.1999998093,0.0,0.016754401761858558,0.04688091282592771
1648479005721295659,57947,1,2,1.23267662525,-0.410208046436,-0.187959909439,0.0,13.1999998093,0.41226642984949835,-0.13719332656722408,-0.06286284596622073,13.1999998093,0.0,0.5989567824278172,1.312665696723612
1648479005721302283,57948,1,3,1.8200135231,-1.46502864361,0.189190581441,0.0,13.1999998093,0.6087001749498328,-0.489976134986622,0.0632744419535117,13.1999998093,0.0,0.9905091714993569,2.3440459097403816
1648479005721313010,57949,1,4,2.3041343689,-1.33610606194,0.215646609664,0.0,13.1999998093,0.7706135013043477,-0.4468582146956522,0.07212261192775919,13.1999998093,0.0,1.1778678197599581,2.6722122032051634
1648479005721403198,57950,1,5,0.538085758686,-0.328166425228,0.183148369193,0.404594063759,13.1999998093,0.17996179220267555,-0.10975465726688963,0.06125363518160535,13.1999998093,0.05467487348094594,0.27716164615142974,0.6563328511400813
