%time,field.header.seq,field.header.frame_id,field.point_id,field.x,field.y,field.z,field.velocity,field.intensity,normalized_x,normalized_y,normalized_z,normalized_intensity,normalized_velocity,normalized_range,range
1648479547721910479,73166,0,0,0.0131334252656,0.0439508594573,0.00967756938189,0.0,12.6000003815,0.004392449921605351,0.014699284099431437,0.00323664527822408,12.6000003815,0.0,0.01595795054709155,0.04688091568414307
1648479547722009839,73167,0,1,0.0339150689542,0.0146502861753,-0.0288610011339,0.0,12.6000003815,0.011342832426153847,0.0048997612626421405,-0.009652508740434782,12.6000003815,0.0,0.016772815962935467,0.046880914812291195
1648479547722015202,73168,0,2,1.11287021637,-0.105482056737,0.127819612622,0.0,12.6000003815,0.37219739677926417,-0.035278279845150494,0.04274903432173913,12.6000003815,0.0,0.5275474967880662,1.1251419626641415
1648479547722024505,73169,0,3,0.698962211609,0.879017174244,-0.0687397420406,0.0,12.6000003815,0.23376662595618727,0.29398567700468226,-0.02298988028113712,12.6000003815,0.0,0.44240394336599365,1.1251419990423697
1648479547722029719,73170,0,4,1.93088757992,-1.31852579117,0.166474997997,0.0,12.6000003815,0.6457817993043478,-0.44097852547491634,0.05567725685518394,12.6000003815,0.0,1.0141648409186512,2.344045868413818
1648479547722032183,73171,0,5,2.11253070831,-1.24234426022,0.409232646227,0.0,12.6000003815,0.7065320094682274,-0.41549975258193983,0.13686710576153846,12.6000003815,0.0,1.0821344672461346,2.484688433826721
1648479547722041547,73172,0,6,0.53651458025,0.0351606868207,0.165535315871,0.242756426334,12.6000003815,0.17943631446488292,0.011759427030334446,0.05536298189665552,12.6000003815,0.03280492247756756,0.2540335923092898,0.5625709817605675
1648479547722045108,73173,0,7,0.697360575199,0.0659262910485,0.0620604231954,0.404594063759,12.6000003815,0.2332309616050167,0.022048926772073575,0.02075599437973244,12.6000003815,0.05467487348094594,0.33057452726155684,0.7032137255632058
1648479548022126365,73174,3,0,0.0131629221141,0.0439508594573,0.00963740982115,0.0,24.2000007629,0.0044023150883277596,0.014699284099431437,0.0032232139870066886,24.2000007629,0.0,0.015963386523843694,0.04688091545264446
1648479548022249400,73175,3,1,0.0339150689542,0.0146502861753,-0.0288610011339,0.0,24.2000007629,0.011342832426153847,0.0048997612626421405,-0.009652508740434782,24.2000007629,0.0,0.016772815962935467,0.046880914812291195
1648479548022266005,73176,3,2,1.93621492386,-1.31852579117,0.0843376219273,0.0,24.2000007629,0.6475635196856186,-0.44097852547491634,0.028206562517491637,24.2000007629,0.0,1.0164344956687001,2.3440459312545503
1648479548022275698,73177,3,3,0.57762247324,-0.266635209322,0.161340489984,0.323675245047,24.2000007629,0.19318477365886288,-0.0891756552916388,0.05396003009498327,24.2000007629,0.04373989797932432,0.2873899981626803,0.6563328501228309
