%time,field.header.seq,field.header.frame_id,field.point_id,field.x,field.y,field.z,field.velocity,field.intensity,normalized_x,normalized_y,normalized_z,normalized_intensity,normalized_velocity,normalized_range,range
1648539602904491261,20098,0,0,0.00669446308166,0.0454158857465,0.00950798206031,0.0,20.7000007629,0.002238950863431438,0.015189259446989964,0.0031799271104715715,20.7000007629,0.0,0.015515779209749494,0.0468809154875417
1648539602904497938,20099,0,1,0.0341247096658,0.0146502861753,-0.0286128204316,0.0,20.7000007629,0.01141294637652174,0.0048997612626421405,-0.009569505161070233,20.7000007629,0.0,0.016867671754501566,0.046880914963813546
1648539602904507147,20100,0,2,0.910175442696,0.205104008317,0.0929572060704,0.0,20.7000007629,0.30440650257391305,0.06859665829999999,0.031089366578729096,20.7000007629,0.0,0.4359267589268757,0.93761827673898
