%time,field.header.seq,field.header.frame_id,field.point_id,field.x,field.y,field.z,field.velocity,field.intensity,normalized_x,normalized_y,normalized_z,normalized_intensity,normalized_velocity,normalized_range,range
1648478859216146816,53487,0,0,0.0130922468379,0.0439508594573,0.00973320472986,0.0,12.6000003815,0.004378677872207358,0.014699284099431437,0.0032552524180133775,12.6000003815,0.0,0.01595037908179347,0.04688091561193326
1648478859216154609,53488,0,1,0.033900372684,0.0146502861753,-0.0288782604039,0.0,12.6000003815,0.011337917285618728,0.0048997612626421405,-0.00965828107153846,12.6000003815,0.0,0.016766168231947105,0.04688091378255908
1648478859216162266,53489,0,2,2.25071811676,-1.4196126461,0.244306594133,0.0,12.6000003815,0.7527485340334448,-0.4747868381605351,0.08170789101438126,12.6000003815,0.0,1.165625691493405,2.672212158122104
1648478859216168636,53490,0,3,0.799799621105,0.389697611332,0.0432378463447,-0.242756426334,12.6000003815,0.26749151207525085,0.13033364927491636,0.01446081817548495,12.6000003815,-0.03280492247756756,0.40011283183362795,0.8907374324424095
1648478859321201354,53491,1,0,0.0130922468379,0.0439508594573,0.00973320472986,0.0,28.5,0.004378677872207358,0.014699284099431437,0.0032552524180133775,28.5,0.0,0.01595037908179347,0.04688091561193326
1648478859321207076,53492,1,1,0.033900372684,0.0146502861753,-0.0288782604039,0.0,28.5,0.011337917285618728,0.0048997612626421405,-0.00965828107153846,28.5,0.0,0.016766168231947105,0.04688091378255908
1648478859321214694,53493,1,2,2.2570874691,-1.4196126461,0.175994932652,0.0,28.5,0.7548787522073578,-0.4747868381605351,0.05886118148896321,28.5,0.0,1.1683776798444727,2.672212215460155
1648478859321224290,53494,1,3,0.75788384676,0.36918720603,0.0375039502978,-0.566431701183,28.5,0.25347285844816053,0.12347398194983276,0.012543127189899665,28.5,-0.07654482448418919,0.379134282488817,0.8438564241409274
