%time,field.header.seq,field.header.frame_id,field.point_id,field.x,field.y,field.z,field.velocity,field.intensity,normalized_x,normalized_y,normalized_z,normalized_intensity,normalized_velocity,normalized_range,range
1648479308131635964,68572,0,0,0.013122103177,0.0439508594573,0.00969291571528,0.0,37.2000007629,0.004388663269899665,0.014699284099431437,0.003241777831197324,37.2000007629,0.0,0.0159558667464018,0.04688091566817666
1648479308131641453,68573,0,1,0.0338290072978,0.0146502861753,-0.0289618279785,0.0,37.2000007629,0.01131404926347826,0.0048997612626421405,-0.009686230093143811,37.2000007629,0.0,0.016733890220260034,0.04688091402296906
1648479308131645546,68574,0,2,1.93484544754,-1.31852579117,0.111418500543,0.0,37.2000007629,0.6471055008494984,-0.44097852547491634,0.03726371255618729,37.2000007629,0.0,1.0158509331537733,2.3440459146761583
1648479308131653986,68575,0,3,0.498522728682,-0.096691891551,0.0897887349129,0.161837622523,37.2000007629,0.16673000959264211,-0.032338425267892976,0.030029677228394648,37.2000007629,0.021869948989594594,0.23799908812079967,0.5156900714785154
1648479308131841090,68576,0,4,0.479619204998,-0.145037829876,0.121924974024,0.323675245047,37.2000007629,0.1604077608688963,-0.048507635410033445,0.04077758328561873,37.2000007629,0.04373989797932432,0.2319790727350611,0.5156900747433542
1648479308221735710,68577,1,0,0.013122103177,0.0439508594573,0.00969291571528,0.0,21.8999996185,0.004388663269899665,0.014699284099431437,0.003241777831197324,21.8999996185,0.0,0.0159558667464018,0.04688091566817666
1648479308221752334,68578,1,1,0.033851724118,0.0146502861753,-0.028935270384,0.0,21.8999996185,0.011321646862207357,0.0048997612626421405,-0.00967734795451505,21.8999996185,0.0,0.016744164230440048,0.046880912778811776
1648479308221776859,68579,1,2,1.97565603256,-1.24527442455,0.201559141278,0.0,21.8999996185,0.6607545259397993,-0.4164797406521739,0.06741108403946489,21.8999996185,0.0,1.0230583861508393,2.3440459122768433
1648479308221825852,68580,1,3,0.433658570051,-0.146502867341,0.10128762573,0.485512852669,21.8999996185,0.14503631105384615,-0.04899761449531772,0.03387546011036789,21.8999996185,0.06560984495527027,0.21088344950338753,0.4688091601535035
1648479308221833311,68581,1,4,0.106645591557,-0.351606875658,-0.42601108551,-0.566431701183,21.8999996185,0.03566742192541806,-0.11759427279531771,-0.14247862391638794,21.8999996185,-0.07654482448418919,0.1279560196625043,0.5625709930185978
1648479308221836372,68582,1,5,0.530268788338,-0.140642747283,0.124582357705,-0.566431701183,21.8999996185,0.1773474208488294,-0.047037708121404675,0.041666340369565215,21.8999996185,-0.07654482448418919,0.255179860782112,0.5625710036076308
