%time,field.header.seq,field.header.frame_id,field.point_id,field.x,field.y,field.z,field.velocity,field.intensity,normalized_x,normalized_y,normalized_z,normalized_intensity,normalized_velocity,normalized_range,range
1648539310705047812,12862,0,0,0.00638589914888,0.0454158857465,0.00971791427583,0.0,12.8999996185,0.0021357522237056854,0.015189259446989964,0.0032501385537892975,12.8999996185,0.0,0.015486654825045383,0.04688091556221133
1648539310705052821,12863,0,1,0.0341105870903,0.0146502861753,-0.0286296512932,0.0,12.8999996185,0.011408223107123746,0.0048997612626421405,-0.009575134211772574,12.8999996185,0.0,0.016861280181371546,0.04688091263865664
1648539310705058434,12864,0,2,0.863958418369,0.293005734682,0.216452240944,0.0,12.8999996185,0.28894930380234113,0.09799522899063544,0.07239205382742475,12.8999996185,0.0,0.42022192379817874,0.937618302848703
1648539310900045111,12865,2,0,0.00625048251823,0.0454158857465,0.00980556104332,0.0,13.3999996185,0.0020904623806789293,0.015189259446989964,0.003279451853953177,13.3999996185,0.0,0.01547429056461205,0.046880915490464935
1648539310900052416,12866,2,1,0.0340891294181,0.0146502861753,-0.0286552011967,0.0,13.3999996185,0.01140104662812709,0.0048997612626421405,-0.00958367933,13.3999996185,0.0,0.016851569329422843,0.04688091493481664
1648539310900056445,12867,2,2,0.632322967052,0.281285494566,0.289288967848,0.0,13.3999996185,0.2114792531946488,0.09407541624280935,0.09675216315986622,13.3999996185,0.0,0.31352373595118854,0.7500946413841689
1648539311005427188,12868,3,0,0.00638589914888,0.0454158857465,0.00971791427583,0.0,13.3000001907,0.0021357522237056854,0.015189259446989964,0.0032501385537892975,13.3000001907,0.0,0.015486654825045383,0.04688091556221133
1648539311005431679,12869,3,1,0.0341914109886,0.0146502861753,-0.0285330787301,0.0,13.3000001907,0.011435254511237457,0.0048997612626421405,-0.009542835695685618,13.3000001907,0.0,0.016897862347185863,0.04688091351741803
1648539311005441646,12870,3,2,0.868884563446,0.32230630517,0.142430245876,0.0,13.3000001907,0.29059684396187285,0.10779475089297658,0.04763553373779264,13.3000001907,0.0,0.4248679321404253,0.9376183199401454
1648539311200137567,12871,5,0,0.00627921707928,0.0454158857465,0.0097871851176,0.0,13.8999996185,0.0021000726017658864,0.015189259446989964,0.0032733060593979927,13.8999996185,0.0,0.01547689285397264,0.0468809154965433
1648539311200140209,12872,5,1,0.0340891294181,0.0146502861753,-0.0286552011967,0.0,13.8999996185,0.01140104662812709,0.0048997612626421405,-0.00958367933,13.8999996185,0.0,0.016851569329422843,0.04688091493481664
1648539311200142262,12873,5,2,0.909531772137,0.338421612978,0.165714770555,0.0,13.8999996185,0.30419122813946486,0.11318448594581938,0.05542300018561873,13.8999996185,0.0,0.44483180463273003,0.9844991710699401
1648539311200245290,12874,5,3,0.639199316502,-0.0,0.148986592889,-0.161837622523,13.8999996185,0.21377903561939798,-0.0,0.0498282919361204,13.8999996185,-0.021869948989594594,0.3023292115239936,0.6563328203566363
1648539311305233619,12875,6,0,0.00625048251823,0.0454158857465,0.00980556104332,0.0,36.7999992371,0.0020904623806789293,0.015189259446989964,0.003279451853953177,36.7999992371,0.0,0.01547429056461205,0.046880915490464935
1648539311305237674,12876,6,1,0.0342057868838,0.0146502861753,-0.0285158436745,0.0,36.7999992371,0.011440062502943143,0.0048997612626421405,-0.009537071463043478,36.7999992371,0.0,0.016904369866202643,0.04688091383310112
1648539311305343073,12877,6,2,0.863581955433,0.32230630517,0.17167685926,0.0,36.7999992371,0.2888233964658863,0.10779475089297658,0.057417009785953176,36.7999992371,0.0,0.42244244224776933,0.9376183083255142
1648539311305350248,12878,6,3,0.644984722137,-0.082041606307,0.0896477848291,-0.0809188112617,36.7999992371,0.21571395389197323,-0.027438664316722407,0.029982536732140467,36.7999992371,-0.010934974494824324,0.30629707818864754,0.6563328745997267
