%time,field.header.seq,field.header.frame_id,field.point_id,field.x,field.y,field.z,field.velocity,field.intensity,normalized_x,normalized_y,normalized_z,normalized_intensity,normalized_velocity,normalized_range,range
1648479054916457495,59842,0,0,0.013080727309,0.0439508594573,0.00974867958575,0.0,13.8000001907,0.004374825186956521,0.014699284099431437,0.003260427955100334,13.8000001907,0.0,0.01594826460366946,0.0468809153881766
1648479054916460756,59843,0,1,0.0338654480875,0.0146502861753,-0.0289192087948,0.0,13.8000001907,0.011326236818561873,0.0048997612626421405,-0.009671976185551838,13.8000001907,0.0,0.016750371380097266,0.046880913989624615
1648479054916464199,59844,0,2,0.684394240379,0.707608819008,0.0115328747779,0.0,13.8000001907,0.22889439477558526,0.23665846789565215,0.0038571487551505015,13.8000001907,0.0,0.40098942423221134,0.984499225089836
1648479054916468128,59845,0,3,2.3051533699,-1.33610606194,0.204465731978,0.0,13.8000001907,0.7709543043143813,-0.4468582146956522,0.06838318795250836,13.8000001907,0.0,1.1783137709127942,2.672212136614053
1648479054916474336,59846,0,4,0.456446021795,-0.20949909091,0.117061533034,0.242756426334,13.8000001907,0.1526575323729097,-0.07006658558862876,0.03915101439264214,13.8000001907,0.03280492247756756,0.22697570529997385,0.515690064303035
1648479055021507616,59847,1,0,0.0130992634222,0.0439508594573,0.0097237592563,0.0,32.9000015259,0.004381024555919732,0.014699284099431437,0.0032520933967558527,32.9000015259,0.0,0.015951667792269912,0.04688091555541555
1648479055021529889,59848,1,1,0.033928707242,0.0146502861753,-0.0288449693471,0.0,32.9000015259,0.011347393726421403,0.0048997612626421405,-0.009647146938829431,32.9000015259,0.0,0.016778985344642987,0.046880916338811765
1648479055021534291,59849,1,2,0.949553906918,-0.184593603015,0.18306094408,0.0,32.9000015259,0.31757655749765884,-0.06173699097491638,0.061224396013377924,32.9000015259,0.0,0.45334445601414886,0.9844992278639726
1648479055021539234,59850,1,3,2.31142115593,-1.33610606194,0.113446868956,0.0,32.9000015259,0.7730505538227425,-0.4468582146956522,0.03794209664080267,32.9000015259,0.0,1.1810573997788099,2.6722120725925764
1648479055021563663,59851,1,4,0.432449400425,-0.161153152585,0.0824571624398,0.161837622523,32.9000015259,0.14463190649665553,-0.05389737544648829,0.027577646300936454,32.9000015259,0.021869948989594594,0.2115223483080082,0.46880913616700115
1648479055021567621,59852,1,5,0.764153420925,1.06654083729,0.0406378917396,0.161837622523,32.9000015259,0.2555697059949833,0.35670262116722407,0.013591268140334447,32.9000015259,0.021869948989594594,0.5078075513344524,1.3126657025167048
1648479055021579087,59853,1,6,0.279415279627,0.615312039852,-1.12534856796,0.161837622523,32.9000015259,0.09344992629665552,0.20578997988361203,-0.37637075851505014,32.9000015259,0.021869948989594594,0.24457165263005878,1.3126656864127615
1648479055021582489,59854,1,7,1.09614610672,-0.0703213736415,0.243850544095,-0.0809188112617,32.9000015259,0.3666040490702341,-0.023518854060702338,0.0815553659180602,32.9000015259,-0.010934974494824324,0.5189895895735384,1.1251419780292924
