%time,field.header.seq,field.header.frame_id,field.point_id,field.x,field.y,field.z,field.velocity,field.intensity,normalized_x,normalized_y,normalized_z,normalized_intensity,normalized_velocity,normalized_range,range
1648539394399874961,15253,0,0,0.00646227691323,0.0454158857465,0.00966729223728,0.0,20.7000007629,0.0021612966264983277,0.015189259446989964,0.0032332081061137124,20.7000007629,0.0,0.015493740954443508,0.04688091552266638
1648539394399882413,15254,0,1,0.0341353341937,0.0146502861753,-0.0286001432687,0.0,20.7000007629,0.011416499730334446,0.0048997612626421405,-0.009565265307257525,20.7000007629,0.0,0.016872480333855525,0.04688091424582009
1648539394399887505,15255,0,2,0.844934225082,0.351606875658,0.203928545117,0.0,20.7000007629,0.28258669735183944,0.11759427279531771,0.06820352679498327,20.7000007629,0.0,0.41657999956154856,0.9376183078622325
1648539394399904778,15256,0,3,2.47549200058,-0.079111546278,0.523951053619,0.0,20.7000007629,0.8279237460133779,-0.026458711129765885,0.175234466093311,20.7000007629,0.0,1.1711599044623655,2.531569471351424
1648539394400017882,15257,0,4,0.756206214428,0.224149376154,-0.114364385605,0.242756426334,20.7000007629,0.2529117774006689,0.07496634653979932,-0.038248958396321066,20.7000007629,0.03280492247756756,0.3654431384079557,0.796975529275876
1648539394400022285,15258,0,5,0.643884301186,0.123062409461,-0.0322722829878,-0.242756426334,20.7000007629,0.21534592012909698,0.041157996475250834,-0.010793405681538462,20.7000007629,-0.03280492247756756,0.3073137017875246,0.6563328806218496
1648539394505206762,15259,1,0,0.00638913922012,0.0454158857465,0.0097157843411,0.0,30.2999992371,0.002136835859571906,0.015189259446989964,0.0032494262010367893,30.2999992371,0.0,0.015486953784701454,0.04688091555714309
1648539394505208641,15260,1,1,0.0342169851065,0.0146502861753,-0.0285024046898,0.0,30.2999992371,0.01144380772792642,0.0048997612626421405,-0.009532576819331104,30.2999992371,0.0,0.016909439111288862,0.04688091325793219
1648539394505210503,15261,1,2,0.525065660477,0.140642747283,0.144954413176,-0.242756426334,30.2999992371,0.17560724430668895,0.047037708121404675,0.04847973684816053,30.2999992371,-0.03280492247756756,0.25276145768548797,0.5625709840319322
1648539394700074098,15262,3,0,0.00636103888974,0.0454158857465,0.0097342049703,0.0,32.5,0.002127437755765886,0.015189259446989964,0.0032555869465886286,32.5,0.0,0.01548436583645873,0.04688091552326745
1648539394700076117,15263,3,1,0.0341353341937,0.0146502861753,-0.0286001432687,0.0,32.5,0.011416499730334446,0.0048997612626421405,-0.009565265307257525,32.5,0.0,0.016872480333855525,0.04688091424582009
1648539394805193851,15264,4,0,0.0063971108757,0.0454158857465,0.00971053726971,0.0,13.6000003815,0.0021395019651170564,0.015189259446989964,0.0032476713276622074,13.6000003815,0.0,0.015487689946065338,0.046880915517527676
1648539394805199277,15265,4,1,0.034184448421,0.0146502861753,-0.0285414196551,0.0,13.6000003815,0.011432925893311035,0.0048997612626421405,-0.00954562530270903,13.6000003815,0.0,0.0168947106928403,0.046880913331490505
1648539394805208355,15266,4,2,0.493043154478,-0.175803437829,0.206125512719,0.323675245047,13.6000003815,0.16489737607959865,-0.05879713639765886,0.06893829856822742,13.6000003815,0.04373989797932432,0.24049821729991697,0.5625709981182666
1648539394805211754,15267,4,3,0.426693618298,-0.249054864049,-0.625359296799,-0.242756426334,13.6000003815,0.14270689575183945,-0.0832959411535117,-0.20915026648795987,13.6000003815,-0.03280492247756756,0.2183316972015333,0.7969755449796719
1648539395005113883,15268,6,0,0.00642501097172,0.0454158857465,0.0096920998767,0.0,20.2999992371,0.0021488331009096987,0.015189259446989964,0.0032415049754849494,20.2999992371,0.0,0.015490273397816588,0.046880915564286835
1648539395005124997,15269,6,1,0.0341353341937,0.0146502861753,-0.0286001432687,0.0,20.2999992371,0.011416499730334446,0.0048997612626421405,-0.009565265307257525,20.2999992371,0.0,0.016872480333855525,0.04688091424582009
1648539395005128057,15270,6,2,0.867905378342,0.351606875658,0.0473381876945,0.0,20.2999992371,0.2902693573050167,0.11759427279531771,0.01583216979749164,20.2999992371,0.0,0.42701406601515424,0.9376182830870727
1648539395005130521,15271,6,3,0.421326965094,-1.14272224903,0.0489481985569,0.0,20.2999992371,0.14091202845953177,-0.3821813541906354,0.016370634968862874,20.2999992371,0.0,0.4310162259360403,1.2189038009972188
1648539395005134669,15272,6,4,1.19070458412,0.228544458747,0.125364974141,0.0,20.2999992371,0.3982289578996655,0.07643627382842809,0.04192808499698997,20.2999992371,0.0,0.568344182495503,1.2189037505109723
1648539395005154504,15273,6,5,2.49045276642,-0.079111546278,0.447471171618,0.0,20.2999992371,0.8329273466287624,-0.026458711129765885,0.14965591024013378,20.2999992371,0.0,1.1782342691157432,2.5315694870875483
1648539395005224520,15274,6,6,0.512286841869,-0.210964113474,0.0976854115725,0.161837622523,20.2999992371,0.17133339192943142,-0.07055655969030099,0.03267070621153846,20.2999992371,0.021869948989594594,0.2523657870936933,0.5625709778864114
1648539395005227812,15275,6,7,0.829838454723,0.612381994724,0.0100720720366,0.323675245047,20.2999992371,0.27753794472341137,0.20481003168026754,0.00336858596541806,20.2999992371,0.04373989797932432,0.4427208721073165,1.031380150591581
1648539395005230456,15276,6,8,0.292637854815,0.225614413619,-0.962915480137,0.323675245047,20.2999992371,0.09787219224581939,0.07545632562508361,-0.3220453110826087,20.2999992371,0.04373989797932432,0.15764386796461163,1.0313801431047815
1648539395005255333,15277,6,9,0.423844188452,-0.273960351944,0.106009833515,0.404594063759,20.2999992371,0.1417539091812709,-0.09162553576722407,0.03545479381772575,20.2999992371,0.05467487348094594,0.2204168331615688,0.5156900768132859
1648539395005263235,15278,6,10,0.499262928963,-0.323771327734,0.131682470441,0.404594063759,20.2999992371,0.16697756821505017,-0.10828472499464883,0.044040960013712376,20.2999992371,0.05467487348094594,0.2597856775135808,0.6094518995956906
