%time,field.header.seq,field.header.frame_id,field.point_id,field.x,field.y,field.z,field.velocity,field.intensity,normalized_x,normalized_y,normalized_z,normalized_intensity,normalized_velocity,normalized_range,range
1648479107216544714,61721,0,0,0.0131107158959,0.0439508594573,0.00970831234008,0.0,13.8999996185,0.004384854814682274,0.014699284099431437,0.003246927204040134,13.8999996185,0.0,0.015953772485762813,0.04688091559292428
1648479107216566684,61722,0,1,0.0338654480875,0.0146502861753,-0.0289192087948,0.0,13.8999996185,0.011326236818561873,0.0048997612626421405,-0.009671976185551838,13.8999996185,0.0,0.016750371380097266,0.046880913989624615
1648479107216580774,61723,0,2,0.684231638908,0.707608819008,-0.0188548211008,0.0,13.8999996185,0.228840013012709,0.23665846789565215,-0.006305960234381271,13.8999996185,0.0,0.4009273419686304,0.984499202995801
1648479107216635962,61724,0,3,2.30610990524,-1.33610606194,0.193378359079,0.0,13.8999996185,0.7712742157993311,-0.4468582146956522,0.0646750364812709,13.8999996185,0.0,1.178732410666107,2.6722120974127304
1648479107216637878,61725,0,4,0.65355360508,-0.0410208031535,-0.044247161597,-0.161837622523,13.8999996185,0.21857980103010033,-0.013719332158361203,-0.014798381805016721,13.8999996185,-0.021869948989594594,0.30942281575796565,0.6563328670071413
1648479107216640078,61726,0,5,0.434071242809,-0.0586011447012,0.167123004794,-0.0809188112617,13.8999996185,0.1451743286986622,-0.019599045050568562,0.05589398153645484,13.8999996185,-0.010934974494824324,0.20624086402337596,0.4688091687727707
1648479107321605555,61727,1,0,0.0131107158959,0.0439508594573,0.00970831234008,0.0,15.3000001907,0.004384854814682274,0.014699284099431437,0.003246927204040134,15.3000001907,0.0,0.015953772485762813,0.04688091559292428
1648479107321626251,61728,1,1,0.0338654480875,0.0146502861753,-0.0289192087948,0.0,15.3000001907,0.011326236818561873,0.0048997612626421405,-0.009671976185551838,15.3000001907,0.0,0.016750371380097266,0.046880913989624615
1648479107321635768,61729,1,2,0.684369266033,0.707608819008,-0.0129280677065,0.0,15.3000001907,0.228886042151505,0.23665846789565215,-0.0043237684637123745,15.3000001907,0.0,0.40097988853591954,0.9844991965273854
1648479107321639113,61730,1,3,2.30408620834,-1.33610606194,0.216159135103,0.0,15.3000001907,0.7705973940936455,-0.4468582146956522,0.0722940251180602,15.3000001907,0.0,1.1778467436847715,2.672212086624842
1648479107321641250,61731,1,4,0.416578173637,-0.131852582097,0.169881016016,-0.0809188112617,15.3000001907,0.13932380389197324,-0.04409785354414715,0.05681639331638796,15.3000001907,-0.010934974494824324,0.20190806162473823,0.4688091698751349
