%time,field.header.seq,field.header.frame_id,field.point_id,field.x,field.y,field.z,field.velocity,field.intensity,normalized_x,normalized_y,normalized_z,normalized_intensity,normalized_velocity,normalized_range,range
1648539606504309479,20138,0,0,0.00665446231142,0.0454158857465,0.00953602045774,0.0,17.1000003815,0.002225572679404682,0.015189259446989964,0.003189304500916388,17.1000003815,0.0,0.01551192928202675,0.0468809154450261
1648539606504315101,20139,0,1,0.0341526307166,0.0146502861753,-0.028579486534,0.0,17.1000003815,0.011422284520602006,0.0048997612626421405,-0.009558356700334447,17.1000003815,0.0,0.016880308876618844,0.04688091424481527
1648539606504323929,20140,0,2,2.46661496162,-0.079111546278,0.564266264439,0.0,17.1000003815,0.8249548366622073,-0.026458711129765885,0.18871781419364547,17.1000003815,0.0,1.1669623080714246,2.5315695571771424
1648539606504328276,20141,0,3,1.27467370033,-0.287145614624,0.125879138708,-0.242756426334,17.1000003815,0.42631227435785946,-0.0960353226167224,0.04210004639063545,17.1000003815,-0.03280492247756756,0.6104974150038963,1.3126656862555055
