%time,field.header.seq,field.header.frame_id,field.point_id,field.x,field.y,field.z,field.velocity,field.intensity,normalized_x,normalized_y,normalized_z,normalized_intensity,normalized_velocity,normalized_range,range
1648478887116451039,54360,0,0,0.0130922468379,0.0439508594573,0.00973320472986,0.0,15.1000003815,0.004378677872207358,0.014699284099431437,0.0032552524180133775,15.1000003815,0.0,0.01595037908179347,0.04688091561193326
1648478887116482516,54361,0,1,0.0339737907052,0.0146502861753,-0.0287918504328,0.0,15.1000003815,0.011362471807759197,0.0048997612626421405,-0.009629381415652173,15.1000003815,0.0,0.016799380690821125,0.04688091286700426
1648478887116500653,54362,0,2,2.30681586266,-1.33610606194,0.184768155217,0.0,15.1000003815,0.7715103219598662,-0.4468582146956522,0.061795369637792634,15.1000003815,0.0,1.1790413978407284,2.6722122116618863
1648478887116509904,54363,0,3,0.363531589508,0.0703213736415,0.0596671551466,-0.242756426334,15.1000003815,0.12158247140735785,0.023518854060702338,0.019955570283143813,15.1000003815,-0.03280492247756756,0.17354460868425325,0.3750473057686576
1648478887116514192,54364,0,4,1.30141174793,-0.164083212614,0.0499552488327,-0.0809188112617,15.1000003815,0.43525476519397993,-0.054877328633444813,0.016707441081170567,15.1000003815,-0.010934974494824324,0.6179845810747031,1.3126657477049846
1648478887221349744,54365,1,0,0.013080727309,0.0439508594573,0.00974867958575,0.0,17.1000003815,0.004374825186956521,0.014699284099431437,0.003260427955100334,17.1000003815,0.0,0.01594826460366946,0.0468809153881766
1648478887221354514,54366,1,1,0.033851724118,0.0146502861753,-0.028935270384,0.0,17.1000003815,0.011321646862207357,0.0048997612626421405,-0.00967734795451505,17.1000003815,0.0,0.016744164230440048,0.046880912778811776
1648478887221387520,54367,1,2,1.80561566353,-1.46502864361,0.296638339758,0.0,17.1000003815,0.6038848373010033,-0.489976134986622,0.09921014707625418,17.1000003815,0.0,0.9845965703274346,2.3440458945159373
1648478887221394759,54368,1,3,2.30552744865,-1.33610606194,0.200202122331,0.0,17.1000003815,0.771079414264214,-0.4468582146956522,0.06695723154882942,17.1000003815,0.0,1.1784774882215918,2.67221202658345
1648478887221414684,54369,1,4,0.361146658659,-0.0586011447012,0.082459077239,0.161837622523,17.1000003815,0.12078483567190634,-0.019599045050568562,0.02757828670200669,17.1000003815,0.021869948989594594,0.17193625453485095,0.3750473338659516
1648478887221609404,54370,1,5,0.413908183575,-0.0659262835979,0.048550631851,0.242756426334,17.1000003815,0.13843083062709027,-0.02204892428023411,0.016237669515384617,17.1000003815,0.03280492247756756,0.19700848915244187,0.42192822037938865
