%time,field.header.seq,field.header.frame_id,field.point_id,field.x,field.y,field.z,field.velocity,field.intensity,normalized_x,normalized_y,normalized_z,normalized_intensity,normalized_velocity,normalized_range,range
1648478834916171971,52739,0,0,0.0130922468379,0.0439508594573,0.00973320472986,0.0,12.8000001907,0.004378677872207358,0.014699284099431437,0.0032552524180133775,12.8000001907,0.0,0.01595037908179347,0.04688091561193326
1648478834916190576,52740,0,1,0.0339376479387,0.0146502861753,-0.0288344435394,0.0,12.8000001907,0.011350383925986621,0.0048997612626421405,-0.00964362660180602,12.8000001907,0.0,0.016783029850580597,0.046880912606904114
1648478834916196070,52741,0,2,1.27044892311,-0.246124818921,0.220166519284,0.0,12.8000001907,0.42489930538795984,-0.08231599295016721,0.07363428738595316,12.8000001907,0.0,0.6065103149442007,1.3126656805652708
1648478834916198827,52742,0,3,2.30877828598,-1.33610606194,0.158370047808,0.0,12.8000001907,0.7721666508294314,-0.4468582146956522,0.05296657117324414,12.8000001907,0.0,1.1799003929769951,2.672212127546814
1648478834916303339,52743,0,4,0.470150351524,0.177268475294,0.116063795984,-0.242756426334,12.8000001907,0.15724092024214045,0.05928711548294314,0.0388173230715719,12.8000001907,-0.03280492247756756,0.23013990540425228,0.5156900911491472
