%time,field.header.seq,field.header.frame_id,field.point_id,field.x,field.y,field.z,field.velocity,field.intensity,normalized_x,normalized_y,normalized_z,normalized_intensity,normalized_velocity,normalized_range,range
1648479596021859253,74115,0,0,0.0131509173661,0.0439508594573,0.00965378433466,0.0,13.3999996185,0.004398300122441472,0.014699284099431437,0.0032286904129297657,13.3999996185,0.0,0.01596117291961763,0.046880915377000204
1648479596021865709,74116,0,1,0.0338788032532,0.0146502861753,-0.0289035607129,0.0,13.3999996185,0.011330703429163879,0.0048997612626421405,-0.009666742713344481,13.3999996185,0.0,0.01675641193186121,0.04688091313926722
1648479596021883057,74117,0,2,1.06998336315,0.0673913136125,0.115068815649,0.0,13.3999996185,0.35785396760869564,0.02253890087374582,0.03848455372876254,13.3999996185,0.0,0.5065835827572458,1.078261016128779
1648479596021995175,74118,0,3,1.93526983261,-1.31852579117,0.10378664732,0.0,13.3999996185,0.6472474356555183,-0.44097852547491634,0.03471125328428093,13.3999996185,0.0,1.0160317641960412,2.344045915751809
1648479596021999053,74119,0,4,2.04347348213,-1.24234426022,0.67414700985,0.0,13.3999996185,0.6834359472006688,-0.41549975258193983,0.2254672273745819,13.3999996185,0.0,1.052050109190529,2.484688576856219
1648479596022021232,74120,0,5,0.736122250557,0.140642747283,-0.0313941761851,-0.161837622523,13.3999996185,0.24619473262775918,0.047037708121404675,-0.010499724476622074,13.3999996185,-0.021869948989594594,0.3513349381041147,0.7500946236487458
1648479596126863148,74121,1,0,0.0131509173661,0.0439508594573,0.00965378433466,0.0,26.3999996185,0.004398300122441472,0.014699284099431437,0.0032286904129297657,26.3999996185,0.0,0.01596117291961763,0.046880915377000204
1648479596126871271,74122,1,1,0.0338788032532,0.0146502861753,-0.0289035607129,0.0,26.3999996185,0.011330703429163879,0.0048997612626421405,-0.009666742713344481,26.3999996185,0.0,0.01675641193186121,0.04688091313926722
1648479596126894329,74123,1,2,1.06247937679,0.101086974144,0.153511196375,0.0,26.3999996185,0.35534427317391304,0.03380835255652174,0.05134153724916388,26.3999996185,0.0,0.5036686506599146,1.078260956289404
1648479596126898047,74124,1,3,1.93522500992,-1.31852579117,0.10461935401,0.0,26.3999996185,0.6472324447892975,-0.44097852547491634,0.03498975050501672,26.3999996185,0.0,1.0160126648353818,2.344045927500954
1648479596126908524,74125,1,4,0.674365103245,0.328166425228,0.0134356953204,-0.485512852669,26.3999996185,0.22554016830936452,0.10975465726688963,0.0044935435854180595,26.3999996185,-0.06560984495527027,0.3373170909304854,0.750094669378677
1648479596126924357,74126,1,5,0.667667746544,0.219754293561,-0.0209144242108,-0.404594063759,26.3999996185,0.22330024968026754,0.07349641925117056,-0.006994790705953177,26.3999996185,-0.05467487348094594,0.32423406153160944,0.703213753032253
1648479596322205218,74127,3,0,0.0130813485011,0.0439508594573,0.00974784698337,0.0,33.9000015259,0.0043750329435117054,0.014699284099431437,0.0032601494927658858,33.9000015259,0.0,0.015948378586847733,0.046880915588902096
1648479596322329808,74128,3,1,0.0338788032532,0.0146502861753,-0.0289035607129,0.0,33.9000015259,0.011330703429163879,0.0048997612626421405,-0.009666742713344481,33.9000015259,0.0,0.01675641193186121,0.04688091313926722
1648479596322338926,74129,3,2,1.05018782616,0.101086974144,0.222561851144,0.0,33.9000015259,0.35123338667558524,0.03380835255652174,0.07443540172040133,33.9000015259,0.0,0.4978682441507878,1.0782610185576125
1648479596322344072,74130,3,3,0.583701729774,0.808695793152,-0.409817218781,0.0,33.9000015259,0.19521796982408027,0.2704668204521739,-0.13706261497692307,33.9000015259,0.0,0.3864872733350731,1.0782609832560466
1648479596322459154,74131,3,4,1.93650484085,-1.31852579117,0.0773965269327,0.0,33.9000015259,0.6476604818896321,-0.44097852547491634,0.025885126064448157,33.9000015259,0.0,1.0165580453338865,2.3440459643524916
1648479596322463407,74132,3,5,0.54818803072,0.164083212614,0.321464449167,0.0809188112617,33.9000015259,0.18334047850167223,0.054877328633444813,0.10751319370133779,33.9000015259,0.010934974494824324,0.2650263822950224,0.6563328498289915
1648479596322701961,74133,3,6,0.637284576893,-0.0410208031535,-0.151520580053,0.0809188112617,33.9000015259,0.2131386544792642,-0.013719332158361203,-0.0506757792819398,33.9000015259,0.010934974494824324,0.30173563286647764,0.656332860991011
1648479596427072382,74134,4,0,0.013062746264,0.0439508594573,0.00977276079357,0.0,13.3999996185,0.004368811459531772,0.014699284099431437,0.003268481870759197,13.3999996185,0.0,0.01594496723651918,0.0468809155256307
1648479596427077146,74135,4,1,0.0339014641941,0.0146502861753,-0.028876978904,0.0,13.3999996185,0.01133828233916388,0.0048997612626421405,-0.00965785247625418,13.3999996185,0.0,0.016766661958663078,0.046880913708502864
1648479596427081204,74136,4,2,1.93765676022,-1.31852579117,0.0390836000443,0.0,13.3999996185,0.6480457392040133,-0.44097852547491634,0.013071438141906352,13.3999996185,0.0,1.0170489762695716,2.344045970154844
1648479596427092458,74137,4,3,0.638848364353,-0.0,0.29390874505,0.0809188112617,13.3999996185,0.21366166031872907,-0.0,0.09829723914715717,13.3999996185,0.010934974494824324,0.30216321778190003,0.703213753458626
1648479596427098026,74138,4,4,0.874781250954,-0.167013257742,0.0166585557163,0.242756426334,13.3999996185,0.29256898025217387,-0.05585727683678929,0.005571423316488294,13.3999996185,0.03280492247756756,0.4175083852897035,0.890737431997103
1648479596427099983,74139,4,5,0.336042791605,-0.892202436924,-0.969235241413,-0.242756426334,13.3999996185,0.11238889351337791,-0.2983954638541806,-0.3241589436163879,13.3999996185,-0.03280492247756756,0.3380863493533485,1.3595465786208731
1648479596622176479,74140,6,0,0.0131740504876,0.0439508594573,0.00962219201028,0.0,19.3999996185,0.0044060369523745814,0.014699284099431437,0.0032181244181538463,19.3999996185,0.0,0.01596544005930242,0.04688091543867149
1648479596622267601,74141,6,1,0.0338788032532,0.0146502861753,-0.0289035607129,0.0,19.3999996185,0.011330703429163879,0.0048997612626421405,-0.009666742713344481,19.3999996185,0.0,0.01675641193186121,0.04688091313926722
1648479596622275451,74142,6,2,0.625831544399,-0.175803437829,0.268211871386,0.0,19.3999996185,0.20930820882909698,-0.05879713639765886,0.0897029670187291,19.3999996185,0.0,0.3017895886458886,0.7032137503417526
1648479596622308782,74143,6,3,1.069054842,0.101086974144,0.0977240949869,0.0,19.3999996185,0.3575434254180601,0.03380835255652174,0.03268364380832776,19.3999996185,0.0,0.5067717502208917,1.0782610214072672
1648479596622399419,74144,6,4,1.93271827698,-1.31852579117,0.143671110272,0.0,19.3999996185,0.6463940725685619,-0.44097852547491634,0.048050538552508355,19.3999996185,0.0,1.0149446556505304,2.3440459867672825
