%time,field.header.seq,field.header.frame_id,field.point_id,field.x,field.y,field.z,field.velocity,field.intensity,normalized_x,normalized_y,normalized_z,normalized_intensity,normalized_velocity,normalized_range,range
1648539780804538107,22693,0,0,0.00679125310853,0.0454158857465,0.00943909119815,0.0,38.0,0.002271322109876254,0.015189259446989964,0.0031568866883444815,38.0,0.0,0.015525186337097515,0.046880915515487245
1648539780804642727,22694,0,1,0.034247495234,0.0146502861753,-0.0284657403827,0.0,38.0,0.011454011783946488,0.0048997612626421405,-0.009520314509264213,38.0,0.0,0.016923251233863384,0.04688091499060483
1648539780804658391,22695,0,2,0.674369692802,0.175803437829,0.0939588099718,0.0,38.0,0.22554170327826084,0.05879713639765886,0.03142435116113712,38.0,0.0,0.3243381307892783,0.7032137578956172
1648539780804662770,22696,0,3,0.945548892021,0.24612480402,0.12082464993,0.0,38.0,0.31623708763244146,0.08231598796655518,0.04040958191638796,38.0,0.0,0.4547391703640747,0.9844992241676634
