%time,field.header.seq,field.header.frame_id,field.point_id,field.x,field.y,field.z,field.velocity,field.intensity,normalized_x,normalized_y,normalized_z,normalized_intensity,normalized_velocity,normalized_range,range
1648539084901403378,5758,0,0,0.697257220745,-0.210964113474,0.178797453642,0.0,13.0,0.2331963948979933,-0.07055655969030099,0.059798479478929766,13.0,0.0,0.33725264313593256,0.750094673013864
1648539084901407607,5759,0,1,0.764986991882,0.615311980247,0.0736528784037,0.0,13.0,0.2558484922682274,0.2057899599488294,0.02463306970023411,13.0,0.0,0.41625281933891,0.9844992012598618
1648539084901430105,5760,0,2,0.500462055206,-0.0,0.124394468963,-0.0809188112617,13.0,0.16737861378127086,-0.0,0.041603501325418055,13.0,-0.010934974494824324,0.23670910566068148,0.5156900741817707
1648539085006527777,5761,1,0,0.446698963642,-0.0879017189145,0.111871950328,0.0,15.0,0.14939764670301003,-0.02939856819882943,0.03741536800267558,15.0,0.0,0.21331570381229797,0.4688091398182752
1648539085006532338,5762,1,1,0.700652003288,-0.257845044136,0.072420142591,0.0,15.0,0.2343317736749164,-0.08623580071438126,0.024220783475250838,15.0,0.0,0.3424315605082495,0.7500946430617167
1648539085006538329,5763,1,2,0.764827728271,0.615311980247,0.0752890110016,0.0,15.0,0.25579522684648826,0.2057899599488294,0.02518027123799331,15.0,0.0,0.4161873421557095,0.9844992240450279
1648539085201495853,5764,3,0,0.033982526511,0.0146502861753,-0.0287815406919,0.0,11.6000003815,0.011365393481939799,0.0048997612626421405,-0.009625933341772575,11.6000003815,0.0,0.016803332955980126,0.046880913788966395
1648539085201499017,5765,3,1,0.00586513755843,0.0454158857465,0.0100408028811,0.0,11.6000003815,0.001961584467702341,0.015189259446989964,0.0033581280538795984,11.6000003815,0.0,0.01544050613794237,0.046880915511704264
1648539085201500816,5766,3,2,0.766427576542,0.615311980247,0.0567332282662,0.0,11.6000003815,0.2563302931578595,0.2057899599488294,0.018974323834849496,11.6000003815,0.0,0.416845230267217,0.9844992241282023
1648539085306619093,5767,4,0,0.0340422317386,0.0146502861753,-0.0287108980119,0.0,11.3000001907,0.01138536178548495,0.0048997612626421405,-0.009602307027391304,11.3000001907,0.0,0.016830347186069888,0.046880913935336783
1648539085306626966,5768,4,1,0.00586513755843,0.0454158857465,0.0100408028811,0.0,11.3000001907,0.001961584467702341,0.015189259446989964,0.0033581280538795984,11.3000001907,0.0,0.01544050613794237,0.046880915511704264
1648539085306629914,5769,4,2,0.765395522118,0.615311980247,0.0692788138986,0.0,11.3000001907,0.2559851244541806,0.2057899599488294,0.02317017187244147,11.3000001907,0.0,0.41642079138701216,0.9844992089224689
