%time,field.header.seq,field.header.frame_id,field.point_id,field.x,field.y,field.z,field.velocity,field.intensity,normalized_x,normalized_y,normalized_z,normalized_intensity,normalized_velocity,normalized_range,range
1648478792316183202,51047,0,0,0.0130922468379,0.0439508594573,0.00973320472986,0.0,32.7000007629,0.004378677872207358,0.014699284099431437,0.0032552524180133775,32.7000007629,0.0,0.01595037908179347,0.04688091561193326
1648478792316190530,51048,0,1,0.0338867343962,0.0146502861753,-0.028894264251,0.0,32.7000007629,0.011333355985351169,0.0048997612626421405,-0.009663633528762542,32.7000007629,0.0,0.016759999290342432,0.0468809146632551
1648478792316197820,51049,0,2,0.150548145175,-0.146502867341,0.104008041322,0.404594063759,32.7000007629,0.05035055022575251,-0.04899761449531772,0.034785298101003344,32.7000007629,0.05467487348094594,0.086435652611083,0.23440457933753422
1648478792316308814,51050,0,3,0.176699668169,-0.0586011447012,-0.142438188195,0.404594063759,32.7000007629,0.059096878986287626,-0.019599045050568562,-0.047638190031772575,32.7000007629,0.05467487348094594,0.08584290756220961,0.23440457407567783
1648478792316315706,51051,0,4,0.163726508617,-0.193383783102,0.122138738632,0.485512852669,32.7000007629,0.05475802963779264,-0.06467685053578595,0.04084907646555184,32.7000007629,0.06560984495527027,0.1008958800687875,0.2812854931655203
1648478792316319506,51052,0,5,0.584049880505,-0.082041606307,-0.287971675396,-0.161837622523,32.7000007629,0.19533440819565215,-0.027438664316722407,-0.09631159712240801,32.7000007629,-0.021869948989594594,0.27760393071744693,0.6563328225174455
1648478792316322702,51053,0,6,0.561487019062,0.184593617916,0.28536003828,-0.161837622523,32.7000007629,0.18778830068963212,0.061736995958528426,0.09543813989297659,32.7000007629,-0.021869948989594594,0.2726542653651006,0.6563328635666601
1648478792316331114,51054,0,7,0.941689610481,-0.184593603015,0.219964906573,-0.0809188112617,32.7000007629,0.31494635802040133,-0.06173699097491638,0.07356685838561872,32.7000007629,-0.010934974494824324,0.44965973014632576,0.9844992030903761
1648478792316335503,51055,0,8,0.678546190262,0.707608819008,0.0900196358562,-0.0809188112617,32.7000007629,0.22693852517123744,0.23665846789565215,0.030106901624147156,32.7000007629,-0.010934974494824324,0.3987598510889859,0.9844992168085527
