%time,field.header.seq,field.header.frame_id,field.point_id,field.x,field.y,field.z,field.velocity,field.intensity,normalized_x,normalized_y,normalized_z,normalized_intensity,normalized_velocity,normalized_range,range
1648539129301099933,7038,0,0,0.0340147204697,0.0146502861753,-0.0287434887141,0.0,12.1000003815,0.011376160692207357,0.0048997612626421405,-0.00961320692779264,12.1000003815,0.0,0.01681789893597699,0.04688091548922235
1648539129301119429,7039,0,1,0.00601115496829,0.0454158857465,0.00995407346636,0.0,12.1000003815,0.0020104197218361202,0.015189259446989964,0.003329121560655518,12.1000003815,0.0,0.015453063691833704,0.04688091552823634
1648539129301127379,7040,0,2,0.764482915401,0.615311980247,0.0787132680416,0.0,12.1000003815,0.2556799048163879,0.2057899599488294,0.026325507706220736,12.1000003815,0.0,0.41604559253713425,0.9844992328799884
1648539129301132217,7041,0,3,0.936134755611,-0.276890397072,0.127366051078,0.0,12.1000003815,0.31308854702709027,-0.09260548397056856,0.04259734149765886,12.1000003815,0.0,0.45235456471720525,0.9844992044794959
1648539129301149110,7042,0,4,1.68133080006,-1.61153149605,0.265789598227,0.0,12.1000003815,0.5623179933311037,-0.5389737444983277,0.08889284221638795,12.1000003815,0.0,0.9606746319677577,2.344045889592868
1648539129301282162,7043,0,5,0.642473876476,0.0615312047303,0.119222573936,0.242756426334,12.1000003815,0.2148742061792642,0.020578998237558526,0.03987377054715719,12.1000003815,0.03280492247756756,0.30457403719095844,0.6563328372446297
1648539129301284892,7044,0,6,0.654778182507,0.046880915761,0.362918287516,0.323675245047,12.1000003815,0.2189893586979933,0.015679236040468225,0.12137735368428093,12.1000003815,0.04373989797932432,0.31009436771526416,0.7500946420041316
1648539129301287653,7045,0,7,1.54042470455,0.096691891551,0.105682320893,-0.161837622523,12.1000003815,0.5151922088795986,0.032338425267892976,0.03534525782374582,12.1000003815,-0.021869948989594594,0.7293091237118092,1.5470702457319112
1648539129406306085,7046,1,0,0.0340147204697,0.0146502861753,-0.0287434887141,0.0,12.1000003815,0.011376160692207357,0.0048997612626421405,-0.00961320692779264,12.1000003815,0.0,0.01681789893597699,0.04688091548922235
1648539129406321916,7047,1,1,0.00585127947852,0.0454158857465,0.0100488848984,0.0,12.1000003815,0.0019569496583678927,0.015189259446989964,0.003360831069698996,12.1000003815,0.0,0.015439329858473336,0.046880915492086776
1648539129406444518,7048,1,2,0.655863881111,0.0205104015768,-0.0139529881999,0.0,12.1000003815,0.21935246859899665,0.006859666079197324,-0.004666551237424749,12.1000003815,0.0,0.31028707027471464,0.6563328370564223
1648539129406491357,7049,1,3,0.766885101795,0.615311980247,0.0501708462834,0.0,12.1000003815,0.25648331163712373,0.2057899599488294,0.016779547251973243,12.1000003815,0.0,0.4170334350054353,0.9844992159506297
1648539129406493887,7050,1,4,0.940166175365,-0.24612480402,0.157317891717,0.0,12.1000003815,0.3144368479481605,-0.08231598796655518,0.05261467950401338,12.1000003815,0.0,0.45223554102929514,0.9844992511468036
1648539129406495782,7051,1,5,1.67976772785,-1.61153149605,0.27549597621,0.0,12.1000003815,0.5617952267056856,-0.5389737444983277,0.09213912247826087,12.1000003815,0.0,0.9600627327196561,2.344045949889934
1648539129406498249,7052,1,6,0.74905115366,-0.0498109720647,0.26760289073,0.161837622523,12.1000003815,0.2505187804882943,-0.016659187981505015,0.08949929455852841,12.1000003815,0.021869948989594594,0.35467851259822253,0.7969755773324924
1648539129406503770,7053,1,7,1.47473871708,-0.093761831522,0.258693903685,-0.242756426334,12.1000003815,0.49322365119732436,-0.03135847208093645,0.08651970022909698,12.1000003815,-0.03280492247756756,0.6982281102706268,1.500189354884545
1648539129601060489,7054,3,0,0.0340603254735,0.0146502861753,-0.0286894328892,0.0,22.0,0.011391413201839463,0.0048997612626421405,-0.009595128056588628,22.0,0.0,0.016838534672024563,0.0468809152628535
1648539129601063879,7055,3,1,0.00604390492663,0.0454158857465,0.00993422232568,0.0,22.0,0.002021372885160535,0.015189259446989964,0.003322482383170568,22.0,0.0,0.01545592117053197,0.04688091549999128
1648539129601066407,7056,3,2,0.875507354736,-0.293005734682,0.163592845201,0.0,22.0,0.2928118243264214,-0.09799522899063544,0.0547133261541806,22.0,0.0,0.4255356551872724,0.9376183166695952
1648539129601078444,7057,3,3,0.752682685852,0.556710898876,0.0516706705093,0.0,22.0,0.25173333974983275,0.18619093607892975,0.017281160705451503,22.0,0.0,0.4017541703096031,0.9376183171736701
1648539129601181820,7058,3,4,1.65935921669,-1.57930088043,0.171179503202,0.0,22.0,0.5549696376889631,-0.5281942743913043,0.05725066996722408,22.0,0.0,0.9460294863338005,2.29716492730877
1648539129601190700,7059,3,5,0.655294954777,-0.153828009963,0.203556090593,0.0809188112617,22.0,0.21916219223311034,-0.05144749497090301,0.06807896006454849,22.0,0.010934974494824324,0.3141830322401684,0.7032137771850555
1648539129706280342,7060,4,0,0.0340147204697,0.0146502861753,-0.0287434887141,0.0,11.5,0.011376160692207357,0.0048997612626421405,-0.00961320692779264,11.5,0.0,0.01681789893597699,0.04688091548922235
1648539129706287463,7061,4,1,0.00597136747092,0.0454158857465,0.00997799262404,0.0,11.5,0.001997112866528428,0.015189259446989964,0.0033371212789431435,11.5,0.0,0.015449612362492485,0.04688091556718256
1648539129706294016,7062,4,2,0.894619703293,-0.263705164194,0.0961422026157,0.0,11.5,0.299203914144816,-0.0881957070882943,0.03215458281461538,11.5,0.0,0.4322319368440526,0.9376183393398606
1648539129706295995,7063,4,3,1.69111132622,-1.61153149605,0.194062203169,0.0,11.5,0.5655890723143812,-0.5389737444983277,0.06490374687926422,11.5,0.0,0.9645074881520791,2.3440459507291074
