%time,field.header.seq,field.header.frame_id,field.point_id,field.x,field.y,field.z,field.velocity,field.intensity,normalized_x,normalized_y,normalized_z,normalized_intensity,normalized_velocity,normalized_range,range
1648478838216238978,52841,0,0,0.0130872614682,0.0439508594573,0.00973990559578,0.0,20.7999992371,0.0043770105244816055,0.014699284099431437,0.0032574935102943144,20.7999992371,0.0,0.01594946379345222,0.04688091531515864
1648478838216327216,52842,0,1,0.033900372684,0.0146502861753,-0.0288782604039,0.0,20.7999992371,0.011337917285618728,0.0048997612626421405,-0.00965828107153846,20.7999992371,0.0,0.016766168231947105,0.04688091378255908
1648478838216347898,52843,0,2,1.28559947014,-0.246124818921,0.0987307056785,0.0,20.7999992371,0.4299663779732441,-0.08231599295016721,0.033020302902508354,20.7999992371,0.0,0.613610703190739,1.31266567577465
1648478838216356719,52844,0,3,1.82536458969,-1.46502864361,0.127618297935,0.0,20.7999992371,0.6104898293277591,-0.489976134986622,0.04268170499498328,20.7999992371,0.0,0.9927095629043277,2.3440459129163242
1648478838216362718,52845,0,4,2.30606627464,-1.33610606194,0.193900495768,0.0,20.7999992371,0.771259623625418,-0.4468582146956522,0.06484966413645485,20.7999992371,0.0,1.1787133146404296,2.672212280872143
1648478838321261524,52846,1,0,0.0130872614682,0.0439508594573,0.00973990559578,0.0,12.6000003815,0.0043770105244816055,0.014699284099431437,0.0032574935102943144,12.6000003815,0.0,0.01594946379345222,0.04688091531515864
1648478838321265332,52847,1,1,0.0339856147766,0.0146502861753,-0.0287778954953,0.0,12.6000003815,0.011366426346688961,0.0048997612626421405,-0.009624714212474916,12.6000003815,0.0,0.01680473017398073,0.04688091472977086
1648478838321267362,52848,1,2,1.32009470463,-0.254914969206,0.201830014586,0.0,12.6000003815,0.44150324569565214,-0.0852558425438127,0.06750167711906355,12.6000003815,0.0,0.6301736194156704,1.3595466249839494
1648478838321269319,52849,1,3,2.3045899868,-1.33610606194,0.210721224546,0.0,12.6000003815,0.7707658818729096,-0.4468582146956522,0.07047532593511706,12.6000003815,0.0,1.1780672108838415,2.672212164197634
