%time,field.header.seq,field.header.frame_id,field.point_id,field.x,field.y,field.z,field.velocity,field.intensity,normalized_x,normalized_y,normalized_z,normalized_intensity,normalized_velocity,normalized_range,range
1648478719420935961,48196,0,0,0.0313398316503,0.0879017189145,0.00907654501498,0.0,33.0999984741,0.010481549046923076,0.02939856819882943,0.0030356337842742474,33.0999984741,0.0,0.03292417885061574,0.09376183074898799
1648478719420992992,48197,0,1,0.0870951339602,-0.00879017170519,0.0335924252868,0.0,33.0999984741,0.02912880734454849,-0.0029398567575886284,0.011234924845083613,33.0999984741,0.0,0.04129912338520981,0.09376182866604696
1648478719421027174,48198,0,2,0.965453982353,-0.32230630517,0.166620135307,0.0,33.0999984741,0.32289430847926415,-0.10779475089297658,0.055725797761538465,33.0999984741,0.0,0.4691920472649587,1.0313801510031726
1648478719421032259,48199,0,3,1.81485760212,-1.46502864361,0.233525827527,0.0,33.0999984741,0.6069757866622073,-0.489976134986622,0.07810228345384615,33.0999984741,0.0,0.9883905220330875,2.3440459369843167
1648478719421046533,48200,0,4,0.130957618356,0.00439508585259,0.0510995723307,-0.0809188112617,33.0999984741,0.04379853456722408,0.0014699283787926421,0.017090157970133777,33.0999984741,-0.010934974494824324,0.061957920800422485,0.14064274200081506
1648478719421050982,48201,0,5,0.0958846211433,0.0571361146867,-0.0855686143041,-0.0809188112617,33.0999984741,0.032068435164983276,0.0191090684570903,-0.02861826565354515,33.0999984741,-0.010934974494824324,0.04921306295242388,0.14064275284283131
1648478719616179517,48202,2,0,0.0130737414584,0.0439508594573,0.00975804589689,0.0,18.7000007629,0.0043724887820735785,0.014699284099431437,0.0032635605006321065,18.7000007629,0.0,0.015946983079395186,0.04688091533323806
1648478719616189598,48203,2,1,0.0339106395841,0.0146502861753,-0.0288662035018,0.0,18.7000007629,0.01134135103147157,0.0048997612626421405,-0.009654248662809364,18.7000007629,0.0,0.0167708123497048,0.04688091367100524
1648478719616224648,48204,2,2,0.683711349964,0.707608819008,0.0326681472361,0.0,18.7000007629,0.22866600333244144,0.23665846789565215,0.010925801751204013,18.7000007629,0.0,0.4007287269298043,0.9844991917982113
1648478719616240214,48205,2,3,0.123136997223,-0.134782627225,0.0428491346538,0.323675245047,18.7000007629,0.041182942215050165,-0.04507780174749164,0.014330814265484947,18.7000007629,0.04373989797932432,0.07364833785879002,0.1875236652461494
1648478719616249610,48206,2,4,0.127585366368,-0.064461261034,-0.121374815702,0.323675245047,18.7000007629,0.04267069109297658,-0.021558950178595316,-0.04059358384682274,18.7000007629,0.04373989797932432,0.06408091829482172,0.18752366723175168
