%time,field.header.seq,field.header.frame_id,field.point_id,field.x,field.y,field.z,field.velocity,field.intensity,normalized_x,normalized_y,normalized_z,normalized_intensity,normalized_velocity,normalized_range,range
1648539376799698523,14741,0,0,0.00636103888974,0.0454158857465,0.0097342049703,0.0,11.3000001907,0.002127437755765886,0.015189259446989964,0.0032555869465886286,11.3000001907,0.0,0.01548436583645873,0.04688091552326745
1648539376799703967,14742,0,1,0.034184448421,0.0146502861753,-0.0285414196551,0.0,11.3000001907,0.011432925893311035,0.0048997612626421405,-0.00954562530270903,11.3000001907,0.0,0.0168947106928403,0.046880913331490505
1648539376799724564,14743,0,2,2.47523140907,-0.079111546278,0.525180995464,0.0,11.3000001907,0.8278365916622074,-0.026458711129765885,0.17564581788093644,11.3000001907,0.0,1.1710366810584751,2.531569521699476
1648539376799727729,14744,0,3,0.604993224144,0.225614413619,0.117703519762,-0.161837622523,11.3000001907,0.20233887095117056,0.07545632562508361,0.0393657256729097,11.3000001907,-0.021869948989594594,0.2959319085067164,0.6563328297877236
1648539376905046634,14745,1,0,0.00632457761094,0.0454158857465,0.00975793413818,0.0,28.7000007629,0.002115243348140468,0.015189259446989964,0.0032635231231371233,28.7000007629,0.0,0.015481024235872732,0.046880915506643035
1648539376905062927,14746,1,1,0.0341567471623,0.0146502861753,-0.0285745654255,0.0,28.7000007629,0.011423661258294315,0.0048997612626421405,-0.009556710844648828,28.7000007629,0.0,0.016882172061657156,0.046880913504150655
1648539376905066859,14747,1,2,0.872060954571,0.32230630517,0.121476009488,0.0,28.7000007629,0.2916591821307692,0.10779475089297658,0.040627427922408026,28.7000007629,0.0,0.4263213170396916,0.9376183038533056
1648539376905069375,14748,1,3,2.47778058052,-0.079111546278,0.513019859791,0.0,28.7000007629,0.8286891573645485,-0.026458711129765885,0.17157854842508358,28.7000007629,0.0,1.1722420835568816,2.5315695958232123
1648539376905072830,14749,1,4,0.619754493237,0.143572807312,0.161443591118,0.0809188112617,28.7000007629,0.20727575024648828,0.0480176613083612,0.053994512079598656,28.7000007629,0.010934974494824324,0.29703900262089095,0.6563328545791193
1648539377099958934,14750,3,0,0.00635288888589,0.0454158857465,0.00973952561617,0.0,11.5,0.0021247120019698995,0.015189259446989964,0.0032573664268127087,11.5,0.0,0.015483617301218852,0.04688091546209009
1648539377099961748,14751,3,1,0.034184448421,0.0146502861753,-0.0285414196551,0.0,11.5,0.011432925893311035,0.0048997612626421405,-0.00954562530270903,11.5,0.0,0.0168947106928403,0.046880913331490505
1648539377205201394,14752,4,0,0.00636103888974,0.0454158857465,0.0097342049703,0.0,17.5,0.002127437755765886,0.015189259446989964,0.0032555869465886286,17.5,0.0,0.01548436583645873,0.04688091552326745
1648539377205205416,14753,4,1,0.0341988615692,0.0146502861753,-0.0285241510719,0.0,17.5,0.011437746344214045,0.0048997612626421405,-0.009539849856822743,17.5,0.0,0.016901234963754928,0.046880915221655654
1648539377205211287,14754,4,2,0.791978418827,0.306190997362,0.269128978252,0.0,17.5,0.26487572536020065,0.10240501584013377,0.09000969172307692,17.5,0.0,0.3883363066201806,0.8907374190457122
1648539377205216479,14755,4,3,0.552710235119,-0.0952268540859,0.238484531641,-0.161837622523,17.5,0.1848529214444816,-0.03184844618257525,0.07976071292341137,17.5,-0.021869948989594594,0.2633543784662859,0.6094519091580768
