%time,field.header.seq,field.header.frame_id,field.point_id,field.x,field.y,field.z,field.velocity,field.intensity,normalized_x,normalized_y,normalized_z,normalized_intensity,normalized_velocity,normalized_range,range
1648539630204640765,20435,0,0,0.00659929681569,0.0454158857465,0.00957428012043,0.0,11.3999996185,0.0022071226808327757,0.015189259446989964,0.0032021003747257524,11.3999996185,0.0,0.015506656106474625,0.04688091548194402
1648539630204646719,20436,0,1,0.0341247096658,0.0146502861753,-0.0286128204316,0.0,11.3999996185,0.01141294637652174,0.0048997612626421405,-0.009569505161070233,11.3999996185,0.0,0.016867671754501566,0.046880914963813546
1648539630204678011,20437,0,2,0.906852841377,0.205104008317,0.121154397726,0.0,11.3999996185,0.3032952646745819,0.06859665829999999,0.040519865460200664,11.3999996185,0.0,0.4343748803487332,0.937618322255697
1648539630204777136,20438,0,3,2.48827457428,-0.079111546278,0.459428906441,0.0,11.3999996185,0.8321988542742474,-0.026458711129765885,0.15365515265585283,11.3999996185,0.0,1.1772042853750526,2.5315694566486586
1648539630204781102,20439,0,4,0.588669300079,0.164083212614,-0.239411666989,-0.242756426334,11.3999996185,0.19687936457491637,0.054877328633444813,-0.08007079163511704,11.3999996185,-0.03280492247756756,0.2837859925873523,0.656332836149223
