%time,field.header.seq,field.header.frame_id,field.point_id,field.x,field.y,field.z,field.velocity,field.intensity,normalized_x,normalized_y,normalized_z,normalized_intensity,normalized_velocity,normalized_range,range
1648539832104447854,23528,0,0,0.00682302564383,0.0454158857465,0.00941614992917,0.0,19.0,0.0022819483758628758,0.015189259446989964,0.003149214023133779,19.0,0.0,0.015528302525652323,0.04688091548342579
1648539832104538666,23529,0,1,0.0342332608998,0.0146502861753,-0.0284828543663,0.0,19.0,0.011449251137056856,0.0048997612626421405,-0.009526038249598662,19.0,0.0,0.016916807134612723,0.04688091327719434
1648539832104547531,23530,0,2,0.886521756649,0.263705164194,0.153840303421,0.0,19.0,0.2964955707856187,0.0881957070882943,0.05145160649531772,19.0,0.0,0.4284830565375764,0.9376183005846668
1648539832104551926,23531,0,3,0.301552176476,-1.18081307411,0.0217538494617,0.0,19.0,0.1008535707277592,-0.39492076057190634,0.00727553493702341,19.0,0.0,0.41988723794344024,1.2189037948472077
1648539832104554350,23532,0,4,0.58697873354,-0.102552011609,0.275157928467,-0.0809188112617,19.0,0.1963139577056856,-0.03429833164180602,0.09202606303244146,19.0,-0.010934974494824324,0.27974044314962887,0.6563328685290152
