%time,field.header.seq,field.header.frame_id,field.point_id,field.x,field.y,field.z,field.velocity,field.intensity,normalized_x,normalized_y,normalized_z,normalized_intensity,normalized_velocity,normalized_range,range
1648465368498939151,95392,0,0,0.0133034354076,0.0439508594573,0.00944249983877,0.0,17.8999996185,0.004449309500869565,0.014699284099431437,0.0031580267019297656,17.8999996185,0.0,0.01598942347631253,0.046880915561502146
1648465368498959906,95393,0,1,0.0336977690458,0.0146502861753,-0.0291144233197,0.0,17.8999996185,0.011270156871505016,0.0048997612626421405,-0.009737265324314381,17.8999996185,0.0,0.016674547437563397,0.04688091476198981
1648465368498962595,95394,0,2,0.821271657944,0.0263705141842,0.192122668028,0.0,17.8999996185,0.27467279529899663,0.008819569961270902,0.06425507291906353,17.8999996185,0.0,0.388546102501403,0.8438564212771168
1648465368498986797,95395,0,3,2.10009837151,-1.02552008629,0.180128842592,0.0,17.8999996185,0.7023740372943144,-0.342983306451505,0.06024376006421404,17.8999996185,0.0,1.0508549495694621,2.3440458650241336
1648465368498996114,95396,0,4,0.337033957243,-0.128922522068,0.102213487029,-0.242756426334,17.8999996185,0.11272038703779264,-0.04311790035719063,0.034185112718729094,17.8999996185,-0.03280492247756756,0.16513910693446346,0.3750473329619581
1648465368499032954,95397,0,5,0.0965189486742,0.0117202289402,-0.36222538352,-0.242756426334,17.8999996185,0.03228058484086956,0.003919809010100334,-0.1211456132173913,17.8999996185,-0.03280492247756756,0.04581961608321068,0.37504732992756346
1648465368499044032,95398,0,6,0.492706030607,1.10463154316,0.150852382183,-0.242756426334,17.8999996185,0.16478462562107024,0.3694419876789297,0.05045230173344482,17.8999996185,-0.03280492247756756,0.43680124535343423,1.218903818990996
1648465368709110212,95399,2,0,2.17711949348,-0.9713139534,0.182291045785,0.0,14.3000001907,0.7281336098595317,-0.3248541650167224,0.06096690494481605,14.3000001907,0.0,1.0797626295361666,2.390926621695768
1648465368709112960,95400,2,1,0.347806245089,0.0351606868207,0.135849326849,-0.0809188112617,14.3000001907,0.11632315889264212,0.011759427030334446,0.04543455747458194,14.3000001907,-0.010934974494824324,0.16492555506533088,0.37504732718143624
1648465368799095854,95401,3,0,0.317989587784,0.152362972498,0.127783596516,0.0,18.7999992371,0.10635103270367892,0.05095751588561872,0.042736988801337784,18.7999992371,0.0,0.15880098469314052,0.37504733150100994
1648465368799101918,95402,3,1,2.14273452759,-1.04603040218,0.176179587841,0.0,18.7999992371,0.7166336212675585,-0.34984294387290965,0.05892293907725752,18.7999992371,0.0,1.0721555762293888,2.390926620618671
1648465369009211004,95403,5,0,0.0133034354076,0.0439508594573,0.00944249983877,0.0,12.8999996185,0.004449309500869565,0.014699284099431437,0.0031580267019297656,12.8999996185,0.0,0.01598942347631253,0.046880915561502146
1648465369009216526,95404,5,1,0.0336977690458,0.0146502861753,-0.0291144233197,0.0,12.8999996185,0.011270156871505016,0.0048997612626421405,-0.009737265324314381,12.8999996185,0.0,0.016674547437563397,0.04688091476198981
1648465369009220011,95405,5,2,0.795047283173,-0.0,0.282831281424,0.0,12.8999996185,0.2659021013956522,-0.0,0.09459240181404681,12.8999996185,0.0,0.3760423580572372,0.8438564547556121
1648465369009221988,95406,5,3,2.16976499557,-0.9713139534,0.255339473486,0.0,12.8999996185,0.7256739115618729,-0.3248541650167224,0.08539781721939799,12.8999996185,0.0,1.076445762856508,2.3909264268878134
1648465369099065639,95407,6,0,0.857966244221,0.0278355441988,0.237765207887,0.0,13.1000003815,0.2869452321809364,0.009309546554782609,0.07952013641705685,13.1000003815,0.0,0.405908610649982,0.8907374404531788
1648465369099069669,95408,6,1,2.16889834404,-0.9713139534,0.262601345778,0.0,13.1000003815,0.7253840615518394,-0.3248541650167224,0.08782653704949832,13.1000003815,0.0,1.0760549716606478,2.3909266591958462
