%time,field.header.seq,field.header.frame_id,field.point_id,field.x,field.y,field.z,field.velocity,field.intensity,normalized_x,normalized_y,normalized_z,normalized_intensity,normalized_velocity,normalized_range,range
1648383674011943210,31778,0,0,0.0078089972958,0.0454158857465,0.00861609634012,0.0,17.3999996185,0.0026117047812040132,0.015189259446989964,0.0028816375719464883,17.3999996185,0.0,0.015631877887071075,0.046880915445916604
1648383674011946360,31779,0,1,0.0317701548338,0.0161153152585,-0.0304757971317,0.0,17.3999996185,0.010625469844080268,0.005389737544648829,-0.010192574291538461,17.3999996185,0.0,0.015964037384543907,0.046880916531750985
1648383674012043988,31780,0,2,0.964300274849,0.193383783102,0.31060063839,0.0,17.3999996185,0.32250845312675586,0.06467685053578595,0.10387981217056856,17.3999996185,0.0,0.46065876706262104,1.0313801744308322
1648383674012048694,31781,0,3,1.05041480064,0.386767566204,-0.113947369158,0.0,17.3999996185,0.3513092978729097,0.1293537010715719,-0.038109488012709025,17.3999996185,0.0,0.5133895455936235,1.1251419495374644
1648383674012071554,31782,0,4,1.08531618118,-0.0,0.296703934669,0.0,17.3999996185,0.36298200039464884,-0.0,0.0992320851735786,17.3999996185,0.0,0.5133340678554286,1.1251419634780337
1648383674206792640,31783,2,0,0.00778307579458,0.0454158857465,0.00863951910287,0.0,17.3999996185,0.0026030353828026755,0.015189259446989964,0.002889471271862876,17.3999996185,0.0,0.015628985538294518,0.046880915491190805
1648383674206796666,31784,2,1,0.0317196249962,0.0161153152585,-0.0305283833295,0.0,17.3999996185,0.010608570232842809,0.005389737544648829,-0.010210161648662206,17.3999996185,0.0,0.01594154307369629,0.046880914928073794
1648383674206802575,31785,2,2,1.02906298637,0.101086974144,0.305708110332,0.0,17.3999996185,0.34416822286622073,0.03380835255652174,0.10224351516120402,17.3999996185,0.0,0.4879001290882912,1.0782609401165817
1648383674206905990,31786,2,3,0.100333631039,-0.329631447792,-0.613013744354,0.242756426334,17.3999996185,0.03355639834080267,-0.11024463136856186,-0.2050213191819398,17.3999996185,0.03280492247756756,0.12002475779939463,0.7032137510443262
1648383674206959202,31787,2,4,0.283182501793,-0.28568059206,-0.576804876328,0.485512852669,17.3999996185,0.09470986682040132,-0.09554534851505017,-0.1929113298755853,17.3999996185,0.06560984495527027,0.1645260811213186,0.7032137622069509
1648383674312226133,31788,3,0,0.00772431911901,0.0454158857465,0.00869209133089,0.0,37.5999984741,0.0025833843207391303,0.015189259446989964,0.0029070539568193977,37.5999984741,0.0,0.015622463046691949,0.04688091547416686
1648383674312269945,31789,3,1,0.0317103527486,0.0161153152585,-0.0305380169302,0.0,37.5999984741,0.010605469146688962,0.005389737544648829,-0.010213383588695652,37.5999984741,0.0,0.01593741580190905,0.046880916537016086
1648383674312305601,31790,3,2,1.03318238258,0.134782627225,0.277515053749,0.0,37.5999984741,0.3455459473511705,0.04507780174749164,0.09281439924715718,37.5999984741,0.0,0.4907504576381177,1.078261006126378
1648383674312321381,31791,3,3,0.56275677681,-0.20949909091,0.104146711528,-0.485512852669,37.5999984741,0.1882129688327759,-0.07006658558862876,0.03483167609632107,37.5999984741,-0.06560984495527027,0.2752409302588254,0.6094518819888844
1648383674312328058,31792,3,4,1.02514529228,-0.096691891551,-0.0589314885437,-0.242756426334,37.5999984741,0.3428579572842809,-0.032338425267892976,-0.019709527941036788,37.5999984741,-0.03280492247756756,0.4859515731995388,1.0313801978502075
1648383674312362007,31793,3,5,0.551480948925,0.87022703886,-0.0481529124081,-0.242756426334,37.5999984741,0.18444178893812707,0.2910458323946488,-0.016104652979297657,37.5999984741,-0.03280492247756756,0.3908263342812089,1.0313801622891747
1648383674507176230,31794,5,0,0.00772431911901,0.0454158857465,0.00869209133089,0.0,20.3999996185,0.0025833843207391303,0.015189259446989964,0.0029070539568193977,20.3999996185,0.0,0.015622463046691949,0.04688091547416686
1648383674507300616,31795,5,1,0.0316930636764,0.0161153152585,-0.0305559579283,0.0,20.3999996185,0.010599686848294314,0.005389737544648829,-0.010219383922508362,20.3999996185,0.0,0.01592972044211712,0.04688091547733712
1648383674507329484,31796,5,2,0.572810173035,0.133317604661,0.159832805395,0.0809188112617,20.3999996185,0.19157530870735787,0.0445878276458194,0.05345578775752508,20.3999996185,0.010934974494824324,0.27457289048049194,0.6094518879496308
1648383674507380763,31797,5,3,1.65817606449,0.240264698863,0.941945314407,0.161837622523,20.3999996185,0.5545739346120401,0.08035608657625418,0.31503187772809366,20.3999996185,0.021869948989594594,0.7883917798607549,1.922117572288588
1648383674507440396,31798,5,4,1.59836649895,0.840926468372,-0.6577257514,0.161837622523,20.3999996185,0.5345707354347825,0.2812463104923077,-0.21997516769230768,20.3999996185,0.021869948989594594,0.8066171517715849,1.9221175703450033
1648383674507454933,31799,5,5,0.298662126064,0.28568059206,0.568943858147,-0.242756426334,20.3999996185,0.09988699868361203,0.09554534851505017,0.19028222680501672,20.3999996185,-0.03280492247756756,0.17053955152662453,0.7032137512506524
1648383674507461370,31800,5,6,0.699557721615,0.0439508594573,-0.05654136464,-0.242756426334,20.3999996185,0.23396579318227423,0.014699284099431437,-0.01891015539799331,20.3999996185,-0.03280492247756756,0.3312039457975361,0.7032137724999123
1648383674612453119,31801,6,0,0.00774472299963,0.0454158857465,0.00867391657084,0.0,23.7000007629,0.0025902083610802673,0.015189259446989964,0.0029009754417525084,23.7000007629,0.0,0.015624722757719388,0.04688091553242142
1648383674612484203,31802,6,1,0.0317196249962,0.0161153152585,-0.0305283833295,0.0,23.7000007629,0.010608570232842809,0.005389737544648829,-0.010210161648662206,23.7000007629,0.0,0.01594154307369629,0.046880914928073794
1648383674612504700,31803,6,2,1.01191914082,0.096691891551,0.174400225282,0.0,23.7000007629,0.338434495257525,0.032338425267892976,0.058327834542474914,23.7000007629,0.0,0.47970990078300296,1.0313801956737436
1648383674612523462,31804,6,3,1.03681540489,0.351606875658,-0.259481906891,0.0,23.7000007629,0.34676100497993306,0.11759427279531771,-0.08678324645183945,23.7000007629,0.0,0.504296343575527,1.1251419638565545
1648383674612539364,31805,6,4,0.541921198368,0.247589826584,0.128266453743,0.323675245047,23.7000007629,0.18124454794916386,0.08280596206822742,0.042898479512709024,23.7000007629,0.04373989797932432,0.2693622090729103,0.6094518772013994
