%time,field.header.seq,field.header.frame_id,field.point_id,field.x,field.y,field.z,field.velocity,field.intensity,normalized_x,normalized_y,normalized_z,normalized_intensity,normalized_velocity,normalized_range,range
1648382888197908378,14688,0,0,0.00757582020015,0.0454158857465,0.00882181990892,0.0,12.0,0.00253371913048495,0.015189259446989964,0.0029504414411103677,12.0,0.0,0.01560618684408029,0.04688091548113752
1648382888197916827,14689,0,1,0.0316855758429,0.0161153152585,-0.0305637232959,0.0,12.0,0.010597182556153845,0.005389737544648829,-0.010221981035418059,12.0,0.0,0.015926387759222112,0.04688091599025505
1648382888197922367,14690,0,2,0.275070101023,-1.13539719582,-0.0940610170364,0.0,12.0,0.09199668930535117,-0.37973150361872904,-0.031458534125886284,12.0,0.0,0.4014010420101466,1.1720229638017527
1648382888393088824,14691,2,0,0.00767153082415,0.0454158857465,0.00873871706426,0.0,13.1999998093,0.002565729372625418,0.015189259446989964,0.002922647847578595,13.1999998093,0.0,0.015616642948312533,0.04688091551211659
1648382888393091014,14692,2,1,0.0317776091397,0.0161153152585,-0.0304680205882,0.0,13.1999998093,0.010627962922976587,0.005389737544648829,-0.010189973440869565,13.1999998093,0.0,0.015967356155122465,0.046880914102429436
1648382888393093221,14693,2,2,0.27798306942,-1.13539719582,-0.0850673541427,0.0,13.1999998093,0.09297092622742474,-0.37973150361872904,-0.028450620114615383,13.1999998093,0.0,0.4018497245086916,1.1720229664562565
1648382888498180575,14694,3,0,0.00767153082415,0.0454158857465,0.00873871706426,0.0,12.3000001907,0.002565729372625418,0.015189259446989964,0.002922647847578595,12.3000001907,0.0,0.015616642948312533,0.04688091551211659
1648382888498192630,14695,3,1,0.0317776091397,0.0161153152585,-0.0304680205882,0.0,12.3000001907,0.010627962922976587,0.005389737544648829,-0.010189973440869565,12.3000001907,0.0,0.015967356155122465,0.046880914102429436
1648382888498197112,14696,3,2,0.768873095512,-0.0996219441295,-0.184606850147,-0.485512852669,12.3000001907,0.2571481924789297,-0.033318375963043476,-0.06174142145384615,12.3000001907,-0.06560984495527027,0.3651855692208772,0.7969755691836126
1648382888498201007,14697,3,3,0.303446441889,0.922968029976,-0.159024998546,-0.404594063759,12.3000001907,0.10148710431070233,0.30868495985819394,-0.05318561824280936,12.3000001907,-0.05467487348094594,0.3404198424378308,0.9844992014295533
1648382888693184774,14698,5,0,0.00767153082415,0.0454158857465,0.00873871706426,0.0,21.1000003815,0.002565729372625418,0.015189259446989964,0.002922647847578595,21.1000003815,0.0,0.015616642948312533,0.04688091551211659
1648382888693198870,14699,5,1,0.0316855758429,0.0161153152585,-0.0305637232959,0.0,21.1000003815,0.010597182556153845,0.005389737544648829,-0.010221981035418059,21.1000003815,0.0,0.015926387759222112,0.04688091599025505
1648382888693219855,14700,5,2,0.56422829628,-0.079111546278,-0.622480154037,-0.0809188112617,21.1000003815,0.18870511581270902,-0.026458711129765885,-0.20818734248729096,21.1000003815,-0.010934974494824324,0.26817774863404353,0.8438564743174368
1648382888693363601,14701,5,3,0.774083375931,0.263705134392,0.208202466369,-0.0809188112617,21.1000003815,0.2588907611809364,0.08819569712107023,0.06963293189598661,21.1000003815,-0.010934974494824324,0.37659969920375774,0.8438564675343617
1648382888798225111,14702,6,0,0.00754798157141,0.0454158857465,0.00884565059096,0.0,22.3999996185,0.0025244085523110364,0.015189259446989964,0.0029584115688829427,22.3999996185,0.0,0.015603168896923987,0.0468809155021405
1648382888798234864,14703,6,1,0.0317776091397,0.0161153152585,-0.0304680205882,0.0,22.3999996185,0.010627962922976587,0.005389737544648829,-0.010189973440869565,22.3999996185,0.0,0.015967356155122465,0.046880914102429436
1648382888798252116,14704,6,2,1.02908396721,0.210964113474,0.403019547462,0.0,22.3999996185,0.3441752398695652,0.07055655969030099,0.1347891463083612,22.3999996185,0.0,0.4918245821366359,1.1251419574342691
1648382888798255830,14705,6,3,0.879948496819,-0.24612480402,-0.656549870968,0.0,22.3999996185,0.29429715612675583,-0.08231598796655518,-0.21958189664481603,22.3999996185,0.0,0.42426118616189984,1.125141995161499
1648382888798262133,14706,6,4,0.565224289894,0.0586011447012,-0.745798528194,-0.647350490093,22.3999996185,0.18903822404481604,0.019599045050568562,-0.24943094588428094,22.3999996185,-0.08747979595851352,0.2680578722345799,0.9376182787802316
1648382888798272610,14707,6,5,0.804943859577,0.439508587122,0.195001751184,-0.647350490093,22.3999996185,0.2692119931695652,0.14699283850234113,0.06521797698461539,22.3999996185,-0.08747979595851352,0.40811406383955373,0.9376183115690097
