%time,field.header.seq,field.header.frame_id,field.point_id,field.x,field.y,field.z,field.velocity,field.intensity,normalized_x,normalized_y,normalized_z,normalized_intensity,normalized_velocity,normalized_range,range
1648383632206547604,30661,0,0,0.00785044953227,0.0454158857465,0.00857834517956,0.0,21.7000007629,0.002625568405441471,0.015189259446989964,0.0028690117657391304,21.7000007629,0.0,0.015636522038205262,0.046880915541588346
1648383632206554652,30662,0,1,0.0317965820432,0.0161153152585,-0.0304482225329,0.0,21.7000007629,0.010634308375652175,0.005389737544648829,-0.010183352017692307,21.7000007629,0.0,0.015975803580951076,0.046880915849882784
1648383632206558142,30663,0,2,1.01496303082,0.134782627225,0.338127911091,0.0,21.7000007629,0.33945251866889625,0.04507780174749164,0.11308625788996654,21.7000007629,0.0,0.48217012876338666,1.0782610049481325
1648383632206561109,30664,0,3,0.615553975105,-0.421928226948,-0.0755765736103,-0.0809188112617,21.7000007629,0.20587089468394648,-0.14111311938060198,-0.025276446023511704,21.7000007629,-0.010934974494824324,0.32354066671326065,0.7500946229921416
1648383632311817473,30665,1,0,0.00773057201877,0.0454158857465,0.00868653040379,0.0,13.6999998093,0.0025854755915618727,0.015189259446989964,0.0029051941149799325,13.6999998093,0.0,0.015623154950812538,0.04688091543829428
1648383632311826662,30666,1,1,0.0317368544638,0.0161153152585,-0.0305104702711,0.0,13.6999998093,0.010614332596588628,0.005389737544648829,-0.01020417065923077,13.6999998093,0.0,0.015949212637061585,0.04688091416878453
1648383632311848388,30667,1,2,0.742616653442,0.225614413619,0.679237544537,0.0,13.6999998093,0.24836677372642138,0.07545632562508361,0.2271697473367893,13.6999998093,0.0,0.359257241624134,1.031380143065928
1648383632311852542,30668,1,3,0.991791307926,-0.128922522068,-0.25194054842,0.0,13.6999998093,0.33170277857056857,-0.04311790035719063,-0.08426105298327759,13.6999998093,0.0,0.47107602353981454,1.031380170020788
1648383632311858620,30669,1,4,0.585534095764,-0.46880915761,0.00313106947578,-0.485512852669,13.6999998093,0.19583080125886285,-0.15679236040468228,0.0010471804266822741,13.6999998093,-0.06560984495527027,0.3182502941469941,0.7500946654637833
1648383632311869521,30670,1,5,0.629575371742,-0.398487776518,-0.0865120664239,-0.323675245047,13.6999998093,0.21056032499732438,-0.1332735038521739,-0.028933801479565216,13.6999998093,-0.04373989797932432,0.32624090447856646,0.7500946569435555
1648383632506937071,30671,3,0,0.00775693543255,0.0454158857465,0.00866299681365,0.0,29.7000007629,0.00259429278680602,0.015189259446989964,0.002897323349046823,29.7000007629,0.0,0.015626077968425772,0.04688091551193514
1648383632506946090,30672,3,1,0.0317368544638,0.0161153152585,-0.0305104702711,0.0,29.7000007629,0.010614332596588628,0.005389737544648829,-0.01020417065923077,29.7000007629,0.0,0.015949212637061585,0.04688091416878453
1648383632506948853,30673,3,2,1.06875956059,0.134782627225,0.047258540988,0.0,29.7000007629,0.3574446690936455,0.04507780174749164,0.01580553210301003,29.7000007629,0.0,0.5075090059667094,1.0782609724229646
1648383632507039972,30674,3,3,0.53309315443,-0.369187235832,0.101416304708,-0.647350490093,29.7000007629,0.1782920248929766,-0.12347399191705685,0.03391849655785953,29.7000007629,-0.08747979595851352,0.28075241577021026,0.6563328372571546
1648383632611946194,30675,4,0,0.00771832885221,0.0454158857465,0.00869741104543,0.0,42.9000015259,0.0025813808870267557,0.015189259446989964,0.002908833125561873,42.9000015259,0.0,0.015621800700168593,0.046880915491308045
1648383632611949635,30676,4,1,0.0317196249962,0.0161153152585,-0.0305283833295,0.0,42.9000015259,0.010608570232842809,0.005389737544648829,-0.010210161648662206,42.9000015259,0.0,0.01594154307369629,0.046880914928073794
1648383632611954904,30677,4,2,1.03336918354,0.202173948288,0.23220795393,0.0,42.9000015259,0.3456084225886288,0.06761670511304348,0.07766152305351169,42.9000015259,0.0,0.4934190737484159,1.0782609650380757
1648383632611960217,30678,4,3,0.265626698732,-1.04456532001,0.0311858095229,0.0,42.9000015259,0.08883836077993311,-0.34935294983612036,0.01043003662973244,42.9000015259,0.0,0.3712573127243825,1.078261009942608
1648383632611964668,30679,4,4,0.544109344482,-0.247589826584,0.118642032146,-0.485512852669,42.9000015259,0.18197636939197323,-0.08280596206822742,0.03967960941337792,42.9000015259,-0.06560984495527027,0.270347231145822,0.6094519117799693
1648383632807022457,30680,6,0,0.00769781274721,0.0454158857465,0.0087155746296,0.0,41.5999984741,0.00257451931344816,0.015189259446989964,0.0029149079028762542,41.5999984741,0.0,0.015619535906633368,0.04688091552385018
1648383632807040686,30681,6,1,0.0318137221038,0.0161153152585,-0.0304303113371,0.0,41.5999984741,0.010640040837391304,0.005389737544648829,-0.010177361651204012,41.5999984741,0.0,0.015983435451832825,0.046880914539410304
1648383632807068054,30682,6,2,0.528852880001,0.0175803434104,0.191027998924,0.0809188112617,41.5999984741,0.17687387291003343,0.005879713515183946,0.06388896285083612,41.5999984741,0.010934974494824324,0.2502065244301394,0.5625710031033304
1648383632912010348,30683,7,0,0.00769781274721,0.0454158857465,0.0087155746296,0.0,27.8999996185,0.00257451931344816,0.015189259446989964,0.0029149079028762542,27.8999996185,0.0,0.015619535906633368,0.04688091552385018
1648383632912014235,30684,7,1,0.0317196249962,0.0161153152585,-0.0305283833295,0.0,27.8999996185,0.010608570232842809,0.005389737544648829,-0.010210161648662206,27.8999996185,0.0,0.01594154307369629,0.046880914928073794
1648383632912016128,30685,7,2,1.06515192986,0.316446185112,-0.176798671484,0.0,27.8999996185,0.356238103632107,0.10583484451906354,-0.05912999046287625,27.8999996185,0.0,0.5147933442393889,1.1251420319208272
1648383632912020555,30686,7,3,0.49426728487,0.175803437829,0.203172624111,0.404594063759,27.8999996185,0.16530678423745818,0.05879713639765886,0.06795071040501673,27.8999996185,0.05467487348094594,0.241059679495398,0.5625709847062915
