%time,field.header.seq,field.header.frame_id,field.point_id,field.x,field.y,field.z,field.velocity,field.intensity,normalized_x,normalized_y,normalized_z,normalized_intensity,normalized_velocity,normalized_range,range
1648383017695159715,17610,0,0,0.00773179670796,0.0454158857465,0.00868544075638,0.0,15.1000003815,0.0025858851866086955,0.015189259446989964,0.002904829684408026,15.1000003815,0.0,0.015623290528714444,0.0468809155158573
1648383017695164991,17611,0,1,0.0317215062678,0.0161153152585,-0.0305264294147,0.0,15.1000003815,0.010609199420668895,0.005389737544648829,-0.010209508165451504,15.1000003815,0.0,0.015942380483956582,0.04688091550502805
1648383017695167150,17612,0,2,0.589946568012,-0.152362972498,-0.0134237017483,-0.323675245047,15.1000003815,0.1973065444856187,-0.05095751588561872,-0.0044895323572909695,15.1000003815,-0.04373989797932432,0.2836483975257818,0.6094519048015117
1648383017695176778,17613,0,3,0.843382120132,-0.0,-0.0282894838601,-0.0809188112617,15.1000003815,0.2820675987063545,-0.0,-0.009461365839498326,15.1000003815,-0.010934974494824324,0.3989038235965382,0.8438564424446957
1648383017800431536,17614,1,0,0.00773179670796,0.0454158857465,0.00868544075638,0.0,17.5,0.0025858851866086955,0.015189259446989964,0.002904829684408026,17.5,0.0,0.015623290528714444,0.0468809155158573
1648383017800442243,17615,1,1,0.0317215062678,0.0161153152585,-0.0305264294147,0.0,17.5,0.010609199420668895,0.005389737544648829,-0.010209508165451504,17.5,0.0,0.015942380483956582,0.04688091550502805
1648383017800447433,17616,1,2,0.639791548252,0.0410208031535,0.140559315681,0.566431701183,17.5,0.21397710643879597,0.013719332158361203,0.04700980457558528,17.5,0.07654482448418919,0.30292016148601114,0.656332882560946
1648383017800455875,17617,1,3,0.843273639679,-0.0263705141842,-0.0169659107924,-0.0809188112617,17.5,0.2820313176183946,-0.008819569961270902,-0.00567421765632107,17.5,-0.010934974494824324,0.39895001322150286,0.843856431820498
1648383017995164610,17618,3,0,0.00763018382713,0.0454158857465,0.00877484213561,0.0,23.2000007629,0.002551900945528428,0.015189259446989964,0.0029347298112408025,23.2000007629,0.0,0.015612110665107124,0.04688091549745818
1648383017995170759,17619,3,1,0.0317215062678,0.0161153152585,-0.0305264294147,0.0,23.2000007629,0.010609199420668895,0.005389737544648829,-0.010209508165451504,23.2000007629,0.0,0.015942380483956582,0.04688091550502805
1648383017995182931,17620,3,2,0.721269845963,0.298865824938,0.160059630871,0.566431701183,23.2000007629,0.24122737323177257,0.09995512539732442,0.05353164912073578,23.2000007629,0.07654482448418919,0.35548884410878023,0.7969755689140803
1648383017995186913,17621,3,3,0.843856453896,-0.0,0.000149198938743,-0.0809188112617,23.2000007629,0.28222623876120395,-0.0,4.9899310616387955e-05,23.2000007629,-0.010934974494824324,0.3991281745136419,0.8438564670856384
1648383018100421044,17622,4,0,0.00765752140433,0.0454158857465,0.00875099562109,0.0,19.8999996185,0.0025610439479364544,0.015189259446989964,0.0029267543883244145,19.8999996185,0.0,0.015615104698800382,0.0468809154833526
1648383018100434484,17623,4,1,0.0317215062678,0.0161153152585,-0.0305264294147,0.0,19.8999996185,0.010609199420668895,0.005389737544648829,-0.010209508165451504,19.8999996185,0.0,0.015942380483956582,0.04688091550502805
1648383018100444058,17624,4,2,0.795354664326,-0.0498109720647,0.00999152194709,-0.0809188112617,19.8999996185,0.26600490445685615,-0.016659187981505015,0.0033416461361505012,19.8999996185,-0.010934974494824324,0.376556432602612,0.7969755363334395
1648383018100459852,17625,4,3,0.228138014674,0.249054864049,-0.721868932247,-0.0809188112617,19.8999996185,0.07630033935585284,0.0832959411535117,-0.24142773653745817,19.8999996185,-0.010934974494824324,0.13631469980998343,0.7969755544489956
