%time,field.header.seq,field.header.frame_id,field.point_id,field.x,field.y,field.z,field.velocity,field.intensity,normalized_x,normalized_y,normalized_z,normalized_intensity,normalized_velocity,normalized_range,range
1648465734009015289,101680,0,0,0.0132630066946,0.0439508594573,0.0094992024824,0.0,14.3000001907,0.004435788192173913,0.014699284099431437,0.0031769907967892975,14.3000001907,0.0,0.015981908109091884,0.046880915535193794
1648465734009022268,101681,0,1,0.0336977690458,0.0146502861753,-0.0291144233197,0.0,14.3000001907,0.011270156871505016,0.0048997612626421405,-0.009737265324314381,14.3000001907,0.0,0.016674547437563397,0.04688091476198981
1648465734009041388,101682,0,2,0.316680848598,0.574291229248,0.0259930603206,0.0,14.3000001907,0.105913327290301,0.1920706452334448,0.008693331210903009,14.3000001907,0.0,0.24357011014448518,0.656332853851427
1648465734009163553,101683,0,3,0.824716627598,-0.111342176795,0.31758248806,0.0,14.3000001907,0.27582495906287624,-0.037238186219063545,0.10621487894983277,14.3000001907,0.0,0.3918488210993627,0.8907374657509626
1648465734009168173,101684,0,4,0.542697310448,-0.140642747283,0.046747520566,-0.161837622523,14.3000001907,0.18150411720668894,-0.047037708121404675,0.015634622262876253,14.3000001907,-0.021869948989594594,0.2609598342873351,0.5625709589108482
1648465734204135579,101685,2,0,0.0132299559191,0.0439508594573,0.00954518001527,0.0,31.2000007629,0.004424734421103679,0.014699284099431437,0.0031923678980836116,31.2000007629,0.0,0.01597577861734436,0.04688091554332718
1648465734204138772,101686,2,1,0.0336394272745,0.0146502861753,-0.0291818138212,0.0,31.2000007629,0.01125064457341137,0.0048997612626421405,-0.009759803953578595,31.2000007629,0.0,0.016648173084916854,0.04688091520298788
1648465734204302501,101687,2,2,0.743390619755,-0.0,0.100061737001,0.0,31.2000007629,0.24862562533612037,-0.0,0.033465463879933106,31.2000007629,0.0,0.3516097313038332,0.7500946371967875
1648465734204311990,101688,2,3,0.363103508949,0.656332850456,0.00500152027234,0.0,31.2000007629,0.12143930065183946,0.21950931453377925,0.0016727492549632106,31.2000007629,0.0,0.27871014809781386,0.7500946500301207
1648465734204313094,101689,2,4,0.526496946812,0.0527410283685,0.191063925624,0.242756426334,31.2000007629,0.17608593538862874,0.017639139922575247,0.0639009784695652,31.2000007629,0.03280492247756756,0.24964705594215378,0.562570950859159
1648465734309120084,101690,3,0,0.0132299559191,0.0439508594573,0.00954518001527,0.0,43.7999992371,0.004424734421103679,0.014699284099431437,0.0031923678980836116,43.7999992371,0.0,0.01597577861734436,0.04688091554332718
1648465734309124071,101691,3,1,0.0336977690458,0.0146502861753,-0.0291144233197,0.0,43.7999992371,0.011270156871505016,0.0048997612626421405,-0.009737265324314381,43.7999992371,0.0,0.016674547437563397,0.04688091476198981
1648465734309129769,101692,3,2,0.315889239311,0.574291229248,0.0342986509204,0.0,43.7999992371,0.10564857502040133,0.1920706452334448,0.011471120709163878,43.7999992371,0.0,0.24334004102916262,0.6563328614038921
1648465734309133295,101693,3,3,0.577352643013,0.133317604661,0.142555087805,0.242756426334,43.7999992371,0.19309452943578595,0.0445878276458194,0.04767728689130435,43.7999992371,0.03280492247756756,0.2766930952702443,0.6094518940537758
1648465734309210976,101694,3,4,0.78897613287,-0.0,0.413436561823,0.323675245047,43.7999992371,0.2638716163444816,-0.0,0.13827309759966552,43.7999992371,0.04373989797932432,0.3731708185596759,0.8907374073712876
1648465734309212451,101695,3,5,0.579016149044,0.278355449438,-0.616985976696,0.323675245047,43.7999992371,0.19365088596789296,0.09309546803946488,-0.20634982498193977,43.7999992371,0.04373989797932432,0.28925438188865316,0.8907374206381428
1648465734504297116,101696,5,0,0.013252383098,0.0439508594573,0.00951401796192,0.0,11.8000001907,0.004432235149832775,0.014699284099431437,0.003181945806662207,11.8000001907,0.0,0.015979936479305047,0.046880915547706924
1648465734504354542,101697,5,1,0.033727504313,0.0146502861753,-0.0290799699724,0.0,11.8000001907,0.011280101776923075,0.0048997612626421405,-0.00972574246568562,11.8000001907,0.0,0.0166879912699634,0.04688091387544942
1648465734504357967,101698,5,2,0.38072514534,0.533270418644,0.0379978083074,0.0,11.8000001907,0.1273328245284281,0.1783513105832776,0.01270829709277592,11.8000001907,0.0,0.25344917911002923,0.6563328493463336
1648465734504370815,101699,5,3,0.565856099129,0.266635209322,0.198709145188,0.0,11.8000001907,0.1892495314812709,0.0891756552916388,0.0664579080896321,11.8000001907,0.0,0.2821047107519729,0.6563328303178358
1648465734504397224,101700,5,4,0.834633052349,-0.139177724719,0.278263181448,0.0,11.8000001907,0.2791414890799331,-0.04654773401973244,0.0930646091799331,11.8000001907,0.0,0.3975004822561811,0.8907374300437413
1648465734504400841,101701,5,5,0.783281981945,0.417533159256,-0.0744883269072,0.0,11.8000001907,0.261967218041806,0.13964319707558526,-0.024912483915451505,11.8000001907,0.0,0.39592154418093617,0.8907373985431495
1648465734504402909,101702,5,6,0.544319689274,0.247589826584,0.117673300207,0.0809188112617,11.8000001907,0.18204671882073578,0.08280596206822742,0.03935561879832775,11.8000001907,0.010934974494824324,0.2704419402031364,0.609451927506055
1648465734504407437,101703,5,7,0.752546966076,0.338421612978,-0.537012577057,0.323675245047,11.8000001907,0.25168794852040133,0.11318448594581938,-0.17960286858093644,11.8000001907,0.04373989797932432,0.3735028443260316,0.9844991783634073
1648465734504415016,101704,5,8,0.768979310989,-0.12306240201,-0.602299869061,0.323675245047,11.8000001907,0.25718371604983276,-0.04115799398327759,-0.2014380832979933,11.8000001907,0.04373989797932432,0.3660340258379397,0.9844991964387202
1648465734609060187,101705,6,0,0.0132584534585,0.0439508594573,0.00950555689633,0.0,28.3999996185,0.0044342653707357856,0.014699284099431437,0.0031791160188394648,28.3999996185,0.0,0.015981062911834463,0.04688091559532422
1648465734609062972,101706,6,1,0.0336977690458,0.0146502861753,-0.0291144233197,0.0,28.3999996185,0.011270156871505016,0.0048997612626421405,-0.009737265324314381,28.3999996185,0.0,0.016674547437563397,0.04688091476198981
1648465734609065168,101707,6,2,0.344050437212,0.553780853748,-0.0756893754005,0.0,28.3999996185,0.11506703585685618,0.18521098787558526,-0.02531417237474916,28.3999996185,0.0,0.2465440234757603,0.6563328567671666
1648465734609067807,101708,6,3,0.52717590332,0.328166425228,0.212521031499,0.0,28.3999996185,0.17631301114381268,0.10975465726688963,0.07107726805986622,28.3999996185,0.0,0.272430983166322,0.6563328610679047
1648465734609071822,101709,6,4,0.749902546406,-0.0,0.0169738028198,0.0,28.3999996185,0.2508035272260869,-0.0,0.005676857130367892,28.3999996185,0.0,0.3546897496941419,0.7500946200902713
