%time,field.header.seq,field.header.frame_id,field.point_id,field.x,field.y,field.z,field.velocity,field.intensity,normalized_x,normalized_y,normalized_z,normalized_intensity,normalized_velocity,normalized_range,range
1648382943099024071,15874,0,0,0.00768461916596,0.0454158857465,0.00872720964253,0.0,21.8999996185,0.0025701067444682275,0.015189259446989964,0.0029187992115484946,21.8999996185,0.0,0.015618082465651667,0.046880915498842914
1648382943099130459,15875,0,1,0.0317120365798,0.0161153152585,-0.0305362660438,0.0,21.8999996185,0.010606032300936454,0.005389737544648829,-0.010212798007959866,21.8999996185,0.0,0.015938165300222358,0.046880915027515714
1648382943099151342,15876,0,2,1.03027224541,0.032230630517,0.0352879352868,0.0,21.8999996185,0.34457265732775916,0.010779475089297658,0.011801985045752507,21.8999996185,0.0,0.4874185362078749,1.0313801198309438
1648382943099184228,15877,0,3,0.377827584743,-1.05482065678,-0.10268510133,0.0,21.8999996185,0.1263637407167224,-0.352782828354515,-0.0343428432541806,21.8999996185,0.0,0.3954634166615887,1.1251420051698682
1648382943099189307,15878,0,4,0.728902101517,-0.0,-0.857115030289,0.0,21.8999996185,0.2437799670625418,-0.0,-0.2866605452471572,21.8999996185,0.0,0.344756935654713,1.1251419682614334
1648382943293806733,15879,2,0,0.00773179670796,0.0454158857465,0.00868544075638,0.0,12.0,0.0025858851866086955,0.015189259446989964,0.002904829684408026,12.0,0.0,0.015623290528714444,0.0468809155158573
1648382943293813260,15880,2,1,0.0317120365798,0.0161153152585,-0.0305362660438,0.0,12.0,0.010606032300936454,0.005389737544648829,-0.010212798007959866,12.0,0.0,0.015938165300222358,0.046880915027515714
1648382943293927524,15881,2,2,0.751711070538,-0.224149376154,-0.140916839242,-0.161837622523,12.0,0.2514083847953177,-0.07496634653979932,-0.04712937767290969,12.0,-0.021869948989594594,0.36336249807087456,0.7969755529384631
1648382943399028898,15882,3,0,0.00773179670796,0.0454158857465,0.00868544075638,0.0,24.5,0.0025858851866086955,0.015189259446989964,0.002904829684408026,24.5,0.0,0.015623290528714444,0.0468809155158573
1648382943399031912,15883,3,1,0.0317120365798,0.0161153152585,-0.0305362660438,0.0,24.5,0.010606032300936454,0.005389737544648829,-0.010212798007959866,24.5,0.0,0.015938165300222358,0.046880915027515714
1648382943399038454,15884,3,2,0.842199265957,-0.0,-0.0528595112264,0.161837622523,24.5,0.28167199530334447,-0.0,-0.01767876629645485,24.5,0.021869948989594594,0.3983443558986805,0.8438564638050736
1648382943399087163,15885,3,3,1.06887018681,0.101086974144,-0.0997227951884,0.161837622523,24.5,0.35748166782943136,0.03380835255652174,-0.0333521054141806,24.5,0.021869948989594594,0.5066846064079802,1.0782609556471112
1648382943399185224,15886,3,4,0.290280371904,-1.13539719582,-0.0157588496804,0.242756426334,24.5,0.09708373642274247,-0.37973150361872904,-0.005270518287759197,24.5,0.03280492247756756,0.40379019130749305,1.1720229639097919
1648382943593920347,15887,5,0,0.00769860949367,0.0454158857465,0.00871487054974,0.0,17.7999992371,0.00257478578383612,0.015189259446989964,0.002914672424662207,17.7999992371,0.0,0.015619623753895707,0.04688091546646559
1648382943593949306,15888,5,1,0.0317120365798,0.0161153152585,-0.0305362660438,0.0,17.7999992371,0.010606032300936454,0.005389737544648829,-0.010212798007959866,17.7999992371,0.0,0.015938165300222358,0.046880915027515714
1648382943593953732,15889,5,2,1.00929892063,0.128922522068,-0.168640941381,0.161837622523,17.7999992371,0.3375581674347826,0.04311790035719063,-0.05640165263578595,17.7999992371,0.021869948989594594,0.47932263261301367,1.0313801893536287
1648382943593983386,15890,5,3,0.763296723366,0.0747164562345,0.216715276241,-0.161837622523,17.7999992371,0.2552831850722408,0.024988781349331104,0.07248002549866221,17.7999992371,-0.021869948989594594,0.3618887237184665,0.7969755000561353
1648382943699078579,15891,6,0,0.00775850145146,0.0454158857465,0.00866159424186,0.0,35.9000015259,0.0025948165389498325,0.015189259446989964,0.002896854261491639,35.9000015259,0.0,0.015626251895115125,0.04688091549577579
1648382943699092702,15892,6,1,0.0317120365798,0.0161153152585,-0.0305362660438,0.0,35.9000015259,0.010606032300936454,0.005389737544648829,-0.010212798007959866,35.9000015259,0.0,0.015938165300222358,0.046880915027515714
1648382943699098161,15893,6,2,0.800656974316,0.237334623933,0.121302977204,0.0,35.9000015259,0.26777825227959867,0.07937612840568561,0.04056955759331104,35.9000015259,0.0,0.3869249986089147,0.8438564608491332
