%time,field.header.seq,field.header.frame_id,field.point_id,field.x,field.y,field.z,field.velocity,field.intensity,normalized_x,normalized_y,normalized_z,normalized_intensity,normalized_velocity,normalized_range,range
1648465720808448411,101412,0,0,0.0132406326011,0.0439508594573,0.00953036453575,0.0,14.6999998093,0.004428305217759197,0.014699284099431437,0.0031874128882107017,14.6999998093,0.0,0.015977757265619744,0.04688091559362861
1648465720808534198,101413,0,1,0.033713478595,0.0146502861753,-0.0290962327272,0.0,14.6999998093,0.011275410901337792,0.0048997612626421405,-0.009731181514113712,14.6999998093,0.0,0.016681649871008047,0.04688091597770988
1648465720808537679,101414,0,2,0.682111501694,-0.0439508594573,0.165232568979,0.0,14.6999998093,0.2281309370214047,-0.014699284099431437,0.05526172875551839,14.6999998093,0.0,0.32296055146962455,0.7032137517438628
1648465720808540409,101415,0,3,0.372021704912,0.593336582184,0.063726849854,0.0,14.6999998093,0.12442197488695651,0.19844032848963208,0.02131332771036789,14.6999998093,0.0,0.2652173064500391,0.7032137371210377
1648465720808593444,101416,0,4,0.288660258055,-0.234404578805,-0.0488900989294,0.404594063759,14.6999998093,0.09654189232608695,-0.07839618020234114,-0.016351203655317725,14.6999998093,0.05467487348094594,0.15743771790178324,0.37504732090558274
1648465721003512124,101417,2,0,0.0132584534585,0.0439508594573,0.00950555689633,0.0,25.0,0.0044342653707357856,0.014699284099431437,0.0031791160188394648,25.0,0.0,0.015981062911834463,0.04688091559532422
1648465721003514200,101418,2,1,0.033736359328,0.0146502861753,-0.029069699347,0.0,25.0,0.011283063320401339,0.0048997612626421405,-0.009722307473913042,25.0,0.0,0.016691994974096437,0.046880915582474404
1648465721303515032,101419,5,0,0.0132630066946,0.0439508594573,0.0094992024824,0.0,12.3999996185,0.004435788192173913,0.014699284099431437,0.0031769907967892975,12.3999996185,0.0,0.015981908109091884,0.046880915535193794
1648465721303521944,101420,5,1,0.033736359328,0.0146502861753,-0.029069699347,0.0,12.3999996185,0.011283063320401339,0.0048997612626421405,-0.009722307473913042,12.3999996185,0.0,0.016691994974096437,0.046880915582474404
1648465721303594469,101421,5,2,0.699007689953,-0.0659262910485,0.0393895357847,0.0,12.3999996185,0.23378183610468226,-0.022048926772073575,0.013173757787525083,12.3999996185,0.0,0.33135185069160744,0.703213738485089
1648465721303596691,101422,5,3,0.481416076422,0.175803437829,-0.481498986483,0.0,12.3999996185,0.16100872121137122,0.05879713639765886,-0.16103645032876251,12.3999996185,0.0,0.23516955555685143,0.7032137380442764
1648465721303605592,101423,5,4,0.370320528746,0.0527410283685,0.195203796029,-0.242756426334,12.3999996185,0.12385301964749164,0.017639139922575247,0.06528555051137123,12.3999996185,-0.03280492247756756,0.17604056410047114,0.4219282309448082
