%time,field.header.seq,field.header.frame_id,field.point_id,field.x,field.y,field.z,field.velocity,field.intensity,normalized_x,normalized_y,normalized_z,normalized_intensity,normalized_velocity,normalized_range,range
1648465782310859215,103002,0,0,0.0132584534585,0.0439508594573,0.00950555689633,0.0,36.2999992371,0.0044342653707357856,0.014699284099431437,0.0031791160188394648,36.2999992371,0.0,0.015981062911834463,0.04688091559532422
1648465782310894564,103003,0,1,0.0336624495685,0.0146502861753,-0.029155254364,0.0,36.2999992371,0.01125834433729097,0.0048997612626421405,-0.009750921191973244,36.2999992371,0.0,0.016658580217560913,0.04688091565871483
1648465782310898291,103004,0,2,0.316412359476,0.574291229248,0.0290796663612,0.0,36.2999992371,0.10582353159732441,0.1920706452334448,0.00972564092347826,36.2999992371,0.0,0.24349203773399172,0.656332860838178
1648465782310908241,103005,0,3,1.03512513638,0.101086974144,0.284506827593,0.0,36.2999992371,0.34619569778595316,0.03380835255652174,0.09515278514816053,36.2999992371,0.0,0.4907605597779758,1.0782609884690888
1648465782310911156,103006,0,4,0.549667239189,-0.190453708172,0.181727558374,-0.161837622523,36.2999992371,0.18383519705317722,-0.06369689236521739,0.06077844761672241,36.2999992371,-0.021869948989594594,0.26767154022821904,0.6094518801896489
1648465782310913102,103007,0,5,0.325358569622,0.0190453715622,-0.514986097813,-0.161837622523,36.2999992371,0.10881557512441471,0.006369689485685618,-0.1722361531147157,36.2999992371,-0.021869948989594594,0.15402023153942582,0.6094518897706995
1648465782505994560,103008,2,0,0.0132406326011,0.0439508594573,0.00953036453575,0.0,32.2999992371,0.004428305217759197,0.014699284099431437,0.0031874128882107017,32.2999992371,0.0,0.015977757265619744,0.04688091559362861
1648465782506005309,103009,2,1,0.0337503887713,0.0146502861753,-0.0290534067899,0.0,32.2999992371,0.011287755441906355,0.0048997612626421405,-0.009716858458160534,32.2999992371,0.0,0.01669833842822278,0.04688091374249746
1648465782506157130,103010,2,2,0.332699090242,0.615312039852,0.0721940621734,0.0,32.2999992371,0.11127059874314381,0.20578997988361203,0.024145171295451507,32.2999992371,0.0,0.25905946828829257,0.7032137467710514
1648465782506164805,103011,2,3,0.817203700542,-0.263705164194,0.376518040895,0.0,32.2999992371,0.2733122744287625,-0.0881957070882943,0.12592576618561874,32.2999992371,0.0,0.396456405492017,0.9376183322234758
1648465782506169780,103012,2,4,0.650213420391,0.0879017189145,-0.669793903828,0.0,32.2999992371,0.21746268240501673,0.02939856819882943,-0.22401133907290968,32.2999992371,0.0,0.3089406290692624,0.9376183007225484
1648465782506248056,103013,2,5,0.578072190285,0.0380907431245,0.189243942499,0.0809188112617,32.2999992371,0.19333518069732442,0.01273937897140468,0.06329228846120401,32.2999992371,0.010934974494824324,0.273713857828045,0.6094519108717592
1648465782506252471,103014,2,6,0.525992155075,0.0380907431245,0.305471658707,0.242756426334,32.2999992371,0.17591710872073577,0.01273937897140468,0.10216443435016721,32.2999992371,0.03280492247756756,0.2491103170442834,0.6094518735596974
1648465782610946994,103015,3,0,0.0132701778784,0.0439508594573,0.00948918238282,0.0,36.0,0.0044381865814046816,0.014699284099431437,0.0031736395929163877,36.0,0.0,0.015983239762279708,0.04688091562943427
1648465782610960224,103016,3,1,0.0336977690458,0.0146502861753,-0.0291144233197,0.0,36.0,0.011270156871505016,0.0048997612626421405,-0.009737265324314381,36.0,0.0,0.016674547437563397,0.04688091476198981
1648465782610965005,103017,3,2,0.782695770264,-0.124527432024,0.08396602422,0.0,36.0,0.2617711606234113,-0.04164797057658863,0.028082282347826087,36.0,0.0,0.37253568221232713,0.7969755600637712
1648465782610968363,103018,3,3,0.812665700912,-0.263705164194,0.386215209961,0.0,36.0,0.2717945488,-0.0881957070882943,0.12916896654214047,36.0,0.0,0.3943640909915549,0.9376183357137359
1648465782610972900,103019,3,4,0.712731659412,0.556710898876,0.247416049242,0.0,36.0,0.23837179244548493,0.18619093607892975,0.08274784255585284,36.0,0.0,0.3851094487873477,0.9376183363597508
1648465782611051528,103020,3,5,0.580415129662,0.076181486249,0.169547304511,0.0809188112617,36.0,0.19411877246220735,0.02547875794280936,0.0567047841173913,36.0,0.010934974494824324,0.27570520987238656,0.6094519095503833
1648465782806006683,103021,5,0,0.0132299559191,0.0439508594573,0.00954518001527,0.0,15.1999998093,0.004424734421103679,0.014699284099431437,0.0031923678980836116,15.1999998093,0.0,0.01597577861734436,0.04688091554332718
1648465782806012548,103022,5,1,0.033736359328,0.0146502861753,-0.029069699347,0.0,15.1999998093,0.011283063320401339,0.0048997612626421405,-0.009722307473913042,15.1999998093,0.0,0.016691994974096437,0.046880915582474404
1648465782806123099,103023,5,2,0.782811760902,-0.149432912469,0.00675106793642,0.0,15.1999998093,0.26180995347892977,-0.04997756269866221,0.0022578822529832772,15.1999998093,0.0,0.37361298191387493,0.7969755487176128
1648465782806125821,103024,5,3,0.458572030067,0.647542655468,-0.0746339932084,0.0,15.1999998093,0.15336857192876252,0.21656944998929767,-0.024961201741939797,15.1999998093,0.0,0.3065063855445803,0.7969755519164625
1648465782806128480,103025,5,4,0.867995202541,0.547920703888,0.100559659302,0.0,15.1999998093,0.2902993988431438,0.18325107153444814,0.03363199307759197,15.1999998093,0.0,0.44958696284023275,1.0313801503142512
1648465782806130674,103026,5,5,1.0231205225,0.128922522068,0.0186648312956,0.0,15.1999998093,0.3421807767558528,0.04311790035719063,0.006242418493511705,15.1999998093,0.0,0.4858338412396672,1.0313801414533539
1648465782806135706,103027,5,6,0.583586275578,0.225614413619,0.19823731482,0.0809188112617,15.1999998093,0.195179356380602,0.07545632562508361,0.0663001052909699,15.1999998093,0.010934974494824324,0.28615313975410217,0.6563328710819613
1648465782910928030,103028,6,0,0.0132584534585,0.0439508594573,0.00950555689633,0.0,20.6000003815,0.0044342653707357856,0.014699284099431437,0.0031791160188394648,20.6000003815,0.0,0.015981062911834463,0.04688091559532422
1648465782910958425,103029,6,1,0.0336091145873,0.0146502861753,-0.0292167179286,0.0,20.6000003815,0.011240506550936455,0.0048997612626421405,-0.009771477568093644,20.6000003815,0.0,0.016634471301312202,0.046880913759010975
1648465782911060917,103030,6,2,0.487342655659,0.316446185112,-0.611925363541,0.0,20.6000003815,0.1629908547354515,0.10583484451906354,-0.20465731222107023,20.6000003815,0.0,0.2536396100161811,0.8438564467025714
1648465782911071044,103031,6,3,0.828634262085,-0.0263705141842,0.157364532351,0.0,20.6000003815,0.27713520471070235,-0.008819569961270902,0.05263027837826087,20.6000003815,0.0,0.3920275860119891,0.8438564690523741
1648465782911075343,103032,6,4,0.947707235813,-0.215359210968,0.157194778323,0.0,20.6000003815,0.3169589417434782,-0.07202649196254181,0.052573504455852835,20.6000003815,0.0,0.4539975297804178,0.9844992599758996
1648465782911078099,103033,6,5,0.815662145615,0.523015201092,0.174324482679,0.0,20.6000003815,0.2727967042190635,0.1749214719371237,0.05830250256822742,20.6000003815,0.0,0.4235960398896765,0.9844991933078826
1648465782911097665,103034,6,6,0.604866802692,0.225614413619,0.118351519108,0.0809188112617,20.6000003815,0.202296589529097,0.07545632562508361,0.039582447862207354,20.6000003815,0.010934974494824324,0.2958740903611645,0.6563328383576882
1648465782911105996,103035,6,7,0.178676456213,0.47173923254,0.419892400503,0.0809188112617,20.6000003815,0.05975801211137123,0.15777231857525081,0.14043224097090298,20.6000003815,0.010934974494824324,0.17898084962256722,0.656332848120857
