%time,field.header.seq,field.header.frame_id,field.point_id,field.x,field.y,field.z,field.velocity,field.intensity,normalized_x,normalized_y,normalized_z,normalized_intensity,normalized_velocity,normalized_range,range
1648383771006887477,34456,0,0,0.0077766450122,0.0454158857465,0.008645308204,0.0,22.1000003815,0.002600884619464883,0.015189259446989964,0.0028914074260869564,22.1000003815,0.0,0.015628269390931034,0.046880915517159706
1648383771006900279,34457,0,1,0.0315993279219,0.0161153152585,-0.0306528843939,0.0,22.1000003815,0.010568337097625417,0.005389737544648829,-0.01025180080063545,22.1000003815,0.0,0.015888007075095616,0.04688091544181289
1648383771006923707,34458,0,2,0.909178972244,-0.0,0.229176014662,0.0809188112617,22.1000003815,0.304073234864214,-0.0,0.07664749654247491,22.1000003815,0.010934974494824324,0.4300244926996309,0.9376182854802979
1648383771007066395,34459,0,3,0.398751854897,-0.105482056737,0.0888478308916,-0.566431701183,22.1000003815,0.13336182438026756,-0.035278279845150494,0.02971499360923077,22.1000003815,-0.07654482448418919,0.19187315975117364,0.421928244055086
1648383771112168617,34460,1,0,0.00777089362964,0.0454158857465,0.00865047797561,0.0,31.7000007629,0.002598961080147157,0.015189259446989964,0.0028931364466923074,31.7000007629,0.0,0.015627629376850898,0.046880915468331404
1648383771112171061,34461,1,1,0.0316766984761,0.0161153152585,-0.030572924763,0.0,31.7000007629,0.01059421353715719,0.005389737544648829,-0.01022505844916388,31.7000007629,0.0,0.015922436740083677,0.04688091659503532
1648383771112174838,34462,1,2,0.978963017464,-0.0,0.10426004976,0.0809188112617,31.7000007629,0.32741238042274246,-0.0,0.03486958185953177,31.7000007629,0.010934974494824324,0.4630310288827016,0.9844992369413893
1648383771307055624,34463,3,0,0.00779683841392,0.0454158857465,0.00862710084766,0.0,18.7999992371,0.0026076382655250835,0.015189259446989964,0.0028853180092508358,18.7999992371,0.0,0.01563052005518803,0.046880915481970015
1648383771307084302,34464,3,1,0.0316766984761,0.0161153152585,-0.030572924763,0.0,18.7999992371,0.01059421353715719,0.005389737544648829,-0.01022505844916388,18.7999992371,0.0,0.015922436740083677,0.04688091659503532
1648383771307185350,34465,3,2,0.961892843246,-0.0307656005025,0.207495450974,0.0,18.7999992371,0.3217032920555184,-0.010289498495819397,0.06939647189765885,18.7999992371,0.0,0.4550734995778284,0.9844992261231377
1648383771307188952,34466,3,3,2.48871517181,0.164083212614,0.819596350193,0.0,18.7999992371,0.8323462113076923,0.054877328633444813,0.27411249170334445,18.7999992371,0.0,1.178393801814352,2.625331347527145
1648383771307201975,34467,3,4,0.0651849731803,0.281285494566,-0.482820361853,-0.323675245047,18.7999992371,0.021800994374682275,0.09407541624280935,-0.16147838189063543,18.7999992371,-0.04373989797932432,0.09899874066223112,0.5625709839670168
1648383771307203445,34468,3,5,0.299360871315,0.474669277668,0.0394748263061,-0.323675245047,18.7999992371,0.10012069274749164,0.1587522667785953,0.013202283045518393,18.7999992371,-0.04373989797932432,0.21272185698657659,0.5625709878301881
1648383771307208096,34469,3,6,0.291631340981,0.533270418644,-0.0447821691632,-0.242756426334,18.7999992371,0.09753556554548495,0.1783513105832776,-0.01497731410140468,18.7999992371,-0.03280492247756756,0.22546743241392522,0.6094519022187762
1648383771412148069,34470,4,0,0.00775059545413,0.0454158857465,0.00866866949946,0.0,27.7000007629,0.0025921723926856186,0.015189259446989964,0.0028992205683812705,27.7000007629,0.0,0.01562537417071274,0.04688091550859038
1648383771412151078,34471,4,1,0.0317965820432,0.0161153152585,-0.0304482225329,0.0,27.7000007629,0.010634308375652175,0.005389737544648829,-0.010183352017692307,27.7000007629,0.0,0.015975803580951076,0.046880915849882784
1648383771412152742,34472,4,2,0.940402567387,-0.0922968015075,0.276338517666,0.0,27.7000007629,0.31451590882508357,-0.03086849548745819,0.09242090891839463,27.7000007629,0.0,0.44586250999808874,0.9844991948510766
