%time,field.header.seq,field.header.frame_id,field.point_id,field.x,field.y,field.z,field.velocity,field.intensity,normalized_x,normalized_y,normalized_z,normalized_intensity,normalized_velocity,normalized_range,range
1648382999994692359,17185,0,0,0.00771888298914,0.0454158857465,0.00869691930711,0.0,17.2000007629,0.0025815662171036788,0.015189259446989964,0.002908668664585284,17.2000007629,0.0,0.01562186195095053,0.04688091550059106
1648382999994718935,17186,0,1,0.0317215062678,0.0161153152585,-0.0305264294147,0.0,17.2000007629,0.010609199420668895,0.005389737544648829,-0.010209508165451504,17.2000007629,0.0,0.015942380483956582,0.04688091550502805
1648382999994723001,17187,0,2,0.795653581619,-0.0,-0.0458845049143,0.0,17.2000007629,0.26610487679565215,-0.0,-0.015345988265652174,17.2000007629,0.0,0.3763291257780328,0.7969755389811993
1648383000100001619,17188,1,0,0.00765076000243,0.0454158857465,0.00875690765679,0.0,14.5,0.002558782609508361,0.015189259446989964,0.0029287316577892974,14.5,0.0,0.015614363241369104,0.04688091550368306
1648383000100006167,17189,1,1,0.0317215062678,0.0161153152585,-0.0305264294147,0.0,14.5,0.010609199420668895,0.005389737544648829,-0.010209508165451504,14.5,0.0,0.015942380483956582,0.04688091550502805
1648383000294989586,17190,3,0,0.00765076000243,0.0454158857465,0.00875690765679,0.0,22.1000003815,0.002558782609508361,0.015189259446989964,0.0029287316577892974,22.1000003815,0.0,0.015614363241369104,0.04688091550368306
1648383000294999396,17191,3,1,0.0317215062678,0.0161153152585,-0.0305264294147,0.0,22.1000003815,0.010609199420668895,0.005389737544648829,-0.010209508165451504,22.1000003815,0.0,0.015942380483956582,0.04688091550502805
1648383000295002319,17192,3,2,0.561374545097,-0.0,0.0366705171764,0.242756426334,22.1000003815,0.18775068397892977,-0.0,0.012264387015518394,22.1000003815,0.03280492247756756,0.26551956362782747,0.5625709792664819
1648383000400169119,17193,4,0,0.00758975045756,0.0454158857465,0.00880983844399,0.0,22.2999992371,0.002538378079451505,0.015189259446989964,0.0029464342622040132,22.2999992371,0.0,0.015607700954863715,0.04688091555800055
1648383000400191593,17194,4,1,0.0317215062678,0.0161153152585,-0.0305264294147,0.0,22.2999992371,0.010609199420668895,0.005389737544648829,-0.010209508165451504,22.2999992371,0.0,0.015942380483956582,0.04688091550502805
1648383000400202081,17195,4,2,0.401170730591,0.0190453715622,-0.458400398493,-0.647350490093,22.2999992371,0.13417081290668895,0.006369689485685618,-0.1533111700645485,22.2999992371,-0.08747979595851352,0.18985306691288267,0.6094518903075125
1648383000400609909,17196,4,3,0.53478038311,0.247589826584,0.155373245478,-0.647350490093,22.2999992371,0.17885631542140465,0.08280596206822742,0.05196429614648829,22.2999992371,-0.08747979595851352,0.26615031558554786,0.609451906057845
1648383000400619101,17197,4,4,0.796462059021,-0.0249054860324,-0.0140690952539,-0.0809188112617,22.2999992371,0.26637527057558524,-0.00832959399076923,-0.0047053830280602005,22.2999992371,-0.010934974494824324,0.37680359829025456,0.7969755542899319
1648383000594991181,17198,6,0,0.00765076000243,0.0454158857465,0.00875690765679,0.0,18.3999996185,0.002558782609508361,0.015189259446989964,0.0029287316577892974,18.3999996185,0.0,0.015614363241369104,0.04688091550368306
1648383000595016710,17199,6,1,0.0317215062678,0.0161153152585,-0.0305264294147,0.0,18.3999996185,0.010609199420668895,0.005389737544648829,-0.010209508165451504,18.3999996185,0.0,0.015942380483956582,0.04688091550502805
1648383000595020193,17200,6,2,0.64440792799,0.241729721427,0.144273161888,0.404594063759,18.3999996185,0.21552104615050166,0.08084606067792642,0.04825189360802675,18.3999996185,0.05467487348094594,0.3153327261715033,0.7032137520830356
1648383000595025542,17201,6,3,0.533628821373,0.197778865695,-0.413077950478,-0.647350490093,18.3999996185,0.1784711777167224,0.06614677782441471,-0.13815316069498326,18.3999996185,-0.08747979595851352,0.2609201386779877,0.7032137597392724
1648383000595046798,17202,6,4,0.429395616055,0.461484014988,0.311707347631,-0.647350490093,18.3999996185,0.1436105739314381,0.15434247992909697,0.10424994904046822,18.3999996185,-0.08747979595851352,0.2550874261905079,0.7032137383071029
