%time,field.header.seq,field.header.frame_id,field.point_id,field.x,field.y,field.z,field.velocity,field.intensity,normalized_x,normalized_y,normalized_z,normalized_intensity,normalized_velocity,normalized_range,range
1648383424612112406,25314,0,0,0.00779817998409,0.0454158857465,0.00862588826567,0.0,22.7999992371,0.002608086951200669,0.015189259446989964,0.002884912463434782,22.7999992371,0.0,0.01563066977573323,0.04688091549420965
1648383424612123086,25315,0,1,0.0316167213023,0.0161153152585,-0.0306349415332,0.0,22.7999992371,0.010574154281705684,0.005389737544648829,-0.010245799843879598,22.7999992371,0.0,0.01589574623434919,0.04688091396859425
1648383424612131775,25316,0,2,0.478732526302,-0.949338555336,-0.368124932051,0.0,22.7999992371,0.16011121281003343,-0.3175045335571906,-0.12311870637157189,22.7999992371,0.0,0.3899747809338045,1.1251419865885781
1648383424612140124,25317,0,3,0.930450260639,0.351606875658,-0.525908112526,0.0,22.7999992371,0.31118737814013375,0.11759427279531771,-0.17588900084481604,22.7999992371,0.0,0.455525610280828,1.1251419578674609
1648383424807333326,25318,2,0,0.00777811044827,0.0454158857465,0.00864398945123,0.0,14.1000003815,0.002601374731862876,0.015189259446989964,0.0028909663716488294,14.1000003815,0.0,0.015628432536218186,0.04688091545519993
1648383424807351654,25319,2,1,0.0316433869302,0.0161153152585,-0.0306073985994,0.0,14.1000003815,0.010583072551906355,0.005389737544648829,-0.010236588160334447,14.1000003815,0.0,0.015907612016830955,0.04688091478755239
1648383424807356631,25320,2,2,1.01287782192,0.193383783102,0.0206435974687,0.0,14.1000003815,0.33875512438795985,0.06467685053578595,0.0069042132002341125,14.1000003815,0.0,0.4834182077595265,1.0313801083115257
1648383424912595979,25321,3,0,0.00777811044827,0.0454158857465,0.00864398945123,0.0,13.3000001907,0.002601374731862876,0.015189259446989964,0.0028909663716488294,13.3000001907,0.0,0.015628432536218186,0.04688091545519993
1648383424912599468,25322,3,1,0.0317103527486,0.0161153152585,-0.0305380169302,0.0,13.3000001907,0.010605469146688962,0.005389737544648829,-0.010213383588695652,13.3000001907,0.0,0.01593741580190905,0.046880916537016086
1648383424912601812,25323,3,2,1.14231622219,0.183128580451,0.187657311559,0.0,13.3000001907,0.3820455592608696,0.061247016873244145,0.06276164266187291,13.3000001907,0.0,0.5437543708125689,1.1720229072155475
1648383424912611438,25324,3,3,0.60332006216,-0.988894343376,-0.178131088614,0.0,13.3000001907,0.20177928500334447,-0.3307338941056856,-0.05957561492107023,13.3000001907,0.0,0.4368233835581981,1.172022953911998
1648383425107302870,25325,5,0,0.00777811044827,0.0454158857465,0.00864398945123,0.0,12.8000001907,0.002601374731862876,0.015189259446989964,0.0028909663716488294,12.8000001907,0.0,0.015628432536218186,0.04688091545519993
1648383425107307833,25326,5,1,0.0317368544638,0.0161153152585,-0.0305104702711,0.0,12.8000001907,0.010614332596588628,0.005389737544648829,-0.01020417065923077,12.8000001907,0.0,0.015949212637061585,0.04688091416878453
1648383425107310399,25327,5,2,0.697514057159,0.474669247866,-0.0160290934145,-0.323675245047,12.8000001907,0.23328229336421402,0.15875225681137123,-0.005360900807525083,12.8000001907,-0.04373989797932432,0.3661195649473516,0.843856437221269
1648383425107463979,25328,5,3,0.697394609451,0.474669247866,-0.0205806382,-0.161837622523,12.8000001907,0.2332423442979933,0.15875225681137123,-0.006883156588628763,12.8000001907,-0.021869948989594594,0.36606865666149413,0.8438564444440217
1648383425212255525,25329,6,0,0.00775188999251,0.0454158857465,0.0086675118655,0.0,25.3999996185,0.0025926053486655517,0.015189259446989964,0.002898833399832776,25.3999996185,0.0,0.015625517832565817,0.046880915504432095
1648383425212262050,25330,6,1,0.0317103527486,0.0161153152585,-0.0305380169302,0.0,25.3999996185,0.010605469146688962,0.005389737544648829,-0.010213383588695652,25.3999996185,0.0,0.01593741580190905,0.046880916537016086
1648383425212267475,25331,6,2,0.578072726727,0.34281668067,-0.510296404362,0.0,25.3999996185,0.19333536010936456,0.1146544082508361,-0.17066769376655516,25.3999996185,0.0,0.29648398990263325,0.843856489123578
1648383425212281417,25332,6,3,0.703332364559,0.373582303524,-0.0304941684008,-0.242756426334,25.3999996185,0.23522821557157186,0.12494391422207357,-0.01019871852869565,25.3999996185,-0.03280492247756756,0.35535279442140966,0.7969755622658129
