%time,field.header.seq,field.header.frame_id,field.point_id,field.x,field.y,field.z,field.velocity,field.intensity,normalized_x,normalized_y,normalized_z,normalized_intensity,normalized_velocity,normalized_range,range
1648383795112030722,35063,0,0,0.0077766450122,0.0454158857465,0.008645308204,0.0,25.3999996185,0.002600884619464883,0.015189259446989964,0.0028914074260869564,25.3999996185,0.0,0.015628269390931034,0.046880915517159706
1648383795112040187,35064,0,1,0.0316766984761,0.0161153152585,-0.030572924763,0.0,25.3999996185,0.01059421353715719,0.005389737544648829,-0.01022505844916388,25.3999996185,0.0,0.015922436740083677,0.04688091659503532
1648383795112043895,35065,0,2,0.909382343292,-0.0586011447012,0.220721006393,0.0,25.3999996185,0.3041412519371237,-0.019599045050568562,0.07381973457959866,25.3999996185,0.0,0.4305669806506952,0.9376183141954292
1648383795112047174,35066,0,3,0.401149064302,-0.153828009963,0.556709945202,0.566431701183,25.3999996185,0.13416356665618728,-0.05144749497090301,0.1861906171244147,25.3999996185,0.07654482448418919,0.19658730878314476,0.7032137594831039
1648383795112056553,35067,0,4,0.134586647153,-0.817485928535,-0.160302594304,-0.404594063759,25.3999996185,0.0450122565729097,-0.2734066650618729,-0.05361290779397993,25.3999996185,-0.05467487348094594,0.28071945244999685,0.8438564633189759
1648383795307226994,35068,4,0,0.00779683841392,0.0454158857465,0.00862710084766,0.0,29.7000007629,0.0026076382655250835,0.015189259446989964,0.0028853180092508358,29.7000007629,0.0,0.01563052005518803,0.046880915481970015
1648383795307229568,35069,4,1,0.0316766984761,0.0161153152585,-0.030572924763,0.0,29.7000007629,0.01059421353715719,0.005389737544648829,-0.01022505844916388,29.7000007629,0.0,0.015922436740083677,0.04688091659503532
1648383795307232012,35070,4,2,0.592574954033,-0.0380907431245,0.137243017554,-0.161837622523,29.7000007629,0.19818560335551838,-0.01273937897140468,0.04590067476722408,29.7000007629,-0.021869948989594594,0.28056613931720054,0.6094519068198214
1648383795412431237,35071,5,0,0.00779683841392,0.0454158857465,0.00862710084766,0.0,34.0,0.0026076382655250835,0.015189259446989964,0.0028853180092508358,34.0,0.0,0.01563052005518803,0.046880915481970015
1648383795412448871,35072,5,1,0.0316766984761,0.0161153152585,-0.030572924763,0.0,34.0,0.01059421353715719,0.005389737544648829,-0.01022505844916388,34.0,0.0,0.015922436740083677,0.04688091659503532
1648383795412499246,35073,5,2,0.900887191296,-0.0586011447012,0.253172338009,0.0,34.0,0.3013000639785953,-0.019599045050568562,0.08467302274548495,34.0,0.0,0.42655313815972035,0.9376182903156434
1648383795412532350,35074,5,3,0.558192491531,0.133317604661,0.205132097006,-0.0809188112617,34.0,0.18668645201705686,0.0445878276458194,0.06860605251036789,34.0,-0.010934974494824324,0.2677531271668121,0.6094519001005831
1648383795607610554,35075,7,0,0.00787520781159,0.0454158857465,0.00855562184006,0.0,15.1000003815,0.0026338487664180604,0.015189259446989964,0.0028614119866421403,15.1000003815,0.0,0.015639306928272038,0.04688091553377537
1648383795607663803,35076,7,1,0.0317701548338,0.0161153152585,-0.0304757971317,0.0,15.1000003815,0.010625469844080268,0.005389737544648829,-0.010192574291538461,15.1000003815,0.0,0.015964037384543907,0.046880916531750985
1648383795607724294,35077,7,2,0.896990358829,-0.0879017189145,0.258475720882,0.0,15.1000003815,0.2999967755280936,-0.02939856819882943,0.08644672939197323,15.1000003815,0.0,0.4252768586070115,0.937618320163259
1648383795712612694,35078,8,0,0.0077766450122,0.0454158857465,0.008645308204,0.0,23.3999996185,0.002600884619464883,0.015189259446989964,0.0028914074260869564,23.3999996185,0.0,0.015628269390931034,0.046880915517159706
1648383795712633475,35079,8,1,0.0316766984761,0.0161153152585,-0.030572924763,0.0,23.3999996185,0.01059421353715719,0.005389737544648829,-0.01022505844916388,23.3999996185,0.0,0.015922436740083677,0.04688091659503532
1648383795712695371,35080,8,2,0.972852289677,-0.061531201005,0.137880384922,0.0,23.3999996185,0.3253686587548495,-0.020578996991638794,0.04611384111103679,23.3999996185,0.0,0.46060072005701563,0.9844991959230531
1648383795712718580,35081,8,3,0.202576696873,0.329631447792,0.587209820747,-0.566431701183,23.3999996185,0.06775140363645485,0.11024463136856186,0.19639124439698996,23.3999996185,-0.07654482448418919,0.1460629457973847,0.7032137534712679
1648383795712728615,35082,8,4,0.289821743965,0.593336582184,-0.241794615984,-0.566431701183,23.3999996185,0.0969303491521739,0.19844032848963208,-0.08086776454314382,23.3999996185,-0.07654482448418919,0.2411836419506882,0.7032137508265567
