%time,field.header.seq,field.header.frame_id,field.point_id,field.x,field.y,field.z,field.velocity,field.intensity,normalized_x,normalized_y,normalized_z,normalized_intensity,normalized_velocity,normalized_range,range
1648382977899550688,16658,0,0,0.00763018382713,0.0454158857465,0.00877484213561,0.0,32.0999984741,0.002551900945528428,0.015189259446989964,0.0029347298112408025,32.0999984741,0.0,0.015612110665107124,0.04688091549745818
1648382977899552965,16659,0,1,0.0317120365798,0.0161153152585,-0.0305362660438,0.0,32.0999984741,0.010606032300936454,0.005389737544648829,-0.010212798007959866,32.0999984741,0.0,0.015938165300222358,0.046880915027515714
1648382977899583014,16660,0,2,0.930521845818,0.0293005723506,-0.111349374056,0.0,32.0999984741,0.3112113196715719,0.009799522525284281,-0.037240593329765884,32.0999984741,0.0,0.4402283516825855,0.937618319033536
1648382978094481379,16661,2,0,0.00758975045756,0.0454158857465,0.00880983844399,0.0,11.8000001907,0.002538378079451505,0.015189259446989964,0.0029464342622040132,11.8000001907,0.0,0.015607700954863715,0.04688091555800055
1648382978094486494,16662,2,1,0.0316949747503,0.0161153152585,-0.0305539779365,0.0,11.8000001907,0.010600326003444816,0.005389737544648829,-0.010218721717892976,11.8000001907,0.0,0.015930571036808876,0.04688091699238749
1648382978094488725,16663,2,2,0.224604472518,-1.04456532001,-0.145199656487,0.0,11.8000001907,0.07511855268160535,-0.34935294983612036,-0.04856175802240802,11.8000001907,0.0,0.3651480213189674,1.0782610152864776
1648382978199657295,16664,3,0,0.00765076000243,0.0454158857465,0.00875690765679,0.0,14.0,0.002558782609508361,0.015189259446989964,0.0029287316577892974,14.0,0.0,0.015614363241369104,0.04688091550368306
1648382978199665803,16665,3,1,0.0316949747503,0.0161153152585,-0.0305539779365,0.0,14.0,0.010600326003444816,0.005389737544648829,-0.010218721717892976,14.0,0.0,0.015930571036808876,0.04688091699238749
1648382978199685037,16666,3,2,0.931004285812,0.0293005723506,-0.10724042356,0.0,14.0,0.31137267084013376,0.009799522525284281,-0.035866362394648826,14.0,0.0,0.4404564801815954,0.9376182657060992
1648382978199691297,16667,3,3,0.812680065632,0.612381994724,-0.168179750443,-0.242756426334,14.0,0.27179935305418057,0.20481003168026754,-0.05624740817491638,14.0,-0.03280492247756756,0.43554210556295747,1.0313801554212911
1648382978394500341,16668,5,0,0.00758975045756,0.0454158857465,0.00880983844399,0.0,21.0,0.002538378079451505,0.015189259446989964,0.0029464342622040132,21.0,0.0,0.015607700954863715,0.04688091555800055
1648382978394505623,16669,5,1,0.0317120365798,0.0161153152585,-0.0305362660438,0.0,21.0,0.010606032300936454,0.005389737544648829,-0.010212798007959866,21.0,0.0,0.015938165300222358,0.046880915027515714
1648382978499530659,16670,6,0,0.00763018382713,0.0454158857465,0.00877484213561,0.0,21.8999996185,0.002551900945528428,0.015189259446989964,0.0029347298112408025,21.8999996185,0.0,0.015612110665107124,0.04688091549745818
1648382978499540046,16671,6,1,0.0316949747503,0.0161153152585,-0.0305539779365,0.0,21.8999996185,0.010600326003444816,0.005389737544648829,-0.010218721717892976,21.8999996185,0.0,0.015930571036808876,0.04688091699238749
