%time,field.header.seq,field.header.frame_id,field.point_id,field.x,field.y,field.z,field.velocity,field.intensity,normalized_x,normalized_y,normalized_z,normalized_intensity,normalized_velocity,normalized_range,range
1648383799807008455,35189,0,0,0.0077766450122,0.0454158857465,0.008645308204,0.0,22.5,0.002600884619464883,0.015189259446989964,0.0028914074260869564,22.5,0.0,0.015628269390931034,0.046880915517159706
1648383799807176102,35190,0,1,0.0316766984761,0.0161153152585,-0.030572924763,0.0,22.5,0.01059421353715719,0.005389737544648829,-0.01022505844916388,22.5,0.0,0.015922436740083677,0.04688091659503532
1648383799807179572,35191,0,2,0.959634244442,-0.0307656005025,0.217702209949,0.0,22.5,0.3209479078401337,-0.010289498495819397,0.0728101036618729,22.5,0.0,0.454005498725746,0.9844991912118192
1648383799807183414,35192,0,3,0.638123571873,-0.123062409461,0.0917973071337,-0.323675245047,22.5,0.21341925480702337,-0.041157996475250834,0.030701440512943143,22.5,-0.04373989797932432,0.3046137510333818,0.6563328387329872
1648383799807186295,35193,0,4,0.603356480598,-0.0380907431245,0.0770822316408,-0.161837622523,22.5,0.20179146508294313,-0.01273937897140468,0.025780010582207354,22.5,-0.021869948989594594,0.2856604322219274,0.6094518995180073
1648383799912261578,35194,1,0,0.0077766450122,0.0454158857465,0.008645308204,0.0,28.7999992371,0.002600884619464883,0.015189259446989964,0.0028914074260869564,28.7999992371,0.0,0.015628269390931034,0.046880915517159706
1648383799912264514,35195,1,1,0.0316766984761,0.0161153152585,-0.030572924763,0.0,28.7999992371,0.01059421353715719,0.005389737544648829,-0.01022505844916388,28.7999992371,0.0,0.015922436740083677,0.04688091659503532
1648383799912268087,35196,1,2,0.95310151577,-0.0922968015075,0.22873018682,0.0809188112617,28.7999992371,0.3187630487525083,-0.03086849548745819,0.07649839024080267,28.7999992371,0.010934974494824324,0.45185465197743313,0.9844992114239088
1648383799912276434,35197,1,3,0.615559279919,-0.0,0.227727025747,0.161837622523,28.7999992371,0.20587266886923072,-0.0,0.07616288486521738,28.7999992371,0.021869948989594594,0.29114792043681137,0.6563328617020273
1648383800107245819,35198,3,0,0.00779683841392,0.0454158857465,0.00862710084766,0.0,32.7999992371,0.0026076382655250835,0.015189259446989964,0.0028853180092508358,32.7999992371,0.0,0.01563052005518803,0.046880915481970015
1648383800107270453,35199,3,1,0.0316930636764,0.0161153152585,-0.0305559579283,0.0,32.7999992371,0.010599686848294314,0.005389737544648829,-0.010219383922508362,32.7999992371,0.0,0.01592972044211712,0.04688091547733712
1648383800107295657,35200,3,2,0.949892401695,-0.0307656005025,0.256898134947,0.0,32.7999992371,0.31768976645317726,-0.010289498495819397,0.0859191086779264,32.7999992371,0.0,0.449398986644879,0.9844992375372474
1648383800107372883,35201,3,3,0.550929248333,0.34867683053,0.0753272771835,0.485512852669,32.7999992371,0.18425727368996656,0.11661432459197323,0.025193069292140467,32.7999992371,0.06560984495527027,0.28548272542372954,0.6563328176352989
1648383800212433553,35202,4,0,0.00779683841392,0.0454158857465,0.00862710084766,0.0,39.7000007629,0.0026076382655250835,0.015189259446989964,0.0028853180092508358,39.7000007629,0.0,0.01563052005518803,0.046880915481970015
1648383800212436157,35203,4,1,0.0317701548338,0.0161153152585,-0.0304757971317,0.0,39.7000007629,0.010625469844080268,0.005389737544648829,-0.010192574291538461,39.7000007629,0.0,0.015964037384543907,0.046880916531750985
1648383800212462585,35204,4,2,1.00818312168,-0.064461261034,0.20774179697,0.0,39.7000007629,0.33718499052842804,-0.021558950178595316,0.06947886186287625,39.7000007629,0.0,0.477338688991491,1.0313801991617095
1648383800212469883,35205,4,3,0.502389669418,0.5391305089,-0.139946177602,0.485512852669,39.7000007629,0.16802330080869565,0.18031120698996655,-0.0468047416729097,39.7000007629,0.06560984495527027,0.2982880999897204,0.7500946728181123
