%time,field.header.seq,field.header.frame_id,field.point_id,field.x,field.y,field.z,field.velocity,field.intensity,normalized_x,normalized_y,normalized_z,normalized_intensity,normalized_velocity,normalized_range,range
1648382986794476852,16880,0,0,0.00761736324057,0.0454158857465,0.00878597423434,0.0,18.2000007629,0.0025476131239364546,0.015189259446989964,0.0029384529211839466,18.2000007629,0.0,0.015610710035308464,0.046880915564058843
1648382986794484623,16881,0,1,0.0317215062678,0.0161153152585,-0.0305264294147,0.0,18.2000007629,0.010609199420668895,0.005389737544648829,-0.010209508165451504,18.2000007629,0.0,0.015942380483956582,0.04688091550502805
1648382986899615683,16882,1,0,0.00775850145146,0.0454158857465,0.00866159424186,0.0,21.7999992371,0.0025948165389498325,0.015189259446989964,0.002896854261491639,21.7999992371,0.0,0.015626251895115125,0.04688091549577579
1648382986899624677,16883,1,1,0.0317215062678,0.0161153152585,-0.0305264294147,0.0,21.7999992371,0.010609199420668895,0.005389737544648829,-0.010209508165451504,21.7999992371,0.0,0.015942380483956582,0.04688091550502805
1648382986899628272,16884,1,2,0.625451683998,-0.143572807312,0.137731030583,-0.323675245047,21.7999992371,0.2091811652167224,-0.0480176613083612,0.0460638898270903,21.7999992371,-0.04373989797932432,0.2996985411382176,0.6563328399530516
1648382986899632496,16885,1,3,0.781710028648,-0.0249054860324,0.153229027987,-0.242756426334,21.7999992371,0.2614414811531772,-0.00832959399076923,0.05124716655083612,21.7999992371,-0.03280492247756756,0.36982790358649964,0.7969755248068837
1648382987094626033,16886,3,0,0.00763018382713,0.0454158857465,0.00877484213561,0.0,24.2000007629,0.002551900945528428,0.015189259446989964,0.0029347298112408025,24.2000007629,0.0,0.015612110665107124,0.04688091549745818
1648382987094630722,16887,3,1,0.0317385159433,0.0161153152585,-0.0305087435991,0.0,24.2000007629,0.01061488827535117,0.005389737544648829,-0.010203593176956521,24.2000007629,0.0,0.015949952256874397,0.04688091526580487
1648382987094632949,16888,3,2,0.270687192678,-0.922968029976,-0.209993198514,0.0,24.2000007629,0.0905308336715719,-0.30868495985819394,-0.07023183896789298,24.2000007629,0.0,0.33418268676458157,0.9844992047024799
1648382987094635459,16889,3,3,0.549934387207,0.0234404578805,-0.509573042393,-0.404594063759,24.2000007629,0.18392454421638796,0.007839618020234113,-0.17042576668662207,24.2000007629,-0.05467487348094594,0.2602267002848003,0.7500946412500522
1648382987094699563,16890,3,4,0.627557694912,0.328166425228,0.247224837542,-0.404594063759,24.2000007629,0.20988551669297656,0.10975465726688963,0.08268389215451505,24.2000007629,-0.05467487348094594,0.3164647611136632,0.7500946496195368
1648382987094704618,16891,3,5,0.842049002647,0.0527410283685,-0.01629547216,-0.0809188112617,24.2000007629,0.28162174001571905,0.017639139922575247,-0.00544999068896321,24.2000007629,-0.010934974494824324,0.3986637030834017,0.8438564340840755
1648382987199693184,16892,4,0,0.00765752140433,0.0454158857465,0.00875099562109,0.0,18.7000007629,0.0025610439479364544,0.015189259446989964,0.0029267543883244145,18.7000007629,0.0,0.015615104698800382,0.0468809154833526
1648382987199697604,16893,4,1,0.0317974686623,0.0161153152585,-0.0304472967982,0.0,18.7000007629,0.010634604903779264,0.005389737544648829,-0.010183042407424748,18.7000007629,0.0,0.015976198350019604,0.04688091596298513
1648382987199700716,16894,4,2,0.840129733086,0.079111546278,0.0041375127621,0.0,18.7000007629,0.28097984384147157,0.026458711129765885,0.0013837835324749161,18.7000007629,0.0,0.3982454126352291,0.8438564594654154
1648382987394653974,16895,6,0,0.00759660825133,0.0454158857465,0.00880392547697,0.0,18.1000003815,0.0025406716559632104,0.015189259446989964,0.0029444566812608696,18.1000003815,0.0,0.015608447311465786,0.04688091550799065
1648382987394664053,16896,6,1,0.0317120365798,0.0161153152585,-0.0305362660438,0.0,18.1000003815,0.010606032300936454,0.005389737544648829,-0.010212798007959866,18.1000003815,0.0,0.015938165300222358,0.046880915027515714
1648382987394665988,16897,6,2,0.840114474297,0.0527410283685,0.0593274012208,0.0,18.1000003815,0.2809747405675585,0.017639139922575247,0.019841940207625416,18.1000003815,0.0,0.3977496058215794,0.8438564371575923
1648382987394668026,16898,6,3,0.771416902542,0.527410328388,0.0766969397664,0.485512852669,18.1000003815,0.25799896406086953,0.1763914141765886,0.02565115042354515,18.1000003815,0.06560984495527027,0.40526640856130736,0.9376183192468897
