%time,field.header.seq,field.header.frame_id,field.point_id,field.x,field.y,field.z,field.velocity,field.intensity,normalized_x,normalized_y,normalized_z,normalized_intensity,normalized_velocity,normalized_range,range
1648383687406747180,32118,0,0,0.00775059545413,0.0454158857465,0.00866866949946,0.0,25.6000003815,0.0025921723926856186,0.015189259446989964,0.0028992205683812705,25.6000003815,0.0,0.01562537417071274,0.04688091550859038
1648383687406752489,32119,0,1,0.031666520983,0.0161153152585,-0.0305834636092,0.0,25.6000003815,0.010590809693311035,0.005389737544648829,-0.010228583146889632,25.6000003815,0.0,0.01591790723430876,0.04688091491623092
1648383687406765516,32120,0,2,0.97411864996,0.128922522068,0.313395708799,0.0,25.6000003815,0.32579219062207354,0.04311790035719063,0.10481461832742474,25.6000003815,0.0,0.46275291060334955,1.0313801584236022
1648383687406846583,32121,0,3,0.216164022684,-0.328166425228,-0.638922452927,0.0809188112617,25.6000003815,0.07229565976053512,-0.10975465726688963,-0.21368643910602006,25.6000003815,0.010934974494824324,0.14999803209440624,0.7500946528299665
1648383687406859092,32122,0,4,0.107219852507,-0.373582303524,-0.695780277252,-0.0809188112617,25.6000003815,0.03585948244381271,-0.12494391422207357,-0.23270243386354514,25.6000003815,-0.010934974494824324,0.13484356367068137,0.7969755507484473
1648383687512282867,32123,1,0,0.00777089362964,0.0454158857465,0.00865047797561,0.0,12.6999998093,0.002598961080147157,0.015189259446989964,0.0028931364466923074,12.6999998093,0.0,0.015627629376850898,0.046880915468331404
1648383687512323066,32124,1,1,0.0317701548338,0.0161153152585,-0.0304757971317,0.0,12.6999998093,0.010625469844080268,0.005389737544648829,-0.010192574291538461,12.6999998093,0.0,0.015964037384543907,0.046880916531750985
1648383687512346576,32125,1,2,1.06890439987,0.134782627225,0.0438631288707,0.0,12.6999998093,0.3574931103244147,0.04507780174749164,0.0146699427661204,12.6999998093,0.0,0.5075772414807764,1.0782610754068078
1648383687512447755,32126,1,3,0.429951429367,-0.28568059206,-0.477533191442,0.323675245047,12.6999998093,0.14379646467123744,-0.09554534851505017,-0.1597100974722408,12.6999998093,0.04373989797932432,0.22468591439330432,0.7032137521573795
1648383687512474183,32127,1,4,0.38773471117,-0.205104023218,-0.488228350878,0.485512852669,12.6999998093,0.1296771609264214,-0.06859666328361204,-0.16328707387224078,12.6999998093,0.06560984495527027,0.19580049628517093,0.6563328341530269
1648383687512514191,32128,1,5,1.02670276165,-0.064461261034,-0.0739666894078,-0.161837622523,12.6999998093,0.34337885005016716,-0.021558950178595316,-0.024738023213311037,12.6999998093,-0.021869948989594594,0.4860893515150826,1.031380088083816
1648383687707236163,32129,3,0,0.00775059545413,0.0454158857465,0.00866866949946,0.0,34.5,0.0025921723926856186,0.015189259446989964,0.0028992205683812705,34.5,0.0,0.01562537417071274,0.04688091550859038
1648383687707284442,32130,3,1,0.0317368544638,0.0161153152585,-0.0305104702711,0.0,34.5,0.010614332596588628,0.005389737544648829,-0.01020417065923077,34.5,0.0,0.015949212637061585,0.04688091416878453
1648383687707323305,32131,3,2,1.61004519463,0.240264698863,1.02203893661,0.161837622523,34.5,0.538476653722408,0.08035608657625418,0.34181904234448157,34.5,0.021869948989594594,0.7657488582152863,1.922117645259463
1648383687707386482,32132,3,3,0.564915001392,0.114272229373,0.198102369905,0.242756426334,34.5,0.1889347830742475,0.03821813691404682,0.06625497321237457,34.5,0.03280492247756756,0.2699135611632116,0.6094519260496076
1648383687812289502,32133,4,0,0.00777089362964,0.0454158857465,0.00865047797561,0.0,39.7000007629,0.002598961080147157,0.015189259446989964,0.0028931364466923074,39.7000007629,0.0,0.015627629376850898,0.046880915468331404
1648383687812353759,32134,4,1,0.0316940024495,0.0161153152585,-0.0305549837649,0.0,39.7000007629,0.010600000819230768,0.005389737544648829,-0.01021905811535117,39.7000007629,0.0,0.01593013827735287,0.046880915200356935
1648383687812433063,32135,4,2,1.05010402203,0.168478280306,0.177605032921,0.0,39.7000007629,0.3512053585384615,0.05634725093846154,0.05939967656220735,39.7000007629,0.0,0.4998654023040408,1.0782610703059436
1648383687812459264,32136,4,3,0.548533022404,0.20949909091,0.163258314133,0.485512852669,39.7000007629,0.18345586033578595,0.07006658558862876,0.05460144285384615,39.7000007629,0.06560984495527027,0.2687404543404946,0.6094519036752063
1648383687812491679,32137,4,4,0.379805028439,0.205104023218,-0.49442216754,-0.647350490093,39.7000007629,0.12702509312341137,0.06859666328361204,-0.16535858446153845,39.7000007629,-0.08747979595851352,0.1922920975486718,0.6563328421789598
1648383687812530773,32138,4,5,0.457419276237,0.451228827238,0.133913964033,-0.647350490093,39.7000007629,0.15298303553076922,0.15091265125016723,0.04478727894080267,39.7000007629,-0.08747979595851352,0.26378447002765687,0.6563328412983715
