%time,field.header.seq,field.header.frame_id,field.point_id,field.x,field.y,field.z,field.velocity,field.intensity,normalized_x,normalized_y,normalized_z,normalized_intensity,normalized_velocity,normalized_range,range
1648383804307234073,35310,0,0,0.0077766450122,0.0454158857465,0.008645308204,0.0,26.2999992371,0.002600884619464883,0.015189259446989964,0.0028914074260869564,26.2999992371,0.0,0.015628269390931034,0.046880915517159706
1648383804307274153,35311,0,1,0.0316766984761,0.0161153152585,-0.030572924763,0.0,26.2999992371,0.01059421353715719,0.005389737544648829,-0.01022505844916388,26.2999992371,0.0,0.015922436740083677,0.04688091659503532
1648383804307276899,35312,0,2,0.922096848488,-0.0293005723506,0.167352765799,0.0,26.2999992371,0.3083935948120401,-0.009799522525284281,0.05597082468193979,26.2999992371,0.0,0.4362444833850728,0.9376182964043254
1648383804307295107,35313,0,3,0.624969601631,-0.082041606307,0.18290707469,0.161837622523,26.2999992371,0.20901993365585284,-0.027438664316722407,0.061172934678929765,26.2999992371,0.021869948989594594,0.2968695768018003,0.6563328622733261
1648383804307351748,35314,0,4,0.653647124767,-0.0410208031535,0.0428433008492,-0.242756426334,26.2999992371,0.2186110785173913,-0.013719332158361203,0.014328863160267559,26.2999992371,-0.03280492247756756,0.30946700531065585,0.6563328564342786
1648383804412742655,35315,1,0,0.00779683841392,0.0454158857465,0.00862710084766,0.0,36.4000015259,0.0026076382655250835,0.015189259446989964,0.0028853180092508358,36.4000015259,0.0,0.01563052005518803,0.046880915481970015
1648383804412763741,35316,1,1,0.0316766984761,0.0161153152585,-0.030572924763,0.0,36.4000015259,0.01059421353715719,0.005389737544648829,-0.01022505844916388,36.4000015259,0.0,0.015922436740083677,0.04688091659503532
1648383804412786852,35317,1,2,0.631850421429,0.0410208031535,0.172786340117,0.0809188112617,36.4000015259,0.21132121118026756,0.013719332158361203,0.05778807361772575,36.4000015259,0.010934974494824324,0.29916806090266707,0.6563328276738798
1648383804412867290,35318,1,3,0.954029858112,-0.061531201005,0.235116198659,0.0809188112617,36.4000015259,0.3190735311411371,-0.020578996991638794,0.0786341801535117,36.4000015259,0.010934974494824324,0.45170713041408844,0.9844992055548745
1648383804607430903,35319,3,0,0.00779683841392,0.0454158857465,0.00862710084766,0.0,16.0,0.0026076382655250835,0.015189259446989964,0.0028853180092508358,16.0,0.0,0.01563052005518803,0.046880915481970015
1648383804607493943,35320,3,1,0.0316766984761,0.0161153152585,-0.030572924763,0.0,16.0,0.01059421353715719,0.005389737544648829,-0.01022505844916388,16.0,0.0,0.015922436740083677,0.04688091659503532
1648383804607630422,35321,3,2,0.964960455894,-0.061531201005,0.185213372111,0.0,16.0,0.32272924946287623,-0.020578996991638794,0.0619442716090301,16.0,0.0,0.4568717894934253,0.9844992449692391
1648383804607643752,35322,3,3,0.572879731655,0.351606875658,0.206618025899,0.161837622523,16.0,0.1915985724598662,0.11759427279531771,0.06910301869531772,16.0,0.021869948989594594,0.2953784672781291,0.703213758808433
1648383804607651667,35323,3,4,0.558706223965,0.39555773139,0.160906910896,0.323675245047,16.0,0.18685826888461537,0.13229355564882941,0.05381502036655518,16.0,0.04373989797932432,0.2955226051714494,0.7032137637544685
1648383804607668712,35324,3,5,1.34404170513,-0.219754293561,0.351138591766,-0.647350490093,16.0,0.44951227596321064,-0.07349641925117056,0.11743765610903009,16.0,-0.08747979595851352,0.6399408536153909,1.4064275186779664
1648383804607715723,35325,3,6,0.487438589334,0.659262895584,1.14272236824,-0.647350490093,16.0,0.16302293957658862,0.22048926273712371,0.3821813940602007,16.0,-0.08747979595851352,0.3190117123848974,1.4064275149262953
1648383804712931708,35326,4,0,0.0077766450122,0.0454158857465,0.008645308204,0.0,14.5,0.002600884619464883,0.015189259446989964,0.0028914074260869564,14.5,0.0,0.015628269390931034,0.046880915517159706
1648383804712961291,35327,4,1,0.0316501222551,0.0161153152585,-0.0306004323065,0.0,14.5,0.010585325168929766,0.005389737544648829,-0.010234258296488294,14.5,0.0,0.01591060931153025,0.04688091383482523
1648383804712997951,35328,4,2,0.97005969286,-0.061531201005,0.156322851777,0.0,14.5,0.3244346798862876,-0.020578996991638794,0.0522818902264214,14.5,0.0,0.45928119724523636,0.9844992282355782
1648383804713028047,35329,4,3,2.56917309761,0.167013257742,0.715662956238,0.0,14.5,0.8592552165919731,0.05585727683678929,0.23935215927692308,14.5,0.0,1.2164534885710423,2.6722120613222056
1648383804713067264,35330,4,4,0.595746934414,0.373582303524,-0.00560820102692,0.404594063759,14.5,0.1992464663591973,0.12494391422207357,-0.0018756525173645483,14.5,0.05467487348094594,0.30823577082224957,0.7032137650023179
