%time,field.header.seq,field.header.frame_id,field.point_id,field.x,field.y,field.z,field.velocity,field.intensity,normalized_x,normalized_y,normalized_z,normalized_intensity,normalized_velocity,normalized_range,range
1648465359709178362,95200,0,0,0.0133034354076,0.0439508594573,0.00944249983877,0.0,13.8000001907,0.004449309500869565,0.014699284099431437,0.0031580267019297656,13.8000001907,0.0,0.01598942347631253,0.046880915561502146
1648465359709354835,95201,0,1,0.0337206497788,0.0146502861753,-0.0290879197419,0.0,13.8000001907,0.011277809290568562,0.0048997612626421405,-0.00972840125147157,13.8000001907,0.0,0.01668489212490622,0.04688091489544425
1648465359709362335,95202,0,2,2.55191922188,-0.75155967474,0.252158761024,0.0,13.8000001907,0.8534846895919732,-0.25135775074916383,0.08433403378729096,13.8000001907,0.0,1.23290427430417,2.6722121361256255
1648465359709369158,95203,0,3,0.393935978413,-0.079111546278,0.12876033783,-0.161837622523,13.8000001907,0.13175116334882941,-0.026458711129765885,0.04306365813712374,13.8000001907,-0.021869948989594594,0.18819352136082756,0.4219282124257626
1648465359709373644,95204,0,4,0.814923882484,-0.0527410283685,0.212629124522,-0.161837622523,13.8000001907,0.2725497934729097,-0.017639139922575247,0.07111341957257525,13.8000001907,-0.021869948989594594,0.3858470151516785,0.8438564421222104
1648465359709376603,95205,0,5,0.46546331048,0.263705134392,-0.652608036995,-0.161837622523,13.8000001907,0.15567334798662205,0.08819569712107023,-0.21826355752341137,13.8000001907,-0.021869948989594594,0.23716421217670974,0.8438564695836437
1648465359798843819,95206,1,0,0.385333776474,0.0527410283685,0.163583889604,0.0,14.5,0.12887417273377927,0.017639139922575247,0.05471033097123745,14.5,0.0,0.18310719279383905,0.4219282217428163
1648465359798853736,95207,1,1,2.17545843124,-0.9713139534,0.201144695282,0.0,14.5,0.7275780706488294,-0.3248541650167224,0.06727247333846154,14.5,0.0,1.0790134041367874,2.390926466991996
1648465359798917700,95208,1,2,0.403859317303,-0.039555773139,0.115570031106,-0.161837622523,14.5,0.13507000578695652,-0.013229355564882942,0.03865218431638796,14.5,-0.021869948989594594,0.19147539992186732,0.42192823969356574
1648465360008922095,95209,3,0,2.17500257492,-0.9713139534,0.206016927958,0.0,29.8999996185,0.7274256103411372,-0.3248541650167224,0.06890198259464883,29.8999996185,0.0,1.0788077983074944,2.3909265926797962
1648465360009059164,95210,3,1,0.378383666277,0.171408340335,0.0739487335086,0.0809188112617,29.8999996185,0.12654972116287624,0.05732720412541805,0.024732017895852842,29.8999996185,0.010934974494824324,0.18792570921947002,0.42192823232055615
1648465360099024493,95211,4,0,0.0132978465408,0.0439508594573,0.0094503685832,0.0,16.7999992371,0.004447440314648829,0.014699284099431437,0.0031606583890301,16.7999992371,0.0,0.01598838339984769,0.04688091547758359
1648465360099034974,95212,4,1,0.0337118916214,0.0146502861753,-0.0290980711579,0.0,16.7999992371,0.011274880140936454,0.0048997612626421405,-0.009731796373879597,16.7999992371,0.0,0.016680932372498097,0.04688091580612966
1648465360099039969,95213,4,2,0.820611059666,-0.0,0.196700811386,0.0,16.7999992371,0.2744518594200669,-0.0,0.06578622454381271,16.7999992371,0.0,0.3881335418103727,0.8438564572521006
1648465360099043680,95214,4,3,2.17076659203,-0.9713139534,0.246680855751,0.0,16.7999992371,0.7260088936555184,-0.3248541650167224,0.08250195844515049,16.7999992371,0.0,1.0768974212349713,2.3909265646893307
1648465360099050504,95215,4,4,0.325476914644,0.250519871712,0.0965816155076,0.161837622523,16.7999992371,0.1088551553993311,0.08378591027157191,0.03230154364802675,16.7999992371,0.021869948989594594,0.17526827572056772,0.421928236247389
1648465360309110965,95216,6,0,0.0133259519935,0.0439508594573,0.00941069517285,0.0,24.0,0.004456840131605351,0.014699284099431437,0.003147389689916388,24.0,0.0,0.015993617506779818,0.04688091538360472
1648465360309115749,95217,6,1,0.0336321368814,0.0146502861753,-0.0291902143508,0.0,24.0,0.011248206314849497,0.0048997612626421405,-0.009762613495250835,24.0,0.0,0.016644877621470478,0.04688091434766458
1648465360309118504,95218,6,2,2.18235874176,-0.9713139534,0.101928733289,0.0,24.0,0.7298858668093645,-0.3248541650167224,0.0340898773541806,24.0,0.0,1.0821261412907586,2.390926586174433
