%time,field.header.seq,field.header.frame_id,field.point_id,field.x,field.y,field.z,field.velocity,field.intensity,normalized_x,normalized_y,normalized_z,normalized_intensity,normalized_velocity,normalized_range,range
1648465355193724524,95073,0,0,0.0133034354076,0.0439508594573,0.00944249983877,0.0,16.8999996185,0.004449309500869565,0.014699284099431437,0.0031580267019297656,16.8999996185,0.0,0.01598942347631253,0.046880915561502146
1648465355193743201,95074,0,1,0.0336321368814,0.0146502861753,-0.0291902143508,0.0,16.8999996185,0.011248206314849497,0.0048997612626421405,-0.009762613495250835,16.8999996185,0.0,0.016644877621470478,0.04688091434766458
1648465355193753003,95075,0,2,0.950772821903,0.370652228594,0.348273903131,0.0809188112617,16.8999996185,0.3179842213722408,0.12396395605150501,0.11647956626454849,16.8999996185,0.010934974494824324,0.4664707841691267,1.078260981874608
1648465355193783779,95076,0,3,0.875635743141,0.0293005723506,0.333963423967,0.161837622523,16.8999996185,0.29285476359230767,0.009799522525284281,0.11169345283177257,16.8999996185,0.021869948989594594,0.41427509671610285,0.9376182841401539
1648465355298820732,95077,1,0,0.252997934818,-0.105482056737,0.063143581152,-0.242756426334,18.2000007629,0.08461469391906354,-0.035278279845150494,0.021118254565886285,18.2000007629,-0.03280492247756756,0.12475515974446254,0.28128549759335236
1648465355508967146,95078,3,0,2.17235326767,-0.9713139534,0.232294023037,0.0,34.7999992371,0.7265395544046823,-0.3248541650167224,0.07769030870802675,34.7999992371,0.0,1.077612953131977,2.3909266046377877
1648465355508973410,95079,3,1,0.234727576375,0.105482056737,0.113569505513,0.161837622523,34.7999992371,0.07850420614548494,0.035278279845150494,0.03798311221170569,34.7999992371,0.021869948989594594,0.11649196450355853,0.28128549906956896
1648465355598998434,95080,4,0,0.0133259519935,0.0439508594573,0.00941069517285,0.0,18.7000007629,0.004456840131605351,0.014699284099431437,0.003147389689916388,18.7000007629,0.0,0.015993617506779818,0.04688091538360472
1648465355599007634,95081,4,1,0.0336853861809,0.0146502861753,-0.0291287489235,0.0,18.7000007629,0.011266015445117057,0.0048997612626421405,-0.009742056496153846,18.7000007629,0.0,0.016668949230534018,0.04688091446444766
1648465355599018772,95082,4,2,2.17323255539,-0.9713139534,0.223918601871,0.0,18.7000007629,0.7268336305652173,-0.3248541650167224,0.07488916450535116,18.7000007629,0.0,1.0780094997586716,2.3909266145451538
1648465355599022291,95083,4,3,0.228491172194,0.131852582097,0.0976125374436,0.161837622523,18.7000007629,0.07641845223879598,0.04409785354414715,0.03264633359317726,18.7000007629,0.021869948989594594,0.11672266434736374,0.28128548956960525
1648465355809144525,95084,6,0,0.0133034354076,0.0439508594573,0.00944249983877,0.0,20.8999996185,0.004449309500869565,0.014699284099431437,0.0031580267019297656,20.8999996185,0.0,0.01598942347631253,0.046880915561502146
1648465355809165762,95085,6,1,0.0336091145873,0.0146502861753,-0.0292167179286,0.0,20.8999996185,0.011240506550936455,0.0048997612626421405,-0.009771477568093644,20.8999996185,0.0,0.016634471301312202,0.046880913759010975
1648465355809173404,95086,6,2,0.874264001846,0.0278355441988,0.16822847724,0.0,20.8999996185,0.29239598723946486,0.009309546554782609,0.056263704762541805,20.8999996185,0.0,0.4136151524842123,0.890737437744207
1648465355809180774,95087,6,3,2.1339392662,-1.04603040218,0.262018114328,0.0,20.8999996185,0.7136920622742474,-0.34984294387290965,0.08763147636387959,20.8999996185,0.0,1.068224136070797,2.3909265748556665
1648465355809190524,95088,6,4,0.224055707455,0.23586961627,0.0431017801166,0.161837622523,20.8999996185,0.07493501921571906,0.07888615928762541,0.014415311075785952,20.8999996185,0.021869948989594594,0.13211184782930324,0.3281664202378685
