%time,field.header.seq,field.header.frame_id,field.point_id,field.x,field.y,field.z,field.velocity,field.intensity,normalized_x,normalized_y,normalized_z,normalized_intensity,normalized_velocity,normalized_range,range
1648383700106709590,32511,0,0,0.00770388310775,0.0454158857465,0.00871020928025,0.0,25.2000007629,0.0025765495343645483,0.015189259446989964,0.002913113471655518,25.2000007629,0.0,0.015620205426115311,0.04688091550708849
1648383700106713410,32512,0,1,0.031720533967,0.0161153152585,-0.0305274389684,0.0,25.2000007629,0.01060887423645485,0.005389737544648829,-0.010209845808829431,25.2000007629,0.0,0.015941947683079008,0.04688091499748945
1648383700106719765,32513,0,2,0.979767918587,-0.0,0.0964032411575,0.0,25.2000007629,0.32768157812274246,-0.0,0.032241886674749164,25.2000007629,0.0,0.46341173192100127,0.9844992428630778
1648383700106732577,32514,0,3,0.0682657957077,-0.0615312047303,-0.649866521358,0.566431701183,25.2000007629,0.022831369801906354,-0.020578998237558526,-0.21734666266153846,25.2000007629,0.07654482448418919,0.03828887648553088,0.6563328451335614
1648383700106744863,32515,0,4,0.591329932213,-0.114272229373,0.0932865738869,-0.485512852669,25.2000007629,0.1977692080979933,-0.03821813691404682,0.031199523039096986,25.2000007629,-0.06560984495527027,0.2822869910792837,0.6094518980235132
1648383700211728722,32516,1,0,0.00784974731505,0.0454158857465,0.00857898779213,0.0,29.6000003815,0.0026253335501839467,0.015189259446989964,0.0028692266863311034,29.6000003815,0.0,0.01563644317123996,0.0468809155476596
1648383700211731692,32517,1,1,0.0316930636764,0.0161153152585,-0.0305559579283,0.0,29.6000003815,0.010599686848294314,0.005389737544648829,-0.010219383922508362,29.6000003815,0.0,0.01592972044211712,0.04688091547733712
1648383700211733295,32518,1,2,1.02718162537,-0.0,0.0929671823978,0.0,29.6000003815,0.34353900514046815,-0.0,0.03109270314307692,29.6000003815,0.0,0.4858375202738105,1.0313801377284424
1648383700211740055,32519,1,3,0.570404827595,0.0380907431245,0.211232155561,0.161837622523,29.6000003815,0.1907708453494983,0.01273937897140468,0.07064620587324415,29.6000003815,0.021869948989594594,0.2700913227915726,0.6094518812821934
1648383700211746283,32520,1,4,0.581907570362,-0.0190453715622,0.180145680904,-0.0809188112617,29.6000003815,0.1946179165090301,-0.006369689485685618,0.060249391606688955,29.6000003815,-0.010934974494824324,0.27530499413700377,0.6094518955347616
1648383700406523190,32521,3,0,0.00782988686115,0.0454158857465,0.00859711784869,0.0,14.1000003815,0.0026186912579096986,0.015189259446989964,0.002875290250397993,14.1000003815,0.0,0.015634215373867638,0.046880915538221046
1648383700406533862,32522,3,1,0.0317196249962,0.0161153152585,-0.0305283833295,0.0,14.1000003815,0.010608570232842809,0.005389737544648829,-0.010210161648662206,14.1000003815,0.0,0.01594154307369629,0.046880914928073794
1648383700406542971,32523,3,2,0.734415888786,-0.0,0.582890570164,0.0,14.1000003815,0.24562404307224076,-0.0,0.19494667898461537,14.1000003815,0.0,0.3473648529576761,0.9376183202601384
1648383700406554841,32524,3,3,1.01508724689,-0.0,-0.182600185275,0.0,14.1000003815,0.33949406250501674,-0.0,-0.061070296078595314,14.1000003815,0.0,0.4801171075397339,1.031380117348199
1648383700406570801,32525,3,4,0.0229102261364,0.354536950588,0.968258082867,0.0,14.1000003815,0.007662282988762542,0.11857423096588628,0.32383213473812705,14.1000003815,0.0,0.11906833924411268,1.0313801640671287
1648383700406578607,32526,3,5,0.553032815456,0.287145614624,0.206094384193,0.323675245047,14.1000003815,0.18496080784481606,0.0960353226167224,0.06892788768996655,14.1000003815,0.04373989797932432,0.27864634228231294,0.6563328379449537
1648383700406589741,32527,3,6,0.56053173542,0.351606875658,0.238088920712,0.485512852669,14.1000003815,0.18746880783277592,0.11759427279531771,0.07962840157591973,14.1000003815,0.06560984495527027,0.2900302067280995,0.7032137339306892
1648383700512020884,32528,4,0,0.00772431911901,0.0454158857465,0.00869209133089,0.0,31.7999992371,0.0025833843207391303,0.015189259446989964,0.0029070539568193977,31.7999992371,0.0,0.015622463046691949,0.04688091547416686
1648383700512027485,32529,4,1,0.031720533967,0.0161153152585,-0.0305274389684,0.0,31.7999992371,0.01060887423645485,0.005389737544648829,-0.010209845808829431,31.7999992371,0.0,0.015941947683079008,0.04688091499748945
1648383700512029863,32530,4,2,0.964144468307,-0.061531201005,0.189415112138,0.0,31.7999992371,0.3224563439153846,-0.020578996991638794,0.06334953583210702,31.7999992371,0.0,0.4564862348195567,0.9844992276128796
1648383700512072746,32531,4,3,2.51736855507,0.164083212614,0.726840734482,0.0,31.7999992371,0.841929282632107,0.054877328633444813,0.24309054664949833,31.7999992371,0.0,1.1919317745176405,2.625331444983525
1648383700512080651,32532,4,4,0.51793718338,0.5391305089,0.0610032752156,0.242756426334,31.7999992371,0.17322313825418062,0.18031120698996655,0.020402433182474915,31.7999992371,0.03280492247756756,0.30417863603388146,0.7500946814512226
1648383700512086094,32533,4,5,0.55467325449,0.34867683053,0.0391773693264,0.323675245047,31.7999992371,0.18550944966220737,0.11661432459197323,0.013102799105819397,31.7999992371,0.04373989797932432,0.2871000044026335,0.6563328558455015
1648383700512092417,32534,4,6,1.09353303909,0.140642747283,0.224386915565,0.323675245047,31.7999992371,0.36573011340802675,0.047037708121404675,0.07504579115886287,31.7999992371,0.04373989797932432,0.519354963095772,1.1251419367446474
1648383700706657195,32535,6,0,0.00772431911901,0.0454158857465,0.00869209133089,0.0,16.2999992371,0.0025833843207391303,0.015189259446989964,0.0029070539568193977,16.2999992371,0.0,0.015622463046691949,0.04688091547416686
1648383700706682844,32536,6,1,0.0317032895982,0.0161153152585,-0.0305453501642,0.0,16.2999992371,0.010603106889030099,0.005389737544648829,-0.010215836175317725,16.2999992371,0.0,0.015934271938202644,0.046880916947962654
1648383700706687507,32537,6,2,0.92388856411,-0.0293005723506,0.157160833478,0.0,16.2999992371,0.30899283080602,-0.009799522525284281,0.05256215166488294,16.2999992371,0.0,0.43709171763001753,0.937618328539289
1648383700706690242,32538,6,3,1.06211090088,-0.0336956568062,0.182844012976,0.0,16.2999992371,0.355221037083612,-0.011269450436856187,0.06115184380468227,16.2999992371,0.0,0.5024847966721605,1.0782610519428466
