%time,field.header.seq,field.header.frame_id,field.point_id,field.x,field.y,field.z,field.velocity,field.intensity,normalized_x,normalized_y,normalized_z,normalized_intensity,normalized_velocity,normalized_range,range
1648539280000182351,11903,0,0,0.00628270860761,0.0454158857465,0.00978494435549,0.0,12.3000001907,0.0021012403369933107,0.015189259446989964,0.003272556640632107,12.3000001907,0.0,0.015477209840781684,0.04688091553742646
1648539280000190575,11904,0,1,0.0341105870903,0.0146502861753,-0.0286296512932,0.0,12.3000001907,0.011408223107123746,0.0048997612626421405,-0.009575134211772574,12.3000001907,0.0,0.016861280181371546,0.04688091263865664
1648539280000198105,11905,0,2,0.300865828991,-1.18081307411,0.0297775734216,0.0,12.3000001907,0.10062402307391304,-0.39492076057190634,0.00995905465605351,12.3000001907,0.0,0.4197770779471549,1.2189037972384977
1648539280000202270,11906,0,3,2.50282979012,-0.079111546278,0.372060239315,0.0,12.3000001907,0.837066819438127,-0.026458711129765885,0.12443486264715718,12.3000001907,0.0,1.184086898754974,2.5315695559762434
1648539280000207616,11907,0,4,0.594745576382,-0.266635209322,0.0771763473749,0.161837622523,12.3000001907,0.19891156400735785,-0.0891756552916388,0.025811487416354514,12.3000001907,0.021869948989594594,0.2950998442703751,0.656332860727143
1648539280105364792,11908,1,0,0.00638589914888,0.0454158857465,0.00971791427583,0.0,27.0,0.0021357522237056854,0.015189259446989964,0.0032501385537892975,27.0,0.0,0.015486654825045383,0.04688091556221133
1648539280105408924,11909,1,1,0.0341105870903,0.0146502861753,-0.0286296512932,0.0,27.0,0.011408223107123746,0.0048997612626421405,-0.009575134211772574,27.0,0.0,0.016861280181371546,0.04688091263865664
1648539280105424674,11910,1,2,0.867279171944,0.293005734682,0.202737703919,0.0,27.0,0.2900599237270903,0.09799522899063544,0.06780525214682274,27.0,0.0,0.4217494322581335,0.9376183121263987
1648539280105430089,11911,1,3,0.407757222652,-1.0987714529,-0.00854964274913,0.0,27.0,0.13637365306086954,-0.3674820912709029,-0.0028594122906789297,27.0,0.0,0.4150164260642813,1.1720229326783616
1648539280105434820,11912,1,4,1.1492497921,0.219754308462,-0.0676077157259,0.0,27.0,0.3843644789632107,0.0734964242347826,-0.02261127616250836,27.0,0.0,0.5485196712540217,1.1720229707455307
1648539280105445842,11913,1,5,2.50310254097,-0.079111546278,0.370220959187,0.0,27.0,0.837158040458194,-0.026458711129765885,0.12381971879163878,27.0,0.0,1.184215872551223,2.5315695775519007
1648539280105458019,11914,1,6,0.534680724144,-0.369187235832,0.0926828160882,0.242756426334,27.0,0.17882298466354515,-0.12347399191705685,0.030997597353913043,27.0,0.03280492247756756,0.28142698230249785,0.6563328395490082
1648539280105532507,11915,1,7,0.481561779976,-0.184593617916,0.405951052904,0.242756426334,27.0,0.16105745149698997,-0.061736995958528426,0.13576958291103677,27.0,0.03280492247756756,0.2359882667324668,0.6563328492943484
1648539280300833435,11916,3,0,0.00634937547147,0.0454158857465,0.0097418166697,0.0,31.2000007629,0.002123536946979933,0.015189259446989964,0.003258132665451505,31.2000007629,0.0,0.01548329489735152,0.046880915509862765
1648539280300860042,11917,3,1,0.0342184342444,0.0146502861753,-0.0285006649792,0.0,31.2000007629,0.011444292389431437,0.0048997612626421405,-0.00953199497632107,31.2000007629,0.0,0.016910095121568214,0.04688091329542451
1648539280301028162,11918,3,2,0.605340540409,-0.164083212614,0.193422809243,0.0809188112617,31.2000007629,0.20245503023712372,-0.054877328633444813,0.06468990275685618,31.2000007629,0.010934974494824324,0.29152632768683595,0.6563328832687306
1648539280405927412,11919,4,0,0.00628270860761,0.0454158857465,0.00978494435549,0.0,16.2000007629,0.0021012403369933107,0.015189259446989964,0.003272556640632107,16.2000007629,0.0,0.015477209840781684,0.04688091553742646
1648539280406008589,11920,4,1,0.034159488976,0.0146502861753,-0.0285712908953,0.0,16.2000007629,0.011424578252842809,0.0048997612626421405,-0.009555615684046823,16.2000007629,0.0,0.016883413071459994,0.04688091547254068
1648539280406262589,11921,4,2,0.620788156986,-0.102552011609,0.186756506562,0.0,16.2000007629,0.20762145718595315,-0.03429833164180602,0.06246037008762541,16.2000007629,0.0,0.2956175138949796,0.6563328756678042
1648539280406302472,11922,4,3,0.889846086502,0.36918720603,0.202764555812,0.0,16.2000007629,0.29760738678996657,0.12347398194983276,0.06781423271304347,16.2000007629,0.0,0.4386184418859439,0.9844992208492601
1648539280600812824,11923,6,0,0.00638589914888,0.0454158857465,0.00971791427583,0.0,13.8999996185,0.0021357522237056854,0.015189259446989964,0.0032501385537892975,13.8999996185,0.0,0.015486654825045383,0.04688091556221133
1648539280600875700,11924,6,1,0.0341105870903,0.0146502861753,-0.0286296512932,0.0,13.8999996185,0.011408223107123746,0.0048997612626421405,-0.009575134211772574,13.8999996185,0.0,0.016861280181371546,0.04688091263865664
1648539280600898057,11925,6,2,0.631985366344,-0.0205104015768,0.175916492939,0.0,13.8999996185,0.2113663432588629,-0.006859666079197324,0.05883494747123745,13.8999996185,0.0,0.29899584803800366,0.6563328365499922
1648539280600937423,11926,6,3,0.876808047295,0.32230630517,0.0803394243121,0.0,13.8999996185,0.2932468385602006,0.10779475089297658,0.026869372679632107,13.8999996185,0.0,0.42849401976128393,0.9376183281337922
1648539280600996462,11927,6,4,0.622970998287,0.0615312047303,0.197215273976,-0.323675245047,13.8999996185,0.20835150444381267,0.020578998237558526,0.06595828561070234,13.8999996185,-0.04373989797932432,0.29537128157026643,0.6563328562183156
1648539280601020090,11928,6,5,0.619423568249,0.0205104015768,0.216024369001,-0.161837622523,13.8999996185,0.20716507299297657,0.006859666079197324,0.07224895284314381,13.8999996185,-0.021869948989594594,0.2930559502127345,0.6563328130433869
