%time,field.header.seq,field.header.frame_id,field.point_id,field.x,field.y,field.z,field.velocity,field.intensity,normalized_x,normalized_y,normalized_z,normalized_intensity,normalized_velocity,normalized_range,range
1648479474821910693,71746,0,0,0.0130513049662,0.0439508594573,0.00978803448379,0.0,12.3999996185,0.004364984938528427,0.014699284099431437,0.0032735901283578593,12.3999996185,0.0,0.01594287113612093,0.046880915385815104
1648479474821914052,71747,0,1,0.0339376479387,0.0146502861753,-0.0288344435394,0.0,12.3999996185,0.011350383925986621,0.0048997612626421405,-0.00964362660180602,12.3999996185,0.0,0.016783029850580597,0.046880912606904114
1648479474821930265,71748,0,2,1.25649762154,0.118667319417,0.0966587886214,0.0,12.3999996185,0.4202333182408027,0.039688066694648826,0.03232735405397993,12.3999996185,0.0,0.5956233928895929,1.2657847870199144
1648479474821959639,71749,0,3,1.93776035309,-1.31852579117,0.0335514061153,0.0,12.3999996185,0.6480803856488294,-0.44097852547491634,0.01122120605862876,12.3999996185,0.0,1.0170931287033171,2.3440458922214535
1648479474821979523,71750,0,4,0.772228419781,-0.149432912469,0.128464281559,-0.0809188112617,12.3999996185,0.2582703745086956,-0.04997756269866221,0.04296464266187291,12.3999996185,-0.010934974494824324,0.36865285767375044,0.7969755324242384
1648479474822029761,71751,0,5,0.761021792889,-0.199243888259,0.1277410537,-0.0809188112617,12.3999996185,0.2545223387588628,-0.06663675192608695,0.042722760434782604,12.3999996185,-0.010934974494824324,0.3660651561700751,0.7969755787105017
1648479475121858503,71752,3,0,0.0130744511262,0.0439508594573,0.00975709594786,0.0,22.7999992371,0.004372726129163879,0.014699284099431437,0.003263242791926421,22.7999992371,0.0,0.015947113238362072,0.04688091552670953
1648479475121883488,71753,3,1,0.0338290072978,0.0146502861753,-0.0289618279785,0.0,22.7999992371,0.01131404926347826,0.0048997612626421405,-0.009686230093143811,22.7999992371,0.0,0.016733890220260034,0.04688091402296906
1648479475121908389,71754,3,2,1.05611622334,-0.168478280306,0.137406185269,0.0,22.7999992371,0.35321612820735787,-0.05634725093846154,0.04595524590936455,22.7999992371,0.0,0.5026910374573186,1.0782610388430953
1648479475121913824,71755,3,3,1.93334698677,-1.31852579117,0.134946674109,0.0,22.7999992371,0.6466043434013378,-0.44097852547491634,0.04513266692608695,22.7999992371,0.0,1.0152124968404308,2.3440459547726857
1648479475121920660,71756,3,4,2.14945983887,-1.1646977663,0.44382250309,0.0,22.7999992371,0.7188828892541805,-0.38953102551839464,0.1484356197625418,22.7999992371,0.0,1.0887238569840787,2.484688491539398
1648479475121953242,71757,3,5,0.724567592144,-0.0,0.19402012229,-0.0809188112617,22.7999992371,0.2423302983759197,-0.0,0.06488967300668896,22.7999992371,-0.010934974494824324,0.3427067945371445,0.7500946629851332
