%time,field.header.seq,field.header.frame_id,field.point_id,field.x,field.y,field.z,field.velocity,field.intensity,normalized_x,normalized_y,normalized_z,normalized_intensity,normalized_velocity,normalized_range,range
1648479361821657917,69688,0,0,0.0131517294794,0.0439508594573,0.00965267792344,0.0,26.2000007629,0.004398571732240802,0.014699284099431437,0.003228320375732441,26.2000007629,0.0,0.015961322614468188,0.046880915375324336
1648479361821666489,69689,0,1,0.033851724118,0.0146502861753,-0.028935270384,0.0,26.2000007629,0.011321646862207357,0.0048997612626421405,-0.00967734795451505,26.2000007629,0.0,0.016744164230440048,0.046880912778811776
1648479361821698174,69690,0,2,1.9817404747,-1.24527442455,0.128636538982,0.0,26.2000007629,0.6627894564214046,-0.4164797406521739,0.04302225384013378,26.2000007629,0.0,1.0256876237239407,2.3440458742660697
