%time,field.header.seq,field.header.frame_id,field.point_id,field.x,field.y,field.z,field.velocity,field.intensity,normalized_x,normalized_y,normalized_z,normalized_intensity,normalized_velocity,normalized_range,range
1648539034501711548,4211,0,0,0.033946685493,0.0146502861753,-0.0288238059729,0.0,11.8999996185,0.011353406519397992,0.0048997612626421405,-0.009640068887257524,11.8999996185,0.0,0.01678711826432119,0.04688091436546677
1648539034501714952,4212,0,1,0.00572216650471,0.0454158857465,0.010122962296,0.0,11.8999996185,0.0019137680617759196,0.015189259446989964,0.003385606119063545,11.8999996185,0.0,0.015428500216693812,0.046880915448538375
1648539034501730204,4213,0,2,0.869041264057,-0.194848805666,0.0146426418796,0.0,11.8999996185,0.29064925219297655,-0.06516682463745818,0.004897204642006689,11.8999996185,0.0,0.4161738706766706,0.8907374375563594
1648539034501739934,4214,0,3,1.68162357807,-1.61153149605,0.263931393623,0.0,11.8999996185,0.5624159123979933,-0.5389737444983277,0.08827136910468227,11.8999996185,0.0,0.9607892663302828,2.3440459469946147
1648539034501842447,4215,0,4,0.394649326801,-0.273960351944,-0.187440380454,-0.242756426334,11.8999996185,0.1319897414050167,-0.09162553576722407,-0.06268909045284281,11.8999996185,-0.03280492247756756,0.2079370637403472,0.5156900830988541
1648539034501846757,4216,0,5,0.267359882593,-0.096691891551,0.43023905158,-0.242756426334,11.8999996185,0.0894180209341137,-0.032338425267892976,0.14389265939130433,11.8999996185,-0.03280492247756756,0.1305256246273286,0.5156900912527901
1648539034606781018,4217,1,0,0.0339598990977,0.0146502861753,-0.0288082361221,0.0,16.3999996185,0.011357825785183946,0.0048997612626421405,-0.009634861579297658,16.3999996185,0.0,0.016793096008898035,0.046880914029174166
1648539034606793503,4218,1,1,0.00561106950045,0.0454158857465,0.0101849623024,0.0,16.3999996185,0.0018766118730602006,0.015189259446989964,0.0034063419071571903,16.3999996185,0.0,0.0154193692086348,0.04688091547932197
1648539034606796810,4219,1,2,0.86748611927,-0.194848805666,0.0539906024933,0.0,16.3999996185,0.2901291368795986,-0.06516682463745818,0.018057057690066887,16.3999996185,0.0,0.4154474060170926,0.8907374525376042
1648539034606805150,4220,1,3,0.693271875381,0.556710898876,0.0534813590348,0.0,16.3999996185,0.23186350347190635,0.18619093607892975,0.017886742152107022,16.3999996185,0.0,0.3770788155843305,0.890737432628618
1648539034606814262,4221,1,4,1.64778077602,-1.57930088043,0.259988576174,0.0,16.3999996185,0.5510972495050167,-0.5281942743913043,0.08695270106153846,16.3999996185,0.0,0.9414911302416744,2.297164951954698
1648539034606851737,4222,1,5,0.385970085859,-0.263705164194,-0.0356189236045,-0.242756426334,16.3999996185,0.12908698523712372,-0.0881957070882943,-0.011912683479765887,16.3999996185,-0.03280492247756756,0.20274462326785145,0.4688091600207184
1648539034801949128,4223,3,0,0.0339692533016,0.0146502861753,-0.0287972055376,0.0,24.3999996185,0.011360954281471571,0.0048997612626421405,-0.009631172420602005,24.3999996185,0.0,0.016797327906612498,0.04688091404464325
1648539034801973930,4224,3,1,0.00567932473496,0.0454158857465,0.0101470602676,0.0,24.3999996185,0.0018994397106889631,0.015189259446989964,0.0033936656413377925,24.3999996185,0.0,0.01542495850811464,0.04688091551642925
1648539034801978112,4225,3,2,0.759889602661,0.615311980247,0.114881135523,0.0,24.3999996185,0.25414367981973246,0.2057899599488294,0.03842178445585284,24.3999996185,0.0,0.414158819295654,0.9844992212118966
1648539034802089415,4226,3,3,0.966787159443,-0.153827995062,0.104395009577,0.0,24.3999996185,0.32334018710468226,-0.05144748998729097,0.034914718922073575,24.3999996185,0.0,0.4601571442667975,0.9844992543182759
1648539034802106239,4227,3,4,1.67742645741,-1.61153149605,0.289409995079,0.0,24.3999996185,0.5610121931137123,-0.5389737444983277,0.09679264049464882,24.3999996185,0.0,0.959146526294634,2.3440459526280284
1648539034907006679,4228,4,0,0.0339824743569,0.0146502861753,-0.0287816058844,0.0,11.6999998093,0.01136537603909699,0.0048997612626421405,-0.00962595514528428,11.6999998093,0.0,0.01680330936009477,0.04688091600769423
1648539034907012376,4229,4,1,0.00565459113568,0.0454158857465,0.0101608643308,0.0,11.6999998093,0.0018911676039063544,0.015189259446989964,0.003398282384882943,11.6999998093,0.0,0.015422925544788954,0.04688091555206421
1648539034907016465,4230,4,2,0.763883292675,0.615311980247,0.0843335911632,0.0,11.6999998093,0.2554793620986622,0.2057899599488294,0.02820521443585284,11.6999998093,0.0,0.41579913002845437,0.9844991988122519
1648539034907036797,4231,4,3,1.6851028204,-1.61153149605,0.240719527006,0.0,11.6999998093,0.5635795385953177,-0.5389737444983277,0.08050820301204013,11.6999998093,0.0,0.9621520097703746,2.344045897324363
1648539034907046682,4232,4,4,1.03877222538,-0.316446185112,0.294547855854,0.566431701183,11.6999998093,0.347415459993311,-0.10583484451906354,0.09851098857993311,11.6999998093,0.07654482448418919,0.5025893134549342,1.125141930460795
1648539034907053055,4233,4,5,0.435268461704,-0.161153152585,0.0659777596593,-0.0809188112617,11.6999998093,0.14557473635585283,-0.05389737544648829,0.022066140354280936,11.6999998093,-0.010934974494824324,0.21281197055187434,0.46880916918497995
1648539035101922670,4234,6,0,0.855574727058,-0.22268435359,0.108704440296,0.0,14.3000001907,0.2861453936648829,-0.07447637243812709,0.03635600009899665,14.3000001907,0.0,0.4114670128732123,0.8907373856834762
1648539035101932653,4235,6,1,1.67777919769,-1.61153149605,0.287357866764,0.0,14.3000001907,0.561130166451505,-0.5389737444983277,0.09610630995451504,14.3000001907,0.0,0.9592845379043364,2.344045934394974
