%time,field.header.seq,field.header.frame_id,field.point_id,field.x,field.y,field.z,field.velocity,field.intensity,normalized_x,normalized_y,normalized_z,normalized_intensity,normalized_velocity,normalized_range,range
1648478833116272380,52683,0,0,0.0130139682442,0.0439508594573,0.00983762275428,0.0,11.8000001907,0.004352497740535116,0.014699284099431437,0.0032901748342073576,11.8000001907,0.0,0.015936041735591825,0.04688091549822711
1648478833116287826,52684,0,1,0.0339856147766,0.0146502861753,-0.0287778954953,0.0,11.8000001907,0.011366426346688961,0.0048997612626421405,-0.009624714212474916,11.8000001907,0.0,0.01680473017398073,0.04688091472977086
1648478833116341664,52685,0,2,1.27920567989,-0.246124818921,0.161698773503,0.0,11.8000001907,0.42782798658528426,-0.08231599295016721,0.05407985735886287,11.8000001907,0.0,0.6106140310430217,1.3126656433776678
1648478833116346151,52686,0,3,1.87185454369,-1.39177727699,0.231663137674,0.0,11.8000001907,0.6260383089264214,-0.4654773501638796,0.07747931025886287,11.8000001907,0.0,1.0002585125868682,2.3440459105647995
1648478833116357657,52687,0,4,0.402880102396,-0.234404578805,0.0502408333123,-0.323675245047,11.8000001907,0.1347425091625418,-0.07839618020234114,0.016802954285050166,11.8000001907,-0.04373989797932432,0.2060510825527332,0.4688091560574251
1648478833221266407,52688,1,0,0.0130992634222,0.0439508594573,0.0097237592563,0.0,24.7999992371,0.004381024555919732,0.014699284099431437,0.0032520933967558527,24.7999992371,0.0,0.015951667792269912,0.04688091555541555
1648478833221272991,52689,1,1,0.033851724118,0.0146502861753,-0.028935270384,0.0,24.7999992371,0.011321646862207357,0.0048997612626421405,-0.00967734795451505,24.7999992371,0.0,0.016744164230440048,0.046880912778811776
1648478833221277088,52690,1,2,1.2320305109,-0.287145614624,0.350341707468,0.0,24.7999992371,0.4120503380936455,-0.0960353226167224,0.11717113962140467,24.7999992371,0.0,0.5905876272292478,1.3126656450817562
1648478833221280386,52691,1,3,0.389078766108,-0.158223092556,0.0400821529329,-0.323675245047,24.7999992371,0.13012667762809363,-0.05291742225953177,0.013405402318695652,24.7999992371,-0.04373989797932432,0.191484093437667,0.4219282074451111
1648478833221287598,52692,1,4,0.521649301052,-0.158223092556,-0.139045342803,-0.242756426334,24.7999992371,0.1744646491812709,-0.05291742225953177,-0.04650345913143812,24.7999992371,-0.03280492247756756,0.25234119997828625,0.5625710156604484
