%time,field.header.seq,field.header.frame_id,field.point_id,field.x,field.y,field.z,field.velocity,field.intensity,normalized_x,normalized_y,normalized_z,normalized_intensity,normalized_velocity,normalized_range,range
1648479545321949770,73131,0,0,0.0131334252656,0.0439508594573,0.00967756938189,0.0,11.8999996185,0.004392449921605351,0.014699284099431437,0.00323664527822408,11.8999996185,0.0,0.01595795054709155,0.04688091568414307
1648479545322076628,73132,0,1,0.0339150689542,0.0146502861753,-0.0288610011339,0.0,11.8999996185,0.011342832426153847,0.0048997612626421405,-0.009652508740434782,11.8999996185,0.0,0.016772815962935467,0.046880914812291195
1648479545322081599,73133,0,2,1.93764007092,-1.31852579117,0.0398989841342,0.0,11.8999996185,0.6480401574983277,-0.44097852547491634,0.013344141850903008,11.8999996185,0.0,1.017041863145734,2.3440459115278176
1648479545322089427,73134,0,3,0.627148985863,-0.398487776518,-0.10263364017,-0.647350490093,11.8999996185,0.2097488247033445,-0.1332735038521739,-0.0343256321638796,11.8999996185,-0.08747979595851352,0.32519373572980165,0.7500946757561967
1648479545622171273,73135,3,0,0.0131213963032,0.0439508594573,0.00969387125224,0.0,29.5,0.0043884268572575245,0.014699284099431437,0.003242097408775919,29.5,0.0,0.015955736698717367,0.04688091539033738
1648479545622181370,73136,3,1,0.0338290072978,0.0146502861753,-0.0289618279785,0.0,29.5,0.01131404926347826,0.0048997612626421405,-0.009686230093143811,29.5,0.0,0.016733890220260034,0.04688091402296906
1648479545622206830,73137,3,2,1.93585777283,-1.31852579117,0.0921712219715,0.0,29.5,0.647444071180602,-0.44097852547491634,0.03082649564264214,29.5,0.0,1.0162822986473081,2.3440458853799178
1648479545622296235,73138,3,3,0.559793591499,-0.228544458747,0.0763556733727,-0.323675245047,29.5,0.18722193695618727,-0.07643627382842809,0.02553701450591973,29.5,-0.04373989797932432,0.27558412746750777,0.6094519042250233
1648479545922078313,73139,6,0,0.0131446821615,0.0439508594573,0.00966227333993,0.0,42.5999984741,0.004396214769732442,0.014699284099431437,0.00323152954512709,42.5999984741,0.0,0.01596002386085388,0.046880915544149894
1648479545922092002,73140,6,1,0.0339150689542,0.0146502861753,-0.0288610011339,0.0,42.5999984741,0.011342832426153847,0.0048997612626421405,-0.009652508740434782,42.5999984741,0.0,0.016772815962935467,0.046880914812291195
1648479545922098612,73141,6,2,0.521067798138,-0.0351606868207,0.209136843681,0.0,42.5999984741,0.17427016660133776,-0.011759427030334446,0.06994543266923076,42.5999984741,0.0,0.2467356197604995,0.5625710119966526
1648479545922235008,73142,6,3,1.93359839916,-1.31852579117,0.131295055151,0.0,42.5999984741,0.646688427812709,-0.44097852547491634,0.043911389682608694,42.5999984741,0.0,1.0153196074457431,2.34404595149534
