%time,field.header.seq,field.header.frame_id,field.point_id,field.x,field.y,field.z,field.velocity,field.intensity,normalized_x,normalized_y,normalized_z,normalized_intensity,normalized_velocity,normalized_range,range
1648478742316192505,49011,0,0,0.0131507087499,0.0439508594573,0.00965406931937,0.0,11.8999996185,0.004398230351137123,0.014699284099431437,0.003228785725541806,11.8999996185,0.0,0.015961134467171356,0.046880915542289
1648478742316198175,49012,0,1,0.0338380411267,0.0146502861753,-0.0289512760937,0.0,11.8999996185,0.011317070610936453,0.0048997612626421405,-0.009682701034682275,11.8999996185,0.0,0.016737975829135724,0.046880916157473626
1648478742316202082,49013,0,2,0.712285220623,0.676843225956,0.0614144280553,0.0,11.8999996185,0.23822248181371236,0.22636897189163876,0.02053994249341137,11.8999996185,0.0,0.40588522160611684,0.9844992229625377
1648478742316210067,49014,0,3,0.937485575676,-0.24612480402,0.172574937344,0.0,11.8999996185,0.31354032631304346,-0.08231598796655518,0.057717370349163875,11.8999996185,0.0,0.4509889070962717,0.9844992294327761
1648478742316214864,49015,0,4,1.47578191757,-0.234404578805,0.133004531264,0.0,11.8999996185,0.4935725476822742,-0.07839618020234114,0.04448312082408026,11.8999996185,0.0,0.7024056383041495,1.5001893147626708
1648478742316216819,49016,0,5,0.635097146034,-0.0410208031535,-0.16044215858,0.161837622523,11.8999996185,0.2124070722521739,-0.013719332158361203,-0.053659584809364544,11.8999996185,0.021869948989594594,0.3007020930428518,0.6563328252050936
1648478742316460379,49017,0,6,0.295024931431,-0.290075659752,0.082703307271,-0.404594063759,11.8999996185,0.09867054562909698,-0.09701527082006689,0.02765996898695652,11.8999996185,-0.05467487348094594,0.16995209890371563,0.42192823510638133
