%time,field.header.seq,field.header.frame_id,field.point_id,field.x,field.y,field.z,field.velocity,field.intensity,normalized_x,normalized_y,normalized_z,normalized_intensity,normalized_velocity,normalized_range,range
1648478787021277629,50817,0,0,0.0130992634222,0.0439508594573,0.0097237592563,0.0,29.6000003815,0.004381024555919732,0.014699284099431437,0.0032520933967558527,29.6000003815,0.0,0.015951667792269912,0.04688091555541555
1648478787021296985,50818,0,1,0.033851724118,0.0146502861753,-0.028935270384,0.0,29.6000003815,0.011321646862207357,0.0048997612626421405,-0.00967734795451505,29.6000003815,0.0,0.016744164230440048,0.046880912778811776
1648478787021379048,50819,0,2,0.952396154404,-0.215359210968,0.12570092082,0.0,29.6000003815,0.3185271419411371,-0.07202649196254181,0.0420404417458194,29.6000003815,0.0,0.4561873473155615,0.9844992362451498
1648478787021383837,50820,0,3,0.681837260723,0.707608819008,0.0602199211717,0.0,29.6000003815,0.22803921763311036,0.23665846789565215,0.020140441863444814,29.6000003815,0.0,0.40001374974388015,0.9844992279093299
1648478787021385482,50821,0,4,1.07971858978,-0.316446185112,0.00373790739104,0.0,29.6000003815,0.36110989624749157,-0.10583484451906354,0.0012501362511839463,29.6000003815,0.0,0.5215378496812313,1.125141943552063
1648478787021394030,50822,0,5,0.810220658779,0.73837441206,-0.253555208445,0.0,29.6000003815,0.27097680895618725,0.24694796389966553,-0.08480107305852842,29.6000003815,0.0,0.455894898916786,1.1251420052716967
1648478787021407456,50823,0,6,2.30986428261,-1.33610606194,0.141652718186,0.0,29.6000003815,0.7725298604046822,-0.4468582146956522,0.047375491032107024,29.6000003815,0.0,1.1803758022234874,2.6722121744726235
1648478787021408921,50824,0,7,0.417415171862,-0.0,0.061546664685,0.323675245047,29.6000003815,0.13960373640869564,-0.0,0.0205841687909699,29.6000003815,0.04373989797932432,0.197429497387136,0.4219282138402584
1648478787021412551,50825,0,8,0.40424233675,0.0805765762925,-0.309890002012,-0.647350490093,29.6000003815,0.13519810593645484,0.026948687723244144,-0.10364214114113712,29.6000003815,-0.08747979595851352,0.19308880720439148,0.5156900860159315
1648478787021414728,50826,0,9,0.382718861103,0.273960351944,0.210732653737,-0.647350490093,29.6000003815,0.12799961909799332,0.09162553576722407,0.0704791484070234,29.6000003815,-0.08747979595851352,0.2028867757718418,0.5156900740098612
