%time,field.header.seq,field.header.frame_id,field.point_id,field.x,field.y,field.z,field.velocity,field.intensity,normalized_x,normalized_y,normalized_z,normalized_intensity,normalized_velocity,normalized_range,range
1648479259916528471,66904,0,0,0.0131100816652,0.0439508594573,0.00970916822553,0.0,29.0,0.004384642697391304,0.014699284099431437,0.0032472134533545146,29.0,0.0,0.01595365588833392,0.046880915476718146
1648479259916551461,66905,0,1,0.0339376479387,0.0146502861753,-0.0288344435394,0.0,29.0,0.011350383925986621,0.0048997612626421405,-0.00964362660180602,29.0,0.0,0.016783029850580597,0.046880912606904114
1648479259916555980,66906,0,2,1.0653758049,-0.0336956568062,0.162744492292,0.0,29.0,0.3563129782274247,-0.011269450436856187,0.05442959608428093,29.0,0.0,0.5040286474197109,1.0782609947157065
1648479259916597543,66907,0,3,1.98520159721,-1.24527442455,0.0530792325735,0.0,29.0,0.6639470224782608,-0.4164797406521739,0.017752251696822742,29.0,0.0,1.0271838548620196,2.344045899493877
1648479259916602438,66908,0,4,0.603820025921,-0.307656019926,0.187773033977,0.0809188112617,29.0,0.20194649696354514,-0.10289498994180601,0.06280034581170568,29.0,0.010934974494824324,0.3035657329588085,0.7032137389079312
1648479259916605194,66909,0,5,0.257005751133,-0.672448158264,-1.04113996029,-0.647350490093,29.0,0.08595510071337792,-0.22489904958662205,-0.3482073445785953,29.0,-0.08747979595851352,0.2556484718950218,1.265784696771432
1648479259916618195,66910,0,6,1.23074102402,-0.158223092556,0.249905839562,-0.647350490093,29.0,0.4116190715785953,-0.05291742225953177,0.08358054834849497,29.0,-0.08747979595851352,0.584517556411305,1.265784714661609
1648479260021731538,66911,1,0,0.013122103177,0.0439508594573,0.00969291571528,0.0,20.7000007629,0.004388663269899665,0.014699284099431437,0.003241777831197324,20.7000007629,0.0,0.0159558667464018,0.04688091566817666
1648479260021739075,66912,1,1,0.0339376479387,0.0146502861753,-0.0288344435394,0.0,20.7000007629,0.011350383925986621,0.0048997612626421405,-0.00964362660180602,20.7000007629,0.0,0.016783029850580597,0.046880912606904114
1648479260021741420,66913,1,2,1.06159698963,0.0336956568062,0.185804367065,0.0,20.7000007629,0.3550491604113712,0.011269450436856187,0.06214192878428093,20.7000007629,0.0,0.5022417875195053,1.0782610205787393
1648479260021744560,66914,1,3,1.93785572052,-1.31852579117,0.0275011435151,0.0,20.7000007629,0.6481122811103679,-0.44097852547491634,0.009197706861237458,20.7000007629,0.0,1.017133775755284,2.3440459399139773
1648479260021746488,66915,1,4,2.12585949898,-1.1646977663,0.545780837536,0.0,20.7000007629,0.7109897989899665,-0.38953102551839464,0.18253539716923076,20.7000007629,0.0,1.0783076594261018,2.484688354472086
1648479260021751865,66916,1,5,0.630196154118,-0.219754293561,0.221518516541,0.0809188112617,20.7000007629,0.21076794452107023,-0.07349641925117056,0.07408646038160534,20.7000007629,0.010934974494824324,0.3069983330867086,0.7032137622189554
