%time,field.header.seq,field.header.frame_id,field.point_id,field.x,field.y,field.z,field.velocity,field.intensity,normalized_x,normalized_y,normalized_z,normalized_intensity,normalized_velocity,normalized_range,range
1648479351621817440,69519,0,0,0.0131334252656,0.0439508594573,0.00967756938189,0.0,26.7999992371,0.004392449921605351,0.014699284099431437,0.00323664527822408,26.7999992371,0.0,0.01595795054709155,0.04688091568414307
1648479351621834488,69520,0,1,0.0338290072978,0.0146502861753,-0.0289618279785,0.0,26.7999992371,0.01131404926347826,0.0048997612626421405,-0.009686230093143811,26.7999992371,0.0,0.016733890220260034,0.04688091402296906
1648479351621837950,69521,0,2,0.98387336731,0.0307656005025,0.0168916266412,0.0,26.7999992371,0.32905463789632106,0.010289498495819397,0.005649373458595317,26.7999992371,0.0,0.46546727406065125,0.9844991884845732
1648479351621920288,69522,0,3,1.98431658745,-1.24527442455,0.0795643627644,0.0,26.7999992371,0.6636510325919732,-0.4164797406521739,0.02661015477070234,26.7999992371,0.0,1.0268012273534186,2.3440459038785164
1648479351621935071,69523,0,4,1.02005696297,-0.0,0.152409881353,-0.242756426334,26.7999992371,0.3411561749063545,-0.0,0.05097320446588628,26.7999992371,-0.03280492247756756,0.4824676894398943,1.0313801334317119
1648479351621937784,69524,0,5,0.430007040501,-0.386767566204,-0.853961229324,-0.242756426334,26.7999992371,0.14381506371270902,-0.1293537010715719,-0.28560576231571905,26.7999992371,-0.03280492247756756,0.241035111720875,1.031380136679174
1648479351621939520,69525,0,6,0.51195526123,-0.12306240201,0.198099941015,-0.161837622523,26.7999992371,0.17122249539464882,-0.04115799398327759,0.06625416087458194,26.7999992371,-0.021869948989594594,0.2456181311040954,0.5625710007809636
