%time,field.header.seq,field.header.frame_id,field.point_id,field.x,field.y,field.z,field.velocity,field.intensity,normalized_x,normalized_y,normalized_z,normalized_intensity,normalized_velocity,normalized_range,range
1648478634615767216,44937,0,0,0.00704106362537,0.0454158857465,0.00925424136221,0.0,28.8999996185,0.002354870777715719,0.015189259446989964,0.00309506400073913,28.8999996185,0.0,0.015550062228410945,0.046880915502000256
1648478634615777583,44938,0,1,0.033851724118,0.0146502861753,-0.028935270384,0.0,28.8999996185,0.011321646862207357,0.0048997612626421405,-0.00967734795451505,28.8999996185,0.0,0.016744164230440048,0.046880912778811776
1648478634615780968,44939,0,2,0.971512854099,-0.32230630517,0.126595467329,0.0,28.8999996185,0.3249206869896321,-0.10779475089297658,0.04233962118026756,28.8999996185,0.0,0.47198158225476117,1.0313801396091404
1648478634615786437,44940,0,3,1.48586893082,-0.187523663044,0.0871581733227,0.0,28.8999996185,0.49694613070903004,-0.0627169441618729,0.029149890743377923,28.8999996185,0.0,0.7055808449344102,1.5001893716976398
1648478634615810199,44941,0,4,0.198209568858,-0.256380021572,0.0517247952521,-0.323675245047,28.8999996185,0.06629082570501672,-0.08574582661270903,0.017299262626120398,28.8999996185,-0.04373989797932432,0.1270483920669702,0.32816642590613243
1648478634721090079,44942,1,0,0.0130621604621,0.0439508594573,0.00977354310453,0.0,26.8999996185,0.0043686155391638795,0.014699284099431437,0.0032687435132207356,26.8999996185,0.0,0.015944859876895943,0.04688091538983738
1648478634721097281,44943,1,1,0.033900372684,0.0146502861753,-0.0288782604039,0.0,26.8999996185,0.011337917285618728,0.0048997612626421405,-0.00965828107153846,26.8999996185,0.0,0.016766168231947105,0.04688091378255908
1648478634721099954,44944,1,2,1.47778522968,-0.234404578805,0.108505316079,0.0,26.8999996185,0.49424255173244147,-0.07839618020234114,0.03628940337090301,26.8999996185,0.0,0.7033472548864523,1.5001893531293053
1648478634721104639,44945,1,3,0.959952771664,-0.32230630517,0.195842683315,0.0809188112617,26.8999996185,0.321054438683612,-0.10779475089297658,0.0654992251889632,26.8999996185,0.010934974494824324,0.46666006205478655,1.0313801601668282
1648478634721157130,44946,1,4,0.171803370118,-0.210964113474,0.0714092105627,-0.404594063759,26.8999996185,0.057459321109698994,-0.07055655969030099,0.023882679117959865,26.8999996185,-0.05467487348094594,0.10761679831748391,0.28128549644615747
