%time,field.header.seq,field.header.frame_id,field.point_id,field.x,field.y,field.z,field.velocity,field.intensity,normalized_x,normalized_y,normalized_z,normalized_intensity,normalized_velocity,normalized_range,range
1648539662604697289,20865,0,0,0.00666102580726,0.0454158857465,0.00953143741935,0.0,11.5,0.0022277678285150503,0.015189259446989964,0.0031877717121571903,11.5,0.0,0.015512559477517151,0.04688091554378083
1648539662604718946,20866,0,1,0.0342002809048,0.0146502861753,-0.0285224467516,0.0,11.5,0.011438221038394647,0.0048997612626421405,-0.009539279850033444,11.5,0.0,0.016901877454213076,0.04688091368225742
1648539662604722187,20867,0,2,0.945252537727,0.354536950588,0.211059674621,0.0,11.5,0.3161379724839465,0.11857423096588628,0.07058851994013378,11.5,0.0,0.46254327747971036,1.0313801412004664
1648539662604728226,20868,0,3,0.300876677036,-1.18081307411,-0.029667576775,0.0,11.5,0.10062765118260869,-0.39492076057190634,-0.00992226647993311,11.5,0.0,0.4197788173499832,1.2189037927109072
1648539662604876986,20869,0,4,2.47320771217,-0.158223092556,0.516771316528,0.0,11.5,0.8271597699565216,-0.05291742225953177,0.17283321623010034,11.5,0.0,1.1709768672555598,2.5315693804715744
1648539662604880411,20870,0,5,0.594942808151,-0.225614413619,0.160978317261,0.161837622523,11.5,0.19897752780969896,-0.07545632562508361,0.05383890209397993,11.5,0.021869948989594594,0.29133789699137613,0.6563328631353347
