%time,field.header.seq,field.header.frame_id,field.point_id,field.x,field.y,field.z,field.velocity,field.intensity,normalized_x,normalized_y,normalized_z,normalized_intensity,normalized_velocity,normalized_range,range
1648479075816277112,60615,0,0,0.013080727309,0.0439508594573,0.00974867958575,0.0,16.8999996185,0.004374825186956521,0.014699284099431437,0.003260427955100334,16.8999996185,0.0,0.01594826460366946,0.0468809153881766
1648479075816282781,60616,0,1,0.0339512899518,0.0146502861753,-0.0288183819503,0.0,16.8999996185,0.011354946472173912,0.0048997612626421405,-0.009638254832876253,16.8999996185,0.0,0.016789201267563565,0.04688091416176479
1648479075816285403,60617,0,2,1.00045478344,-0.161153152585,0.192002668977,0.0,16.8999996185,0.3346002620200668,-0.05389737544648829,0.06421493945719063,16.8999996185,0.0,0.47625581126933714,1.0313802098112765
1648479075816306049,60618,0,3,0.664118409157,0.773535132408,0.155997365713,0.0,16.8999996185,0.22211318032006688,0.2587074021431438,0.052173032011036784,16.8999996185,0.0,0.4069374026400663,1.03138016296615
1648479075816312597,60619,0,4,1.11348283291,-0.105482056737,0.122368015349,0.0,16.8999996185,0.37240228525418057,-0.035278279845150494,0.04092575764180602,16.8999996185,0.0,0.5278366045983405,1.1251419531148945
1648479075816319604,60620,0,5,2.30102515221,-1.33610606194,0.246621459723,0.0,16.8999996185,0.7695736295016721,-0.4468582146956522,0.0824820935528428,16.8999996185,0.0,1.1765072913032621,2.6722122491021874
1648479075921485678,60621,1,0,0.0130922468379,0.0439508594573,0.00973320472986,0.0,13.3999996185,0.004378677872207358,0.014699284099431437,0.0032552524180133775,13.3999996185,0.0,0.01595037908179347,0.04688091561193326
1648479075921496467,60622,1,1,0.0339512899518,0.0146502861753,-0.0288183819503,0.0,13.3999996185,0.011354946472173912,0.0048997612626421405,-0.009638254832876253,13.3999996185,0.0,0.016789201267563565,0.04688091416176479
1648479075921501820,60623,1,2,1.01045942307,-0.161153152585,0.129407808185,0.0,13.3999996185,0.33794629534113707,-0.05389737544648829,0.04328020340635451,13.3999996185,0.0,0.48095771555264377,1.0313801263735343
1648479075921507887,60624,1,3,0.664560198784,0.773535132408,0.154104426503,0.0,13.3999996185,0.2222609360481605,0.2587074021431438,0.05153994197424749,13.3999996185,0.0,0.4070987193662777,1.0313801593714658
1648479075921519509,60625,1,4,1.11529397964,-0.140642747283,0.0477859936655,0.0,13.3999996185,0.3730080199464883,-0.047037708121404675,0.01598193768076923,13.3999996185,0.0,0.52960599682605,1.1251420108480255
1648479075921602822,60626,1,5,2.30534410477,-1.33610606194,0.202304109931,0.0,13.3999996185,0.7710180952408027,-0.4468582146956522,0.06766023743511705,13.3999996185,0.0,1.1783972464404762,2.672212155321052
1648479075921606829,60627,1,6,0.514677226543,0.158223092556,0.162969097495,0.0809188112617,13.3999996185,0.17213285168662204,0.05291742225953177,0.0545047148812709,13.3999996185,0.010934974494824324,0.24911782521154688,0.5625709922119286
