%time,field.header.seq,field.header.frame_id,field.point_id,field.x,field.y,field.z,field.velocity,field.intensity,normalized_x,normalized_y,normalized_z,normalized_intensity,normalized_velocity,normalized_range,range
1648479372321981390,69883,0,0,0.0131213963032,0.0439508594573,0.00969387125224,0.0,28.2999992371,0.0043884268572575245,0.014699284099431437,0.003242097408775919,28.2999992371,0.0,0.015955736698717367,0.04688091539033738
1648479372322131279,69884,0,1,0.033851724118,0.0146502861753,-0.028935270384,0.0,28.2999992371,0.011321646862207357,0.0048997612626421405,-0.00967734795451505,28.2999992371,0.0,0.016744164230440048,0.046880912778811776
1648479372322134653,69885,0,2,1.98557877541,-1.24527442455,0.0363256074488,0.0,28.2999992371,0.6640731690334448,-0.4164797406521739,0.012149032591571905,28.2999992371,0.0,1.0273469336275582,2.3440458646437645
1648479372322142320,69886,0,3,0.497087180614,0.0805765762925,0.111121565104,0.0809188112617,28.2999992371,0.16624989318193978,0.026948687723244144,0.03716440304481605,28.2999992371,0.010934974494824324,0.23665224642081406,0.5156900735994043
