%time,field.header.seq,field.header.frame_id,field.point_id,field.x,field.y,field.z,field.velocity,field.intensity,normalized_x,normalized_y,normalized_z,normalized_intensity,normalized_velocity,normalized_range,range
1648479065616657722,60240,0,0,0.0131107158959,0.0439508594573,0.00970831234008,0.0,14.6999998093,0.004384854814682274,0.014699284099431437,0.003246927204040134,14.6999998093,0.0,0.015953772485762813,0.04688091559292428
1648479065616668802,60241,0,1,0.0338654480875,0.0146502861753,-0.0289192087948,0.0,14.6999998093,0.011326236818561873,0.0048997612626421405,-0.009671976185551838,14.6999998093,0.0,0.016750371380097266,0.046880913989624615
1648479065616671307,60242,0,2,0.684021770954,0.707608819008,0.0253512468189,0.0,14.6999998093,0.22876982306153842,0.23665846789565215,0.008478677865852843,14.6999998093,0.0,0.4008472206638492,0.9844992176696818
1648479065616813630,60243,0,3,2.30526828766,-1.33610606194,0.20316503942,0.0,14.6999998093,0.7709927383478261,-0.4468582146956522,0.06794817371906355,14.6999998093,0.0,1.178364064799646,2.6722120649540924
1648479065616821567,60244,0,4,0.472982734442,-0.177268475294,0.103920564055,-0.566431701183,14.6999998093,0.15818820549899665,-0.05928711548294314,0.034756041489966555,14.6999998093,-0.07654482448418919,0.23143461016078262,0.5156900843014148
1648479065616832349,60245,0,5,0.44434478879,-0.0586011447012,0.137497782707,-0.0809188112617,14.6999998093,0.1486102972541806,-0.019599045050568562,0.04598588050401337,14.6999998093,-0.010934974494824324,0.21107857178512,0.4688091570505658
