%time,field.header.seq,field.header.frame_id,field.point_id,field.x,field.y,field.z,field.velocity,field.intensity,normalized_x,normalized_y,normalized_z,normalized_intensity,normalized_velocity,normalized_range,range
1648479602622040890,74252,0,0,0.013062746264,0.0439508594573,0.00977276079357,0.0,28.5,0.004368811459531772,0.014699284099431437,0.003268481870759197,28.5,0.0,0.01594496723651918,0.0468809155256307
1648479602622044498,74253,0,1,0.0338788032532,0.0146502861753,-0.0289035607129,0.0,28.5,0.011330703429163879,0.0048997612626421405,-0.009666742713344481,28.5,0.0,0.01675641193186121,0.04688091313926722
1648479602622048436,74254,0,2,1.93568956852,-1.31852579117,0.0956400856376,0.0,28.5,0.6473878155585284,-0.44097852547491634,0.03198665071491639,28.5,0.0,1.016210621572771,2.3440459452916844
1648479602727108369,74255,1,0,0.0130741177127,0.0439508594573,0.0097575429827,0.0,13.5,0.004372614619632106,0.014699284099431437,0.0032633923019063545,13.5,0.0,0.015947052086810236,0.046880915584703656
1648479602727121860,74256,1,1,0.0338788032532,0.0146502861753,-0.0289035607129,0.0,13.5,0.011330703429163879,0.0048997612626421405,-0.009666742713344481,13.5,0.0,0.01675641193186121,0.04688091313926722
1648479602727156390,74257,1,2,1.0548208952,0.134782627225,0.17841899395,0.0,13.5,0.3527829080936455,0.04507780174749164,0.05967190433110367,13.5,0.0,0.5009426800507272,1.078261014297713
1648479602727159112,74258,1,3,0.655659198761,0.808695793152,-0.280657887459,0.0,13.5,0.21928401296354513,0.2704668204521739,-0.09386551420033444,13.5,0.0,0.411489073546675,1.078260970532926
1648479602727341903,74259,1,4,1.93480873108,-1.31852579117,0.112053923309,0.0,13.5,0.6470932210969899,-0.44097852547491634,0.03747622853143812,13.5,0.0,1.0158352885726045,2.3440458974970633
1648479602727346583,74260,1,5,0.528134703636,0.076181486249,0.294451594353,0.0809188112617,13.5,0.1766336801458194,0.02547875794280936,0.0984787940979933,13.5,0.010934974494824324,0.2510937693970512,0.6094519057717481
1648479602727348948,74261,1,6,0.624711990356,-0.0410208031535,0.197040617466,0.161837622523,13.5,0.20893377603879598,-0.013719332158361203,0.06589987206220735,13.5,0.021869948989594594,0.2957953103322143,0.6563328287670027
1648479602727353408,74262,1,7,0.217302158475,0.184593617916,-0.591166436672,0.161837622523,13.5,0.07267630718227425,0.061736995958528426,-0.19771452731505015,13.5,0.021869948989594594,0.11989640495564464,0.6563328330204744
1648479602922232933,74263,3,0,0.0130741177127,0.0439508594573,0.0097575429827,0.0,33.7999992371,0.004372614619632106,0.014699284099431437,0.0032633923019063545,33.7999992371,0.0,0.015947052086810236,0.046880915584703656
1648479602922443004,74264,3,1,0.0339014641941,0.0146502861753,-0.028876978904,0.0,33.7999992371,0.01133828233916388,0.0048997612626421405,-0.00965785247625418,33.7999992371,0.0,0.016766661958663078,0.046880913708502864
1648479602922446621,74265,3,2,1.05840611458,0.0673913136125,0.1946323663,0.0,33.7999992371,0.3539819781204013,0.02253890087374582,0.0650944368896321,33.7999992371,0.0,0.5011132444075501,1.0782610308001896
1648479602922579442,74266,3,3,1.93370616436,-1.31852579117,0.129698380828,0.0,33.7999992371,0.6467244696856187,-0.44097852547491634,0.04337738489230769,33.7999992371,0.0,1.0153655200519274,2.3440459598851175
1648479602922587063,74267,3,4,2.18454885483,-1.06654083729,0.182051569223,0.0,33.7999992371,0.73061834609699,-0.35670262116722407,0.06088681244916388,33.7999992371,0.0,1.0930887865377497,2.437807586870399
1648479602922590597,74268,3,5,0.591382145882,-0.164083212614,0.232629984617,0.0809188112617,33.7999992371,0.19778667086354515,-0.054877328633444813,0.07780267044046822,33.7999992371,0.010934974494824324,0.2850450061665908,0.6563328826690279
1648479602922593596,74269,3,6,0.639059960842,-0.175803437829,0.234957680106,0.161837622523,33.7999992371,0.21373242837525083,-0.05879713639765886,0.07858116391505016,33.7999992371,0.021869948989594594,0.30792889621944924,0.7032137610603671
1648479603027092103,74270,4,0,0.0130741177127,0.0439508594573,0.0097575429827,0.0,32.5999984741,0.004372614619632106,0.014699284099431437,0.0032633923019063545,32.5999984741,0.0,0.015947052086810236,0.046880915584703656
1648479603027101630,74271,4,1,0.0339014641941,0.0146502861753,-0.028876978904,0.0,32.5999984741,0.01133828233916388,0.0048997612626421405,-0.00965785247625418,32.5999984741,0.0,0.016766661958663078,0.046880913708502864
1648479603027103733,74272,4,2,1.04157590866,0.101086974144,0.259899288416,0.0,32.5999984741,0.3483531467090301,0.03380835255652174,0.08692283893511706,32.5999984741,0.0,0.4938044495007636,1.0782609099664318
1648479603027120202,74273,4,3,1.93483495712,-1.31852579117,0.111600130796,0.0,32.5999984741,0.6471019923478261,-0.44097852547491634,0.03732445846020067,32.5999984741,0.0,1.0158464632665132,2.3440458959814996
1648479603027122995,74274,4,4,2.15654778481,-1.1646977663,0.407991498709,0.0,32.5999984741,0.7212534397357858,-0.38953102551839464,0.13645200625719062,32.5999984741,0.0,1.0918550583767141,2.4846883704022007
1648479603027128547,74275,4,5,0.664351165295,-0.175803437829,0.149131640792,0.0809188112617,32.5999984741,0.22219102518227424,-0.05879713639765886,0.04987680294046822,32.5999984741,0.010934974494824324,0.3196792245230599,0.7032137412384898
1648479603222121766,74276,6,0,0.013062746264,0.0439508594573,0.00977276079357,0.0,16.3999996185,0.004368811459531772,0.014699284099431437,0.003268481870759197,16.3999996185,0.0,0.01594496723651918,0.0468809155256307
1648479603222125947,74277,6,1,0.0339014641941,0.0146502861753,-0.028876978904,0.0,16.3999996185,0.01133828233916388,0.0048997612626421405,-0.00965785247625418,16.3999996185,0.0,0.016766661958663078,0.046880913708502864
1648479603222139358,74278,6,2,1.05413925648,0.0673913136125,0.21655370295,0.0,16.3999996185,0.35255493527759196,0.02253890087374582,0.07242598760869565,16.3999996185,0.0,0.4990971516947083,1.0782609459050172
1648479603222144823,74279,6,3,0.553044557571,0.909782707691,-0.170540049672,0.0,16.3999996185,0.1849647349735786,0.304275153073913,-0.057036805910367895,16.3999996185,0.0,0.40125711849865736,1.0782609917893715
1648479603222235386,74280,6,4,0.600341439247,-0.329631447792,0.159508109093,0.161837622523,16.3999996185,0.20078309004916386,-0.11024463136856186,0.053347193676588626,16.3999996185,0.021869948989594594,0.30460068490561765,0.7032137455404536
1648479603222262907,74281,6,5,0.531545102596,-0.417533159256,0.193998545408,0.404594063759,16.3999996185,0.17777428180468224,-0.13964319707558526,0.06488245665819398,16.3999996185,0.05467487348094594,0.28758931313912184,0.7032137447408918
