%time,field.header.seq,field.header.frame_id,field.point_id,field.x,field.y,field.z,field.velocity,field.intensity,normalized_x,normalized_y,normalized_z,normalized_intensity,normalized_velocity,normalized_range,range
1648479154016367506,63252,0,0,0.013122103177,0.0439508594573,0.00969291571528,0.0,12.0,0.004388663269899665,0.014699284099431437,0.003241777831197324,12.0,0.0,0.0159558667464018,0.04688091566817666
1648479154016497578,63253,0,1,0.0339376479387,0.0146502861753,-0.0288344435394,0.0,12.0,0.011350383925986621,0.0048997612626421405,-0.00964362660180602,12.0,0.0,0.016783029850580597,0.046880912606904114
1648479154016592169,63254,0,2,1.00052952766,-0.193383783102,0.159023270011,0.0,12.0,0.3346252600869565,-0.06467685053578595,0.053185040137458194,12.0,0.0,0.47763084528928296,1.0313801547884152
1648479154016601451,63255,0,3,2.30304098129,-1.33610606194,0.227025985718,0.0,12.0,0.7702478198294315,-0.4468582146956522,0.07592842331705685,12.0,0.0,1.1773893459450744,2.6722121862691317
1648479154016627787,63256,0,4,0.463168472052,0.193383783102,0.118380390108,0.161837622523,12.0,0.15490584349565217,0.06467685053578595,0.03959210371505016,12.0,0.021869948989594594,0.228417897051495,0.5156900598537342
1648479154121707378,63257,1,0,0.0130922468379,0.0439508594573,0.00973320472986,0.0,23.7000007629,0.004378677872207358,0.014699284099431437,0.0032552524180133775,23.7000007629,0.0,0.01595037908179347,0.04688091561193326
1648479154121714280,63258,1,1,0.0338654480875,0.0146502861753,-0.0289192087948,0.0,23.7000007629,0.011326236818561873,0.0048997612626421405,-0.009671976185551838,23.7000007629,0.0,0.016750371380097266,0.046880913989624615
1648479154121722687,63259,1,2,0.993898928165,-0.225614413619,0.158139199018,0.0,23.7000007629,0.3324076682826087,-0.07545632562508361,0.05288936422006688,23.7000007629,0.0,0.47611277334576974,1.0313801187274436
1648479154121727955,63260,1,3,0.695638120174,0.741304516792,0.174069553614,0.0,23.7000007629,0.23265488969030096,0.2479279320374582,0.05821724201137123,23.7000007629,0.0,0.41197676497344204,1.0313801386253345
1648479154121731270,63261,1,4,2.3022954464,-1.33610606194,0.234466448426,0.0,23.7000007629,0.7699984770568562,-0.4468582146956522,0.07841687238327759,23.7000007629,0.0,1.177063113592785,2.672212238334465
1648479154121867897,63262,1,5,0.496842712164,0.24612480402,0.0951631069183,0.161837622523,23.7000007629,0.1661681311585284,0.08231598796655518,0.03182712605963211,23.7000007629,0.021869948989594594,0.24899722388080123,0.5625709881452353
