%time,field.header.seq,field.header.frame_id,field.point_id,field.x,field.y,field.z,field.velocity,field.intensity,normalized_x,normalized_y,normalized_z,normalized_intensity,normalized_velocity,normalized_range,range
1648539370200030435,14576,0,0,0.00639080395922,0.0454158857465,0.00971468910575,0.0,22.8999996185,0.0021373926285016723,0.015189259446989964,0.0032490599015886283,22.8999996185,0.0,0.015487107446024917,0.04688091549666774
1648539370200035472,14577,0,1,0.0342201963067,0.0146502861753,-0.0284985490143,0.0,22.8999996185,0.011444881707926421,0.0048997612626421405,-0.009531287295752507,22.8999996185,0.0,0.016910892792745925,0.046880913133254244
1648539370200037822,14578,0,2,0.423786699772,-1.14272224903,-0.0178092643619,0.0,22.8999996185,0.14173468219799332,-0.3821813541906354,-0.005956275706321071,22.8999996185,0.0,0.43155535886664675,1.218903800645866
1648539370200043004,14579,0,3,1.21218311787,0.0380907431245,0.122014835477,0.0,22.8999996185,0.40541241400334443,0.01273937897140468,0.04080763728327759,22.8999996185,0.0,0.5734812487192719,1.2189037845692703
1648539370200152330,14580,0,4,2.47035884857,-0.237334638834,0.49984306097,0.0,22.8999996185,0.8262069727658863,-0.07937613338929765,0.16717159229765885,22.8999996185,0.0,1.171126164956524,2.531569405941386
1648539370200156843,14581,0,5,0.529544174671,-0.228544458747,0.196931526065,-0.0809188112617,22.8999996185,0.17710507514080268,-0.07643627382842809,0.06586338664381271,22.8999996185,-0.010934974494824324,0.2618681333000126,0.6094519082833686
1648539370305182452,14582,1,0,0.00635288888589,0.0454158857465,0.00973952561617,0.0,14.1999998093,0.0021247120019698995,0.015189259446989964,0.0032573664268127087,14.1999998093,0.0,0.015483617301218852,0.04688091546209009
1648539370305201828,14583,1,1,0.034184448421,0.0146502861753,-0.0285414196551,0.0,14.1999998093,0.011432925893311035,0.0048997612626421405,-0.00954562530270903,14.1999998093,0.0,0.0168947106928403,0.046880913331490505
1648539370305208125,14584,1,2,0.809376657009,0.306190997362,0.211115375161,0.0,14.1999998093,0.2706945341167224,0.10240501584013377,0.07060714888327758,14.1999998093,0.0,0.39628001321105866,0.8907374480765757
1648539370500102840,14585,3,0,0.00639080395922,0.0454158857465,0.00971468910575,0.0,12.0,0.0021373926285016723,0.015189259446989964,0.0032490599015886283,12.0,0.0,0.015487107446024917,0.04688091549666774
1648539370500111779,14586,3,1,0.034184448421,0.0146502861753,-0.0285414196551,0.0,12.0,0.011432925893311035,0.0048997612626421405,-0.00954562530270903,12.0,0.0,0.0168947106928403,0.046880913331490505
1648539370500114838,14587,3,2,0.815053284168,0.306190997362,0.188011750579,0.0,12.0,0.27259307162809365,0.10240501584013377,0.06288018414013377,12.0,0.0,0.3988743569954028,0.8907374479914713
1648539370605233432,14588,4,0,0.00635288888589,0.0454158857465,0.00973952561617,0.0,13.8000001907,0.0021247120019698995,0.015189259446989964,0.0032573664268127087,13.8000001907,0.0,0.015483617301218852,0.04688091546209009
1648539370605240575,14589,4,1,0.0341567471623,0.0146502861753,-0.0285745654255,0.0,13.8000001907,0.011423661258294315,0.0048997612626421405,-0.009556710844648828,13.8000001907,0.0,0.016882172061657156,0.046880913504150655
1648539370605243292,14590,4,2,0.805655658245,0.334026515484,0.180992975831,0.0,13.8000001907,0.2694500529247491,0.11171455367357858,0.060532767836454844,13.8000001907,0.0,0.3970979772610118,0.8907374529055843
1648539370605245040,14591,4,3,0.53751963377,-0.0,0.166008278728,-0.0809188112617,13.8000001907,0.17977245276588627,-0.0,0.0555211634541806,13.8000001907,-0.010934974494824324,0.254236640842593,0.5625709780058586
