%time,field.header.seq,field.header.frame_id,field.point_id,field.x,field.y,field.z,field.velocity,field.intensity,normalized_x,normalized_y,normalized_z,normalized_intensity,normalized_velocity,normalized_range,range
1648478940816703985,55961,0,0,0.0130872614682,0.0439508594573,0.00973990559578,0.0,19.8999996185,0.0043770105244816055,0.014699284099431437,0.0032574935102943144,19.8999996185,0.0,0.01594946379345222,0.04688091531515864
1648478940816806530,55962,0,1,0.033851724118,0.0146502861753,-0.028935270384,0.0,19.8999996185,0.011321646862207357,0.0048997612626421405,-0.00967734795451505,19.8999996185,0.0,0.016744164230440048,0.046880912778811776
1648478940816826924,55963,0,2,2.25937414169,-1.4196126461,0.143688842654,0.0,19.8999996185,0.7556435256488293,-0.4747868381605351,0.04805646911505017,19.8999996185,0.0,1.1693659895004918,2.6722122035137317
