%time,field.header.seq,field.header.frame_id,field.point_id,field.x,field.y,field.z,field.velocity,field.intensity,normalized_x,normalized_y,normalized_z,normalized_intensity,normalized_velocity,normalized_range,range
1648539758604640338,22263,0,0,0.00675916718319,0.0454158857465,0.00946209393442,0.0,31.1000003815,0.002260591031167224,0.015189259446989964,0.003164579911177257,31.1000003815,0.0,0.015522053542246311,0.04688091552831751
1648539758604646695,22264,0,1,0.0341859310865,0.0146502861753,-0.0285396445543,0.0,31.1000003815,0.0114334217680602,0.0048997612626421405,-0.009545031623511705,31.1000003815,0.0,0.01689538182710276,0.04688091381953747
1648539758604649049,22265,0,2,0.603188455105,-0.153828009963,0.327124148607,0.0,31.1000003815,0.20173526926588625,-0.05144749497090301,0.10940606976822742,31.1000003815,0.0,0.289898400254883,0.7032137495975089
