%time,field.header.seq,field.header.frame_id,field.point_id,field.x,field.y,field.z,field.velocity,field.intensity,normalized_x,normalized_y,normalized_z,normalized_intensity,normalized_velocity,normalized_range,range
1648478763116058857,49857,0,0,0.0131036993116,0.0439508594573,0.00971778016537,0.0,23.1000003815,0.004382508130969899,0.014699284099431437,0.0032500937007926417,23.1000003815,0.0,0.015952482818415208,0.04688091545636264
1648478763116078399,49858,0,1,0.033851724118,0.0146502861753,-0.028935270384,0.0,23.1000003815,0.011321646862207357,0.0048997612626421405,-0.00967734795451505,23.1000003815,0.0,0.016744164230440048,0.046880912778811776
1648478763116088636,49859,0,2,0.988202095032,-0.257845044136,0.143936038017,0.0,23.1000003815,0.3305023729204013,-0.08623580071438126,0.048139143149498326,23.1000003815,0.0,0.47528964888463804,1.0313801580654733
1648478763116093914,49860,0,3,1.47618246078,-0.234404578805,0.128483325243,0.0,23.1000003815,0.49370650862207355,-0.07839618020234114,0.04297101178695652,23.1000003815,0.0,0.7025939043159378,1.5001893643619608
1648478763116116075,49861,0,4,1.80497741699,-1.46502864361,0.300497293472,0.0,23.1000003815,0.6036713769197324,-0.489976134986622,0.10050076704749163,23.1000003815,0.0,0.9843347375160341,2.344045866834872
1648478763116129120,49862,0,5,0.637920796871,-0.0410208031535,-0.148819163442,0.161837622523,23.1000003815,0.213351437080602,-0.013719332158361203,-0.049772295465551834,23.1000003815,0.021869948989594594,0.3020362420034847,0.6563328368895363
1648478763116228781,49863,0,6,0.240821033716,-0.174338415265,0.138940826058,-0.242756426334,23.1000003815,0.0805421517444816,-0.05830716229598661,0.04646850369832776,23.1000003815,-0.03280492247756756,0.12796015626073892,0.3281664310419849
1648478763221154472,49864,1,0,0.0131107158959,0.0439508594573,0.00970831234008,0.0,22.6000003815,0.004384854814682274,0.014699284099431437,0.003246927204040134,22.6000003815,0.0,0.015953772485762813,0.04688091559292428
1648478763221162867,49865,1,1,0.0338867343962,0.0146502861753,-0.028894264251,0.0,22.6000003815,0.011333355985351169,0.0048997612626421405,-0.009663633528762542,22.6000003815,0.0,0.016759999290342432,0.0468809146632551
1648478763221185515,49866,1,2,0.946313381195,-0.215359210968,0.16537861526,0.0,22.6000003815,0.31649276963043477,-0.07202649196254181,0.05531057366555184,22.6000003815,0.0,0.45334662456129193,0.9844992085130327
1648478763221190059,49867,1,3,1.48321652412,-0.187523663044,0.1243840307,0.0,22.6000003815,0.496059038167224,-0.0627169441618729,0.041600010267558524,22.6000003815,0.0,0.7043312812730855,1.5001892443012756
1648478763221195482,49868,1,4,2.30956411362,-1.33610606194,0.146464049816,0.0,22.6000003815,0.7724294694381271,-0.4468582146956522,0.04898463204548495,22.6000003815,0.0,1.1802443961120588,2.67221210265253
1648478763221197794,49869,1,5,0.27414804697,-0.123062409461,0.131877571344,-0.0809188112617,22.6000003815,0.09168831002341137,-0.041157996475250834,0.04410621115183946,22.6000003815,-0.010934974494824324,0.13604217384236095,0.32816642439988275
