%time,field.header.seq,field.header.frame_id,field.point_id,field.x,field.y,field.z,field.velocity,field.intensity,normalized_x,normalized_y,normalized_z,normalized_intensity,normalized_velocity,normalized_range,range
1648539266800416877,11500,0,0,0.00628270860761,0.0454158857465,0.00978494435549,0.0,11.8999996185,0.0021012403369933107,0.015189259446989964,0.003272556640632107,11.8999996185,0.0,0.015477209840781684,0.04688091553742646
1648539266800424652,11501,0,1,0.034159488976,0.0146502861753,-0.0285712908953,0.0,11.8999996185,0.011424578252842809,0.0048997612626421405,-0.009555615684046823,11.8999996185,0.0,0.016883413071459994,0.04688091547254068
1648539266800427849,11502,0,2,0.906393647194,0.36918720603,0.106724001467,0.0,11.8999996185,0.3031416880247491,0.12347398194983276,0.03569364597558528,11.8999996185,0.0,0.4461340496482377,0.9844991870281088
1648539266800431934,11503,0,3,1.16822385788,0.0732514336705,0.0593726634979,0.0,11.8999996185,0.39071032036120396,0.02449880724765886,0.019857078092943143,11.8999996185,0.0,0.5530906801149945,1.1720229809289786
1648539266800443042,11504,0,4,0.489646792412,-1.0621458292,0.0756967440248,0.0,11.8999996185,0.1637614690341137,-0.35523271879598656,0.02531663679759197,11.8999996185,0.0,0.4240588661773391,1.172022926764776
1648539266800465021,11505,0,5,2.49675798416,-0.079111546278,0.410835236311,0.0,11.8999996185,0.8350361151036788,-0.026458711129765885,0.13740308906722407,11.8999996185,0.0,1.1812157679482342,2.5315696039445403
1648539266905481662,11506,1,0,0.00628270860761,0.0454158857465,0.00978494435549,0.0,12.0,0.0021012403369933107,0.015189259446989964,0.003272556640632107,12.0,0.0,0.015477209840781684,0.04688091553742646
1648539266905484393,11507,1,1,0.034159488976,0.0146502861753,-0.0285712908953,0.0,12.0,0.011424578252842809,0.0048997612626421405,-0.009555615684046823,12.0,0.0,0.016883413071459994,0.04688091547254068
1648539266905494343,11508,1,2,0.830260515213,0.250519901514,0.203274235129,0.0,12.0,0.2776791020779264,0.08378592023879598,0.06798469402307691,12.0,0.0,0.4015363593647141,0.8907374241849393
1648539266905507060,11509,1,3,0.876333594322,0.399952799082,0.203263103962,0.0,12.0,0.29308815863612037,0.13376347795384613,0.06798097122474916,12.0,0.0,0.4355387531549086,0.9844992125253881
1648539266905578828,11510,1,4,2.49311447144,-0.079111546278,0.432394891977,0.0,12.0,0.8338175489765887,-0.026458711129765885,0.14461367624648827,12.0,0.0,1.1794928882181952,2.5315694237104873
1648539266905582465,11511,1,5,0.363118112087,0.303260922432,0.968929708004,-0.242756426334,12.0,0.1214441846444816,0.10142505766956521,0.3240567585297659,12.0,-0.03280492247756756,0.19946032761228613,1.0782609746497605
1648539266905587187,11512,1,6,0.594896912575,-0.266635209322,0.0760007575154,-0.0809188112617,12.0,0.19896217811872907,-0.0891756552916388,0.025418313550301004,12.0,-0.010934974494824324,0.29516807777974724,0.6563328321700572
1648539267100426438,11513,3,0,0.00628270860761,0.0454158857465,0.00978494435549,0.0,13.8999996185,0.0021012403369933107,0.015189259446989964,0.003272556640632107,13.8999996185,0.0,0.015477209840781684,0.04688091553742646
1648539267100585503,11514,3,1,0.034159488976,0.0146502861753,-0.0285712908953,0.0,13.8999996185,0.011424578252842809,0.0048997612626421405,-0.009555615684046823,13.8999996185,0.0,0.016883413071459994,0.04688091547254068
1648539267100592161,11515,3,2,0.639123380184,-0.219754293561,0.194265186787,0.0,13.8999996185,0.21375363885752505,-0.07349641925117056,0.06497163437692308,13.8999996185,0.0,0.31109959802675785,0.7032137707935645
1648539267100721079,11516,3,3,0.302183359861,-1.18081307411,-0.00960013270378,0.0,13.8999996185,0.10106466884983276,-0.39492076057190634,-0.0032107467236722406,13.8999996185,0.0,0.41998873998018765,1.2189037950199029
1648539267100724563,11517,3,4,1.20339858532,0.190453708172,0.0358557887375,0.0,13.8999996185,0.4024744432508361,0.06369689236521739,0.011991902587792641,13.8999996185,0.0,0.5727378536792614,1.2189037729421592
1648539267100731299,11518,3,5,2.50385093689,-0.079111546278,0.365125149488,0.0,13.8999996185,0.83740834009699,-0.026458711129765885,0.12211543461137123,13.8999996185,0.0,1.184569761357532,2.531569577496945
1648539267205734532,11519,4,0,0.00631978036836,0.0454158857465,0.00976104196161,0.0,12.6999998093,0.0021136389191839466,0.015189259446989964,0.003264562528966555,12.6999998093,0.0,0.015480585954974445,0.04688091554374511
1648539267205747182,11520,4,1,0.0340961664915,0.0146502861753,-0.0286468267441,0.0,12.6999998093,0.01140340016438127,0.0048997612626421405,-0.009580878509732441,12.6999998093,0.0,0.016854753959904312,0.04688091442091074
1648539267205761144,11521,4,2,0.633141517639,-0.082041606307,0.152229532599,0.0,12.6999998093,0.2117530159327759,-0.027438664316722407,0.05091288715685618,12.6999998093,0.0,0.30071840617550943,0.6563328706677419
1648539267205770145,11522,4,3,0.935191810131,0.307655990124,0.00165242573712,0.0,12.6999998093,0.3127731806458194,0.10289497997458194,0.0005526507482006689,12.6999998093,0.0,0.4541381969913722,0.984499192740193
1648539267205774673,11523,4,4,0.270668178797,-1.13539719582,-0.106064997613,0.0,12.6999998093,0.09052447451404681,-0.37973150361872904,-0.03547324334882943,12.6999998093,0.0,0.4007310517200151,1.1720229686349366
1648539267205795144,11524,4,5,1.16251659393,0.146502867341,-0.0270136948675,0.0,12.6999998093,0.3888015364314381,0.04899761449531772,-0.009034680557692307,12.6999998093,0.0,0.5520272055697306,1.172022892699685
