%time,field.header.seq,field.header.frame_id,field.point_id,field.x,field.y,field.z,field.velocity,field.intensity,normalized_x,normalized_y,normalized_z,normalized_intensity,normalized_velocity,normalized_range,range
1648539400899786969,15451,0,0,0.00646227691323,0.0454158857465,0.00966729223728,0.0,12.1000003815,0.0021612966264983277,0.015189259446989964,0.0032332081061137124,12.1000003815,0.0,0.015493740954443508,0.04688091552266638
1648539400899789683,15452,0,1,0.034231364727,0.0146502861753,-0.0284851361066,0.0,12.1000003815,0.01144861696555184,0.0048997612626421405,-0.009526801373444816,12.1000003815,0.0,0.016915948725351806,0.04688091504122561
1648539400899800048,15453,0,2,0.868004560471,0.293005734682,0.199609190226,0.0,12.1000003815,0.2903025285856187,0.09799522899063544,0.06675892649698996,12.1000003815,0.0,0.4220831447846917,0.9376183159354727
1648539400899955290,15454,0,3,2.50787448883,-0.079111546278,0.336379110813,0.0,12.1000003815,0.8387540096421404,-0.026458711129765885,0.11250137485384613,12.1000003815,0.0,1.186472351458804,2.5315694726138123
1648539400899961339,15455,0,4,0.488219678402,-0.361862063408,-0.0461412742734,-0.485512852669,12.1000003815,0.1632841733785953,-0.12102410147424747,-0.015431864305484948,12.1000003815,-0.06560984495527027,0.2607110962147781,0.6094519049969578
1648539400900019302,15456,0,5,0.458729535341,-0.399952799082,-0.0321963131428,-0.485512852669,12.1000003815,0.1534212492779264,-0.13376347795384613,-0.010767997706622073,12.1000003815,-0.06560984495527027,0.2548898340348401,0.6094519100533574
1648539400900121207,15457,0,6,0.536998450756,-0.285680562258,-0.0380907431245,-0.323675245047,12.1000003815,0.1795981440655518,-0.09554533854782607,-0.01273937897140468,12.1000003815,-0.04373989797932432,0.27136672312905297,0.6094519049754196
1648539401005011609,15458,1,0,0.00642501097172,0.0454158857465,0.0096920998767,0.0,22.5,0.0021488331009096987,0.015189259446989964,0.0032415049754849494,22.5,0.0,0.015490273397816588,0.046880915564286835
1648539401005017671,15459,1,1,0.0341497957706,0.0146502861753,-0.0285828728229,0.0,22.5,0.01142133637812709,0.0048997612626421405,-0.009559489238428092,22.5,0.0,0.016879025734785374,0.046880913547007075
1648539401005020178,15460,1,2,0.301668673754,-1.18081307411,-0.0200736932456,0.0,22.5,0.10089253302809364,-0.39492076057190634,-0.006713609781137123,22.5,0.0,0.41990595801005604,1.2189037935268412
1648539401005023655,15461,1,3,2.50084495544,-0.079111546278,0.385174900293,0.0,22.5,0.8364029951304347,-0.026458711129765885,0.12882103688729096,22.5,0.0,1.1831483440046613,2.531569440430168
1648539401005027882,15462,1,4,0.508974134922,-0.228544458747,0.072103433311,-0.161837622523,22.5,0.1702254631846154,-0.07643627382842809,0.02411486063913043,22.5,-0.021869948989594594,0.2525785434070126,0.5625710130630545
1648539401200000573,15463,3,0,0.00645441934466,0.0454158857465,0.00967254023999,0.0,25.8999996185,0.0021586686771438122,0.015189259446989964,0.003234963290966555,25.8999996185,0.0,0.01549300821220132,0.046880915540442346
1648539401200008709,15464,3,1,0.034231364727,0.0146502861753,-0.0284851361066,0.0,25.8999996185,0.01144861696555184,0.0048997612626421405,-0.009526801373444816,25.8999996185,0.0,0.016915948725351806,0.04688091504122561
1648539401200011321,15465,3,2,0.865620195866,0.32230630517,0.16108520329,0.0,25.8999996185,0.28950508222943144,0.10779475089297658,0.053874649929765886,25.8999996185,0.0,0.4233746492096788,0.9376183234997117
1648539401200014365,15466,3,3,0.551163434982,-0.0527410283685,0.0996159762144,0.0809188112617,25.8999996185,0.1843355969839465,-0.017639139922575247,0.03331638000481605,25.8999996185,0.010934974494824324,0.2612859810400552,0.5625709651694373
1648539401200148857,15467,3,4,0.556759953499,0.439508587122,-0.613170981407,-0.242756426334,25.8999996185,0.18620734230735783,0.14699283850234113,-0.20507390682508359,25.8999996185,-0.03280492247756756,0.30158455402973544,0.937618310622083
1648539401200152023,15468,3,5,0.851487994194,0.0879017189145,0.382582694292,-0.242756426334,25.8999996185,0.2847785933759197,0.02939856819882943,0.1279540783585284,25.8999996185,-0.03280492247756756,0.40380932418961807,0.9376182775609545
1648539401305138853,15469,4,0,0.00645441934466,0.0454158857465,0.00967254023999,0.0,26.6000003815,0.0021586686771438122,0.015189259446989964,0.003234963290966555,26.6000003815,0.0,0.01549300821220132,0.046880915540442346
1648539401305146512,15470,4,1,0.0341497957706,0.0146502861753,-0.0285828728229,0.0,26.6000003815,0.01142133637812709,0.0048997612626421405,-0.009559489238428092,26.6000003815,0.0,0.016879025734785374,0.046880913547007075
1648539401305280518,15471,4,2,0.853998661041,0.32230630517,0.214319810271,0.0,26.6000003815,0.28561828128461536,0.10779475089297658,0.07167886631137123,26.6000003815,0.0,0.41806137531232684,0.9376182850642127
1648539401499859636,15472,6,0,0.00642501097172,0.0454158857465,0.0096920998767,0.0,14.3999996185,0.0021488331009096987,0.015189259446989964,0.0032415049754849494,14.3999996185,0.0,0.015490273397816588,0.046880915564286835
1648539401499862853,15473,6,1,0.0341353341937,0.0146502861753,-0.0286001432687,0.0,14.3999996185,0.011416499730334446,0.0048997612626421405,-0.009565265307257525,14.3999996185,0.0,0.016872480333855525,0.04688091424582009
1648539401499878222,15474,6,2,0.899237275124,0.399952799082,0.0254717580974,0.0,14.3999996185,0.30074825254983273,0.13376347795384613,0.008518982641270902,14.3999996185,0.0,0.4458606181957149,0.9844992274890496
1648539401499892557,15475,6,3,2.47378373146,-0.079111546278,0.531958281994,0.0,14.3999996185,0.827352418548495,-0.026458711129765885,0.17791246889431436,14.3999996185,0.0,1.170352131775192,2.5315695132807763
1648539401499996562,15476,6,4,0.58002114296,0.114272229373,0.148151785135,0.0809188112617,14.3999996185,0.19398700433444813,0.03821813691404682,0.04954909201839464,14.3999996185,0.010934974494824324,0.276988342156285,0.609451901404194
