%time,field.header.seq,field.header.frame_id,field.point_id,field.x,field.y,field.z,field.velocity,field.intensity,normalized_x,normalized_y,normalized_z,normalized_intensity,normalized_velocity,normalized_range,range
1648479549821876756,73210,0,0,0.0131334252656,0.0439508594573,0.00967756938189,0.0,13.5,0.004392449921605351,0.014699284099431437,0.00323664527822408,13.5,0.0,0.01595795054709155,0.04688091568414307
1648479549821886184,73211,0,1,0.0339150689542,0.0146502861753,-0.0288610011339,0.0,13.5,0.011342832426153847,0.0048997612626421405,-0.009652508740434782,13.5,0.0,0.016772815962935467,0.046880914812291195
1648479549821890727,73212,0,2,1.05498659611,-0.168478280306,0.145825430751,0.0,13.5,0.35283832645819396,-0.05634725093846154,0.04877104707391303,13.5,0.0,0.5021601158235888,1.0782609633851845
1648479550121946205,73213,3,0,0.0131334252656,0.0439508594573,0.00967756938189,0.0,16.2999992371,0.004392449921605351,0.014699284099431437,0.00323664527822408,16.2999992371,0.0,0.01595795054709155,0.04688091568414307
1648479550121960777,73214,3,1,0.0338290072978,0.0146502861753,-0.0289618279785,0.0,16.2999992371,0.01131404926347826,0.0048997612626421405,-0.009686230093143811,16.2999992371,0.0,0.016733890220260034,0.04688091402296906
1648479550121992103,73215,3,2,1.05952644348,-0.134782627225,0.147932931781,0.0,16.2999992371,0.35435667006020066,-0.04507780174749164,0.049475896916722405,16.2999992371,0.0,0.5031593261012797,1.078261004275112
1648479550122007617,73216,3,3,1.93594145775,-1.31852579117,0.090397939086,0.0,16.2999992371,0.6474720594481606,-0.44097852547491634,0.030233424443478256,16.2999992371,0.0,1.0163179598246388,2.344045941786693
1648479550122010315,73217,3,4,0.472790956497,-0.11280720681,0.172277376056,-0.242756426334,16.2999992371,0.15812406571806017,-0.03772816281270903,0.057617851523745815,16.2999992371,-0.03280492247756756,0.2267815128877156,0.5156900704438303
1648479550227012807,73218,4,0,0.0131334252656,0.0439508594573,0.00967756938189,0.0,21.2000007629,0.004392449921605351,0.014699284099431437,0.00323664527822408,21.2000007629,0.0,0.01595795054709155,0.04688091568414307
1648479550227026991,73219,4,1,0.0339150689542,0.0146502861753,-0.0288610011339,0.0,21.2000007629,0.011342832426153847,0.0048997612626421405,-0.009652508740434782,21.2000007629,0.0,0.016772815962935467,0.046880914812291195
1648479550227030851,73220,4,2,1.9339171648,-1.31852579117,0.126512855291,0.0,21.2000007629,0.6467950383946488,-0.44097852547491634,0.0423119917361204,21.2000007629,0.0,1.0154554167042007,2.344045939149322
1648479550227033095,73221,4,3,2.15093851089,-1.1646977663,0.436599850655,0.0,21.2000007629,0.7193774283913044,-0.38953102551839464,0.14602001694147157,21.2000007629,0.0,1.089376972768924,2.484688470220335
1648479550227039766,73222,4,4,1.05338418484,-0.168478280306,0.156983047724,0.0809188112617,21.2000007629,0.35230240295652177,-0.05634725093846154,0.052502691546488296,21.2000007629,0.010934974494824324,0.501406999299173,1.0782610301214703
1648479550227067462,73223,4,5,0.649711847305,0.082041606307,0.0437781326473,0.161837622523,21.2000007629,0.21729493220903007,0.027438664316722407,0.01464151593555184,21.2000007629,0.021869948989594594,0.30852399489657156,0.6563328687426777
1648479550227072430,73224,4,6,0.513484418392,0.12306240201,0.194101810455,0.242756426334,21.2000007629,0.1717339191946488,0.04115799398327759,0.0649169934632107,21.2000007629,0.03280492247756756,0.24633119671011192,0.5625709871134043
1648479550422159385,73225,6,0,0.0131334252656,0.0439508594573,0.00967756938189,0.0,28.6000003815,0.004392449921605351,0.014699284099431437,0.00323664527822408,28.6000003815,0.0,0.01595795054709155,0.04688091568414307
1648479550422189009,73226,6,1,0.0339014641941,0.0146502861753,-0.028876978904,0.0,28.6000003815,0.01133828233916388,0.0048997612626421405,-0.00965785247625418,28.6000003815,0.0,0.016766661958663078,0.046880913708502864
1648479550422206749,73227,6,2,1.05714142323,-0.202173948288,0.0649968087673,0.0,28.6000003815,0.35355900442474913,-0.06761670511304348,0.021738063132876254,28.6000003815,0.0,0.504559171980833,1.0782610441006584
1648479550422213553,73228,6,3,1.93698775768,-1.31852579117,0.0641827434301,0.0,28.6000003815,0.6478219925351171,-0.44097852547491634,0.02146580047829431,28.6000003815,0.0,1.0167638506331595,2.344045916772298
1648479550422324192,73229,6,4,1.87689769268,-1.52362966537,0.314187020063,0.242756426334,28.6000003815,0.6277249808294314,-0.5095751389197325,0.10507927092408026,28.6000003815,0.03280492247756756,1.0235937305980751,2.4378075784522197
1648479550422331154,73230,6,5,2.25332808495,0.914177834988,0.172330722213,0.242756426334,28.6000003815,0.7536214330936455,0.30574509531371236,0.057635693047826085,28.6000003815,0.03280492247756756,1.1087698553553083,2.437807713956586
1648479550422333053,73231,6,6,0.503927826881,0.304725944996,0.156940937042,0.323675245047,28.6000003815,0.16853773474280936,0.10191503177123744,0.05248860770635451,28.6000003815,0.04373989797932432,0.2592230887969038,0.6094518963612578
