%time,field.header.seq,field.header.frame_id,field.point_id,field.x,field.y,field.z,field.velocity,field.intensity,normalized_x,normalized_y,normalized_z,normalized_intensity,normalized_velocity,normalized_range,range
1648539632004352172,20462,0,0,0.00663278670982,0.0454158857465,0.0095511097461,0.0,11.6000003815,0.0022183233143210704,0.015189259446989964,0.0031943510856521735,11.6000003815,0.0,0.015509852326882248,0.04688091546737491
1648539632004359690,20463,0,1,0.0342562347651,0.0146502861753,-0.0284552238882,0.0,11.6000003815,0.011456934704046823,0.0048997612626421405,-0.00951679728702341,11.6000003815,0.0,0.016927207863569035,0.046880915859520284
1648539632004365495,20464,0,2,0.847975373268,0.167013257742,0.215540036559,0.0,11.6000003815,0.28360380376856187,0.05585727683678929,0.07208696874882943,11.6000003815,0.0,0.40494724397088516,0.8907374300490885
