%time,field.header.seq,field.header.frame_id,field.point_id,field.x,field.y,field.z,field.velocity,field.intensity,normalized_x,normalized_y,normalized_z,normalized_intensity,normalized_velocity,normalized_range,range
1648539679704356707,21077,0,0,0.00666594831273,0.0454158857465,0.00952799525112,0.0,16.3999996185,0.0022294141514147157,0.015189259446989964,0.0031866204853244146,16.3999996185,0.0,0.015513032503834647,0.04688091550463253
1648539679704361804,21078,0,1,0.0341859310865,0.0146502861753,-0.0285396445543,0.0,16.3999996185,0.0114334217680602,0.0048997612626421405,-0.009545031623511705,16.3999996185,0.0,0.01689538182710276,0.04688091381953747
1648539679704369268,21079,0,2,0.424110233784,-1.14272224903,0.00654394039884,0.0,16.3999996185,0.14184288755317723,-0.3821813541906354,0.0021886088290434783,16.3999996185,0.0,0.43162645538687094,1.2189037911108669
1648539679704373307,21080,0,3,2.46684169769,-0.079111546278,0.563273787498,0.0,16.3999996185,0.8250306681237458,-0.026458711129765885,0.18838588210635449,16.3999996185,0.0,1.1670695223867673,2.531569465351271
