%time,field.header.seq,field.header.frame_id,field.point_id,field.x,field.y,field.z,field.velocity,field.intensity,normalized_x,normalized_y,normalized_z,normalized_intensity,normalized_velocity,normalized_range,range
1648539365800316721,14445,0,0,0.00639080395922,0.0454158857465,0.00971468910575,0.0,11.6999998093,0.0021373926285016723,0.015189259446989964,0.0032490599015886283,11.6999998093,0.0,0.015487107446024917,0.04688091549666774
1648539365800319801,14446,0,1,0.034184448421,0.0146502861753,-0.0285414196551,0.0,11.6999998093,0.011432925893311035,0.0048997612626421405,-0.00954562530270903,11.6999998093,0.0,0.0168947106928403,0.046880913331490505
1648539365800321746,14447,0,2,0.86753475666,0.32230630517,0.150433421135,0.0,11.6999998093,0.2901454035652174,0.10779475089297658,0.050312180981605344,11.6999998093,0.0,0.42425041984672757,0.9376183245648748
1648539365800324218,14448,0,3,0.423128575087,-1.14272224903,-0.0295725483447,0.0,11.6999998093,0.14151457360769232,-0.3821813541906354,-0.009890484396220735,11.6999998093,0.0,0.43141086747753804,1.2189037964904925
1648539365800329602,14449,0,4,1.20399463177,-0.0,0.190061956644,0.0,11.6999998093,0.4026737898896321,-0.0,0.06356587178729096,11.6999998093,0.0,0.5694667348740918,1.2189038603164417
1648539365800385010,14450,0,5,2.48676419258,-0.158223092556,0.447004795074,0.0,11.6999998093,0.8316937098929765,-0.05291742225953177,0.14949993146287624,11.6999998093,0.0,1.1773823116259556,2.5315694703750857
1648539365905045800,14451,1,0,0.00654975092039,0.0454158857465,0.00960824266076,0.0,13.8000001907,0.0021905521472876254,0.015189259446989964,0.0032134590838662205,13.8000001907,0.0,0.015501956004580413,0.046880915544455184
1648539365905072238,14452,1,1,0.034184448421,0.0146502861753,-0.0285414196551,0.0,13.8000001907,0.011432925893311035,0.0048997612626421405,-0.00954562530270903,13.8000001907,0.0,0.0168947106928403,0.046880913331490505
1648539365905097402,14453,1,2,0.861854016781,0.32230630517,0.180151149631,0.0,13.8000001907,0.28824549056220733,0.10779475089297658,0.06025122061237458,13.8000001907,0.0,0.42165226665935757,0.9376183324291673
1648539365905209193,14454,1,3,0.300873041153,-1.18081307411,-0.0297044850886,0.0,13.8000001907,0.10062643516822742,-0.39492076057190634,-0.009934610397525084,13.8000001907,0.0,0.41977823435717093,1.2189037941183636
1648539365905215582,14455,1,4,1.20291924477,0.114272229373,0.160167649388,0.0,13.8000001907,0.40231412868561867,0.03821813691404682,0.05356777571505016,13.8000001907,0.0,0.5702402496047766,1.2189038221920463
1648539365905352267,14456,1,5,2.46910715103,-0.158223092556,0.536022126675,0.0,13.8000001907,0.8257883448260869,-0.05291742225953177,0.17927161427257526,13.8000001907,0.0,1.1690393639564967,2.5315695508065064
1648539366100122619,14457,3,0,0.00639080395922,0.0454158857465,0.00971468910575,0.0,13.1999998093,0.0021373926285016723,0.015189259446989964,0.0032490599015886283,13.1999998093,0.0,0.015487107446024917,0.04688091549666774
1648539366100131157,14458,3,1,0.034184448421,0.0146502861753,-0.0285414196551,0.0,13.1999998093,0.011432925893311035,0.0048997612626421405,-0.00954562530270903,13.1999998093,0.0,0.0168947106928403,0.046880913331490505
1648539366100153805,14459,3,2,0.822786867619,0.334026515484,0.0697227045894,0.0,13.1999998093,0.27517955438762537,0.11171455367357858,0.02331863029745819,13.1999998093,0.0,0.40487987824592003,0.8907374462252776
1648539366100289907,14460,3,3,0.632842361927,-0.102552011609,0.140593141317,0.0809188112617,13.1999998093,0.21165296385518395,-0.03429833164180602,0.047021117497324405,13.1999998093,0.010934974494824324,0.30128114738691986,0.656332843547981
1648539366100299205,14461,3,4,0.315524816513,0.102552011609,0.566303789616,0.0809188112617,13.1999998093,0.10552669448595317,0.03429833164180602,0.1893992607411371,13.1999998093,0.010934974494824324,0.15312786177464477,0.6563328477640423
1648539366205137329,14462,4,0,0.00641869101673,0.0454158857465,0.00969628617167,0.0,12.8000001907,0.0021467194035886287,0.015189259446989964,0.0032429050741371234,12.8000001907,0.0,0.015489687244856228,0.04688091549906327
1648539366205146880,14463,4,1,0.0341497957706,0.0146502861753,-0.0285828728229,0.0,12.8000001907,0.01142133637812709,0.0048997612626421405,-0.009559489238428092,12.8000001907,0.0,0.016879025734785374,0.046880913547007075
1648539366205150077,14464,4,2,0.639315783978,0.0410208031535,0.142707586288,0.0,12.8000001907,0.21381798795250836,0.013719332158361203,0.047728289728428096,12.8000001907,0.0,0.3026953650437837,0.6563328676204704
1648539366205153750,14465,4,3,0.851803719997,0.351606875658,0.173005893826,0.0,12.8000001907,0.28488418728996656,0.11759427279531771,0.057861502951839464,12.8000001907,0.0,0.4196980025327606,0.9376182654520128
