%time,field.header.seq,field.header.frame_id,field.point_id,field.x,field.y,field.z,field.velocity,field.intensity,normalized_x,normalized_y,normalized_z,normalized_intensity,normalized_velocity,normalized_range,range
1648539604704609201,20120,0,0,0.00662765698507,0.0454158857465,0.0095546701923,0.0,19.2000007629,0.0022166076873143814,0.015189259446989964,0.003195541870334448,19.2000007629,0.0,0.015509361747889444,0.04688091549590851
1648539604704762793,20121,0,1,0.0342562347651,0.0146502861753,-0.0284552238882,0.0,19.2000007629,0.011456934704046823,0.0048997612626421405,-0.00951679728702341,19.2000007629,0.0,0.016927207863569035,0.046880915859520284
1648539604704828385,20122,0,2,0.912560045719,0.146502867341,0.157794758677,0.0,19.2000007629,0.30520402866856183,0.04899761449531772,0.05277416678160535,19.2000007629,0.0,0.4343958614642552,0.9376183194923884
1648539604704843862,20123,0,3,2.44711470604,-0.158223092556,0.628839492798,0.0,19.2000007629,0.8184330120535116,-0.05291742225953177,0.21031421163812708,19.2000007629,0.0,1.1586481105221553,2.531569481416156
1648539604704851399,20124,0,4,0.637160539627,-0.123062409461,0.0982595905662,-0.161837622523,19.2000007629,0.2130971704438127,-0.041157996475250834,0.03286273931979933,19.2000007629,-0.021869948989594594,0.3041624381414896,0.6563328858272713
