%time,field.header.seq,field.header.frame_id,field.point_id,field.x,field.y,field.z,field.velocity,field.intensity,normalized_x,normalized_y,normalized_z,normalized_intensity,normalized_velocity,normalized_range,range
1648539738204633319,21946,0,0,0.00675304420292,0.0454158857465,0.00946646463126,0.0,16.6000003815,0.0022585432116789296,0.015189259446989964,0.003166041682695652,16.6000003815,0.0,0.015521457322880986,0.04688091548552171
1648539738204656204,21947,0,1,0.0341859310865,0.0146502861753,-0.0285396445543,0.0,16.6000003815,0.0114334217680602,0.0048997612626421405,-0.009545031623511705,16.6000003815,0.0,0.01689538182710276,0.04688091381953747
1648539738204658143,21948,0,2,0.838084101677,0.167013257742,0.251266241074,0.0,16.6000003815,0.28029568617959866,0.05585727683678929,0.08403553213177256,16.6000003815,0.0,0.4003141001231481,0.890737398815609
1648539738204660746,21949,0,3,0.561345875263,-0.0,0.0371071845293,-0.161837622523,16.6000003815,0.1877410954056856,-0.0,0.012410429608461539,16.6000003815,-0.021869948989594594,0.26550600333750174,0.5625710042461085
