%time,field.header.seq,field.header.frame_id,field.point_id,field.x,field.y,field.z,field.velocity,field.intensity,normalized_x,normalized_y,normalized_z,normalized_intensity,normalized_velocity,normalized_range,range
1648539837204678578,23604,0,0,0.00679539842531,0.0454158857465,0.00943610724062,0.0,19.0,0.0022727085034481604,0.015189259446989964,0.003155888709237458,19.0,0.0,0.01552559211209882,0.04688091549611983
1648539837204682346,23605,0,1,0.0342117398977,0.0146502861753,-0.0285087004304,0.0,19.0,0.011442053477491639,0.0048997612626421405,-0.009534682418193979,19.0,0.0,0.0169070646770646,0.04688091330249821
1648539837204733025,23606,0,2,0.695457279682,0.234404578805,-0.15503436327,-0.242756426334,19.0,0.2325944079204013,0.07839618020234114,-0.051850957615384614,19.0,-0.03280492247756756,0.3381512653562042,0.7500946528418739
1648539837204810562,23607,0,3,0.468912392855,-0.187523663044,-0.554615199566,-0.242756426334,19.0,0.15682688724247493,-0.0627169441618729,-0.18549003329966554,19.0,-0.03280492247756756,0.23048375259295692,0.7500946446709745
1648539837204816384,23608,0,4,0.542502462864,0.0879017189145,0.120210312307,-0.161837622523,19.0,0.18143895079063543,0.02939856819882943,0.04020411782842809,19.0,-0.021869948989594594,0.25827206883469706,0.562571020926759
