%time,field.header.seq,field.header.frame_id,field.point_id,field.x,field.y,field.z,field.velocity,field.intensity,normalized_x,normalized_y,normalized_z,normalized_intensity,normalized_velocity,normalized_range,range
1648539078301390742,5552,0,0,0.0339690409601,0.0146502861753,-0.028797455132,0.0,14.8999996185,0.01136088326424749,0.0048997612626421405,-0.009631255896989967,14.8999996185,0.0,0.016797231840949448,0.046880913502689886
1648539078301397040,5553,0,1,0.00586513755843,0.0454158857465,0.0100408028811,0.0,14.8999996185,0.001961584467702341,0.015189259446989964,0.0033581280538795984,14.8999996185,0.0,0.01544050613794237,0.046880915511704264
1648539078301400023,5554,0,2,0.527007341385,-0.266635209322,0.150334775448,0.0,14.8999996185,0.17625663591471571,-0.0891756552916388,0.05027918911304347,14.8999996185,0.0,0.2647359078490081,0.6094518991953944
1648539078301424166,5555,0,3,1.65367770195,-1.57930088043,0.219374850392,0.0,14.8999996185,0.553069465535117,-0.5281942743913043,0.0733695151812709,14.8999996185,0.0,0.9438012814752672,2.2971648913036518
1648539078406939788,5556,1,0,0.0340288318694,0.0146502861753,-0.0287267807871,0.0,11.1999998093,0.011380880223879597,0.0048997612626421405,-0.009607618992341136,11.1999998093,0.0,0.016824283930422592,0.046880915283345065
1648539078406962382,5557,1,1,0.0058311750181,0.0454158857465,0.0100605646148,0.0,11.1999998093,0.0019502257585618727,0.015189259446989964,0.0033647373293645482,11.1999998093,0.0,0.015437628171668417,0.04688091552646365
1648539078406978166,5558,1,2,0.515761733055,-0.285680562258,0.154298648238,0.0,11.1999998093,0.1724955628946488,-0.09554533854782607,0.05160489907625417,11.1999998093,0.0,0.26198921763099753,0.6094519027651141
1648539078602126086,5559,3,0,0.0339463911951,0.0146502861753,-0.0288241524249,0.0,12.1999998093,0.011353308092006688,0.0048997612626421405,-0.009640184757491638,12.1999998093,0.0,0.016786985128215776,0.04688091427439121
1648539078602160789,5560,3,1,0.00579896662384,0.0454158857465,0.010079164058,0.0,12.1999998093,0.001939453720347826,0.015189259446989964,0.0033709578789297657,12.1999998093,0.0,0.015434913800041642,0.04688091552168783
1648539078602172441,5561,3,2,0.576645255089,-0.287145614624,0.125699833035,0.0,12.1999998093,0.1928579448458194,-0.0960353226167224,0.04204007793812709,12.1999998093,0.0,0.28915593884685165,0.6563328440962554
1648539078707116089,5562,4,0,0.0339463911951,0.0146502861753,-0.0288241524249,0.0,14.1000003815,0.011353308092006688,0.0048997612626421405,-0.009640184757491638,14.1000003815,0.0,0.016786985128215776,0.04688091427439121
1648539078707162815,5563,4,1,0.00586513755843,0.0454158857465,0.0100408028811,0.0,14.1000003815,0.001961584467702341,0.015189259446989964,0.0033581280538795984,14.1000003815,0.0,0.01544050613794237,0.046880915511704264
1648539078707218616,5564,4,2,0.76586663723,0.615311980247,0.0638603568077,0.0,14.1000003815,0.2561426880367893,0.2057899599488294,0.021357978865451502,14.1000003815,0.0,0.41661452313279324,0.9844992047884445
1648539078707238425,5565,4,3,1.6549949646,-1.57930088043,0.209205403924,0.0,14.1000003815,0.5535100216053511,-0.5281942743913043,0.06996836251638795,14.1000003815,0.0,0.9443176793510057,2.2971648841146193
1648539078707246667,5566,4,4,0.668079137802,-0.257845044136,0.223222181201,0.0809188112617,14.1000003815,0.2234378387297659,-0.08623580071438126,0.07465624789331103,14.1000003815,0.010934974494824324,0.3275447280560446,0.7500946229189299
1648539078707254909,5567,4,5,1.13607180119,-0.656332850456,-0.0407344400883,0.161837622523,14.1000003815,0.37995712414381266,-0.21950931453377925,-0.013623558557959867,14.1000003815,0.021869948989594594,0.5804473891252875,1.3126657010282916
