%time,field.header.seq,field.header.frame_id,field.point_id,field.x,field.y,field.z,field.velocity,field.intensity,normalized_x,normalized_y,normalized_z,normalized_intensity,normalized_velocity,normalized_range,range
1648478975016434407,56972,0,0,0.0130992634222,0.0439508594573,0.0097237592563,0.0,18.2999992371,0.004381024555919732,0.014699284099431437,0.0032520933967558527,18.2999992371,0.0,0.015951667792269912,0.04688091555541555
1648478975016438142,56973,0,1,0.0338654480875,0.0146502861753,-0.0289192087948,0.0,18.2999992371,0.011326236818561873,0.0048997612626421405,-0.009671976185551838,18.2999992371,0.0,0.016750371380097266,0.046880913989624615
1648478975016441954,56974,0,2,2.30826735497,-1.33610606194,0.165650770068,0.0,18.2999992371,0.7719957708929766,-0.4468582146956522,0.05540159534046822,18.2999992371,0.0,1.1796767373286072,2.6722121488379504
1648478975016495964,56975,0,3,1.30166172981,-0.38237246871,0.0885147675872,0.0809188112617,18.2999992371,0.435338371173913,-0.1278837687993311,0.029603601199732443,18.2999992371,0.010934974494824324,0.6288030320816146,1.3595465522593764
1648478975016504066,56976,0,4,0.552551686764,0.127457484603,-1.23564076424,0.0809188112617,18.2999992371,0.18479989523879597,0.04262792127190635,-0.4132577806822742,18.2999992371,0.010934974494824324,0.2648001930371347,1.3595465696983964
