%time,field.header.seq,field.header.frame_id,field.point_id,field.x,field.y,field.z,field.velocity,field.intensity,normalized_x,normalized_y,normalized_z,normalized_intensity,normalized_velocity,normalized_range,range
1648539809904607640,23135,0,0,0.0067896139808,0.0454158857465,0.00944027025253,0.0,11.8999996185,0.0022707739066220737,0.015189259446989964,0.003157281020913043,11.8999996185,0.0,0.01552502595224772,0.04688091550501354
1648539809904634156,23136,0,1,0.0341840721667,0.0146502861753,-0.0285418722779,0.0,11.8999996185,0.011432800055752507,0.0048997612626421405,-0.009545776681571905,11.8999996185,0.0,0.01689454038026834,0.04688091453933355
1648539809904640931,23137,0,2,0.912630617619,0.175803437829,0.123800545931,0.0,11.8999996185,0.3052276313107023,0.05879713639765886,0.04140486485986622,11.8999996185,0.0,0.4356431074625753,0.9376182955451254
1648539809904690128,23138,0,3,0.94097840786,0.354536950588,0.229364767671,0.0,11.8999996185,0.3147084976120401,0.11857423096588628,0.07671062463913043,11.8999996185,0.0,0.46058954090123044,1.0313801481702807
1648539809904761018,23139,0,4,0.571050107479,0.0190453715622,0.212062969804,-0.242756426334,11.8999996185,0.1909866580197324,0.006369689485685618,0.07092407016856186,11.8999996185,-0.03280492247756756,0.27017101996186876,0.6094519296809322
