%time,field.header.seq,field.header.frame_id,field.point_id,field.x,field.y,field.z,field.velocity,field.intensity,normalized_x,normalized_y,normalized_z,normalized_intensity,normalized_velocity,normalized_range,range
1648539275500201836,11779,0,0,0.00634937547147,0.0454158857465,0.0097418166697,0.0,12.6000003815,0.002123536946979933,0.015189259446989964,0.003258132665451505,12.6000003815,0.0,0.01548329489735152,0.046880915509862765
1648539275500207900,11780,0,1,0.0340961664915,0.0146502861753,-0.0286468267441,0.0,12.6000003815,0.01140340016438127,0.0048997612626421405,-0.009580878509732441,12.6000003815,0.0,0.016854753959904312,0.04688091442091074
1648539275500214662,11781,0,2,0.879449784756,0.293005734682,0.140867948532,0.0,12.6000003815,0.2941303627946488,0.09799522899063544,0.04711302626488294,12.6000003815,0.0,0.4273504481574233,0.9376182930102887
1648539275500227774,11782,0,3,2.48880767822,-0.079111546278,0.456532806158,0.0,12.6000003815,0.8323771499063545,-0.026458711129765885,0.15268655724347827,12.6000003815,0.0,1.1774563697934204,2.5315695722258593
1648539275605446903,11783,1,0,0.00628270860761,0.0454158857465,0.00978494435549,0.0,12.6999998093,0.0021012403369933107,0.015189259446989964,0.003272556640632107,12.6999998093,0.0,0.015477209840781684,0.04688091553742646
1648539275605453557,11784,1,1,0.034145116806,0.0146502861753,-0.0285884644836,0.0,12.6999998093,0.01141977150702341,0.0048997612626421405,-0.009561359359063545,12.6999998093,0.0,0.01687690798031843,0.04688091496807233
1648539275605460113,11785,1,2,1.16812169552,0.0732514336705,0.0613493695855,0.0,12.6999998093,0.39067615234782604,0.02449880724765886,0.02051818380785953,12.6999998093,0.0,0.5530424066770663,1.172022957636855
1648539275605468288,11786,1,3,1.16282045841,0.146502867341,0.00482956320047,0.0,12.6999998093,0.38890316334782604,0.04899761449531772,0.0016152385285852842,12.6999998093,0.0,0.5521703606226284,1.1720229662070127
1648539275605472484,11787,1,4,2.49643588066,-0.079111546278,0.412788063288,0.0,12.6999998093,0.834928388180602,-0.026458711129765885,0.13805620845752506,12.6999998093,0.0,1.1810634573020893,2.531569617489162
1648539275605477426,11788,1,5,0.573593020439,-0.307656019926,-0.0843305438757,-0.0809188112617,12.6999998093,0.19183713058160531,-0.10289498994180601,-0.028204195276153848,12.6999998093,-0.010934974494824324,0.29015573110778314,0.6563328578727518
1648539275800379953,11789,3,0,0.00637745531276,0.0454158857465,0.00972345750779,0.0,11.3999996185,0.0021329281982474914,0.015189259446989964,0.003251992477521739,11.3999996185,0.0,0.015485876402249,0.04688091552338958
1648539275800547272,11790,3,1,0.0342184342444,0.0146502861753,-0.0285006649792,0.0,11.3999996185,0.011444292389431437,0.0048997612626421405,-0.00953199497632107,11.3999996185,0.0,0.016910095121568214,0.04688091329542451
1648539275800551718,11791,3,2,0.405352115631,-1.0987714529,-0.0450410917401,0.0,11.3999996185,0.135569269441806,-0.3674820912709029,-0.015063910280969898,11.3999996185,0.0,0.4144890119638954,1.1720229278045906
1648539275800687933,11792,3,3,1.1572458744,0.183128580451,-0.0297287404537,0.0,11.3999996185,0.3870387539799331,0.061247016873244145,-0.009942722559765886,11.3999996185,0.0,0.5507714510035445,1.1720229898780923
1648539275800690618,11793,3,4,2.50034785271,-0.079111546278,0.388388425112,0.0,11.3999996185,0.8362367400367893,-0.026458711129765885,0.12989579435183946,11.3999996185,0.0,1.1829132826075468,2.5315693927022784
1648539275800693235,11794,3,5,0.568088531494,-0.287145614624,0.159986436367,0.0809188112617,11.3999996185,0.1899961643792642,-0.0960353226167224,0.0535071693535117,11.3999996185,0.010934974494824324,0.28534166914028297,0.6563328754787591
1648539275905520606,11795,4,0,0.0063212052919,0.0454158857465,0.00976011902094,0.0,16.1000003815,0.0021141154822408026,0.015189259446989964,0.0032642538531571907,16.1000003815,0.0,0.015480716103994492,0.046880915496440564
1648539275905540502,11796,4,1,0.034159488976,0.0146502861753,-0.0285712908953,0.0,16.1000003815,0.011424578252842809,0.0048997612626421405,-0.009555615684046823,16.1000003815,0.0,0.016883413071459994,0.04688091547254068
1648539275905546495,11797,4,2,0.423371106386,-1.14272224903,-0.0258693136275,0.0,16.1000003815,0.14159568775451503,-0.3821813541906354,-0.00865194435702341,16.1000003815,0.0,0.431464094766107,1.2189037917482433
1648539275905581261,11798,4,3,1.21762239933,-0.0380907431245,0.040881279856,0.0,16.1000003815,0.4072315716822742,-0.01273937897140468,0.013672668848160534,16.1000003815,0.0,0.5760532941718218,1.2189038071581313
1648539275905642189,11799,4,4,2.48432564735,-0.079111546278,0.480324655771,0.0,16.1000003815,0.8308781429264214,-0.026458711129765885,0.16064369758227423,16.1000003815,0.0,1.1753369900502433,2.5315695395894267
1648539276100465881,11800,6,0,0.00634937547147,0.0454158857465,0.0097418166697,0.0,13.1000003815,0.002123536946979933,0.015189259446989964,0.003258132665451505,13.1000003815,0.0,0.01548329489735152,0.046880915509862765
1648539276100483212,11801,6,1,0.0342254079878,0.0146502861753,-0.0284922905266,0.0,13.1000003815,0.011446624745083612,0.0048997612626421405,-0.009529194156053512,13.1000003815,0.0,0.01691325209829291,0.04688091356193617
1648539276100486889,11802,6,2,0.800023555756,0.306190997362,0.244177386165,0.0,13.1000003815,0.26756640660735787,0.10240501584013377,0.0816646776471572,13.1000003815,0.0,0.39200810088410926,0.8907374543289294
1648539276205464512,11803,7,0,0.00634937547147,0.0454158857465,0.0097418166697,0.0,12.0,0.002123536946979933,0.015189259446989964,0.003258132665451505,12.0,0.0,0.01548329489735152,0.046880915509862765
1648539276205466693,11804,7,1,0.0340961664915,0.0146502861753,-0.0286468267441,0.0,12.0,0.01140340016438127,0.0048997612626421405,-0.009580878509732441,12.0,0.0,0.016854753959904312,0.04688091442091074
1648539276205593311,11805,7,2,0.820804059505,0.306190997362,0.161061927676,0.0,12.0,0.274516407861204,0.10240501584013377,0.053866865443478254,12.0,0.0,0.40150380277060377,0.8907374335415195
