%time,field.header.seq,field.header.frame_id,field.point_id,field.x,field.y,field.z,field.velocity,field.intensity,normalized_x,normalized_y,normalized_z,normalized_intensity,normalized_velocity,normalized_range,range
1648539091501322343,5924,0,0,0.0339971669018,0.0146502861753,-0.0287642478943,0.0,17.5,0.011370289933712373,0.0048997612626421405,-0.009620149797424747,17.5,0.0,0.0168099567752047,0.04688091508590434
1648539091501340595,5925,0,1,0.00590599980205,0.0454158857465,0.0100168222561,0.0,17.5,0.0019752507699163876,0.015189259446989964,0.003350107777959866,17.5,0.0,0.015443990214840348,0.046880915519124156
1648539091501450661,5926,0,2,0.644129395485,-0.241729721427,0.145511701703,0.0,17.5,0.2154278914665552,-0.08084606067792642,0.04866612097090301,17.5,0.0,0.31520539077019405,0.7032137595934465
1648539091501470273,5927,0,3,0.791243553162,0.584546387196,0.0384429171681,0.0,17.5,0.264629950890301,0.1955004639451505,0.012857162932474915,17.5,0.0,0.4222303319506728,0.9844992113174679
1648539091606655173,5928,1,0,0.0339971669018,0.0146502861753,-0.0287642478943,0.0,11.6000003815,0.011370289933712373,0.0048997612626421405,-0.009620149797424747,11.6000003815,0.0,0.0168099567752047,0.04688091508590434
1648539091606657959,5929,1,1,0.00590599980205,0.0454158857465,0.0100168222561,0.0,11.6000003815,0.0019752507699163876,0.015189259446989964,0.003350107777959866,11.6000003815,0.0,0.015443990214840348,0.046880915519124156
1648539091606659868,5930,1,2,0.764983832836,0.615311980247,0.0736859738827,0.0,11.6000003815,0.2558474357311037,0.2057899599488294,0.02464413842230769,11.6000003815,0.0,0.4162515205450945,0.9844992230992281
1648539091606661566,5931,1,3,0.423164695501,-0.146502867341,0.138746380806,0.323675245047,11.6000003815,0.14152665401371237,-0.04899761449531772,0.04640347184147157,11.6000003815,0.04373989797932432,0.2060591027323614,0.4688091379701896
1648539091801491690,5932,3,0,0.0340197645128,0.0146502861753,-0.0287375170738,0.0,33.5999984741,0.01137784766314381,0.0048997612626421405,-0.00961120972367893,33.5999984741,0.0,0.01682018119172034,0.04688091456116763
1648539091801493578,5933,3,1,0.00590599980205,0.0454158857465,0.0100168222561,0.0,33.5999984741,0.0019752507699163876,0.015189259446989964,0.003350107777959866,33.5999984741,0.0,0.015443990214840348,0.046880915519124156
1648539091801586209,5934,3,2,0.609474003315,-0.28568059206,0.203562244773,0.0,33.5999984741,0.20383745930267558,-0.09554534851505017,0.06808101831872909,33.5999984741,0.0,0.30369118072937556,0.7032137291702911
1648539091801591131,5935,3,3,0.791720330715,0.584546387196,0.0268918517977,0.0,33.5999984741,0.26478940826588626,0.1955004639451505,0.008993930367123745,33.5999984741,0.0,0.4224302224774708,0.984499229326501
1648539091801596180,5936,3,4,1.72006475925,-1.50751447678,0.213878259063,0.0,33.5999984741,0.5752724947324415,-0.5041854437391304,0.07153119032207357,33.5999984741,0.0,0.9571206026775297,2.2971649012238666
1648539091906464465,5937,4,0,0.0340422317386,0.0146502861753,-0.0287108980119,0.0,11.3000001907,0.01138536178548495,0.0048997612626421405,-0.009602307027391304,11.3000001907,0.0,0.016830347186069888,0.046880913935336783
1648539091906476177,5938,4,1,0.00586513755843,0.0454158857465,0.0100408028811,0.0,11.3000001907,0.001961584467702341,0.015189259446989964,0.0033581280538795984,11.3000001907,0.0,0.01544050613794237,0.046880915511704264
1648539091906482252,5939,4,2,0.59415858984,-0.246124818921,0.131038054824,0.0,11.3000001907,0.19871524743812707,-0.08231599295016721,0.043825436395986614,11.3000001907,0.0,0.292833436998175,0.6563328638591931
1648539091906534847,5940,4,3,0.764502048492,-0.224149376154,-0.0215343795717,0.0,11.3000001907,0.25568630384347824,-0.07496634653979932,-0.007202133636020066,11.3000001907,0.0,0.3692843417473915,0.7969755670547433
1648539091906718756,5941,4,4,0.506818413734,-0.0483459457755,0.0820612162352,0.0809188112617,11.3000001907,0.1695044861986622,-0.016169212633946488,0.027445222821137122,11.3000001907,0.010934974494824324,0.2402602445685651,0.5156900989768719
