%time,field.header.seq,field.header.frame_id,field.point_id,field.x,field.y,field.z,field.velocity,field.intensity,normalized_x,normalized_y,normalized_z,normalized_intensity,normalized_velocity,normalized_range,range
1648539575604546800,19730,0,0,0.00668767886236,0.0454158857465,0.00951275508851,0.0,11.6999998093,0.0022366818937658863,0.015189259446989964,0.0031815234409732435,11.6999998093,0.0,0.015515124696107802,0.04688091547825374
1648539575604585778,19731,0,1,0.0341391414404,0.0146502861753,-0.0285955984145,0.0,11.6999998093,0.011417773056989966,0.0048997612626421405,-0.009563745289130433,11.6999998093,0.0,0.016874203495061343,0.04688091415479414
1648539575604597535,19732,0,2,0.84815877676,0.194848805666,0.189930960536,0.0,11.6999998093,0.28366514272909693,0.06516682463745818,0.0635220603799331,11.6999998093,0.0,0.4064216301236526,0.8907374121673646
1648539575604600953,19733,0,3,0.585700690746,-0.287145614624,0.072628878057,-0.242756426334,11.6999998093,0.19588651864414713,-0.0960353226167224,0.024290594667892972,11.6999998093,-0.03280492247756756,0.29319931712598785,0.656332885863534
