%time,field.header.seq,field.header.frame_id,field.point_id,field.x,field.y,field.z,field.velocity,field.intensity,normalized_x,normalized_y,normalized_z,normalized_intensity,normalized_velocity,normalized_range,range
1648538994902368035,2878,0,0,0.0338652431965,0.0146502861753,-0.0289194490761,0.0,13.8000001907,0.011326168293143812,0.0048997612626421405,-0.009672056547190635,13.8000001907,0.0,0.01675027870932663,0.04688091420441177
1648538994902381670,2879,0,1,0.00548199005425,0.0454158857465,0.0102550154552,0.0,13.8000001907,0.001833441489715719,0.015189259446989964,0.003429771055250836,13.8000001907,0.0,0.01540897848464965,0.04688091546760183
1648538994902400362,2880,0,2,0.919883787632,-0.146502867341,0.107139438391,0.0,13.8000001907,0.3076534406795986,-0.04899761449531772,0.03583258809063545,13.8000001907,0.0,0.4378379213250291,0.9376183296768829
1648538994902411322,2881,0,3,0.41271841526,0.175803437829,-0.823337554932,0.0,13.8000001907,0.13803291480267557,0.05879713639765886,-0.2753637307464883,13.8000001907,0.0,0.20387072959699312,0.9376182956878695
1648538994902492974,2882,0,4,1.07607614994,0.0673913136125,0.0128598855808,0.0,13.8000001907,0.3598916889431438,0.02253890087374582,0.004300965077190635,13.8000001907,0.0,0.5094625183399596,1.0782610288224568
1648538995007444087,2883,1,0,0.0338652431965,0.0146502861753,-0.0289194490761,0.0,13.5,0.011326168293143812,0.0048997612626421405,-0.009672056547190635,13.5,0.0,0.01675027870932663,0.04688091420441177
1648538995007448960,2884,1,1,0.00548199005425,0.0454158857465,0.0102550154552,0.0,13.5,0.001833441489715719,0.015189259446989964,0.003429771055250836,13.5,0.0,0.01540897848464965,0.04688091546760183
1648538995007468784,2885,1,2,0.922986805439,-0.146502867341,0.0758969113231,0.0,13.5,0.3086912392772575,-0.04899761449531772,0.02538358238230769,13.5,0.0,0.43929640180553475,0.9376182988306124
1648538995007471452,2886,1,3,0.726793110371,0.586011469364,0.0865475907922,0.0,13.5,0.24307461885317724,0.19599045798127088,0.02894568253919732,13.5,0.0,0.3957054463624971,0.9376183407873594
1648538995007474337,2887,1,4,1.0777285099,0.0336956568062,0.00355430110358,0.0,13.5,0.36044431769230767,0.011269450436856187,0.0011887294660802676,13.5,0.0,0.5098697998768854,1.078260994098929
1648538995007478065,2888,1,5,1.69494605064,-1.61153149605,0.157083839178,0.0,13.5,0.5668715888428093,-0.5389737444983277,0.05253640106287625,13.5,0.0,0.9660121602406931,2.3440459060931773
1648538995007507533,2889,1,6,0.454831540585,-0.316446185112,0.0973457619548,-0.242756426334,13.5,0.1521175721020067,-0.10583484451906354,0.03255711102167224,13.5,-0.03280492247756756,0.23975096621034242,0.5625709873015345
1648538995202367413,2890,3,0,0.0338652431965,0.0146502861753,-0.0289194490761,0.0,25.7999992371,0.011326168293143812,0.0048997612626421405,-0.009672056547190635,25.7999992371,0.0,0.01675027870932663,0.04688091420441177
1648538995202376972,2891,3,1,0.00555066484958,0.0454158857465,0.01021800749,0.0,25.7999992371,0.0018564096486889633,0.015189259446989964,0.0034173938093645484,25.7999992371,0.0,0.015414477484347787,0.046880915471833526
1648538995202381240,2892,3,2,0.833721935749,-0.250519901514,0.188575327396,0.0,25.7999992371,0.2788367678090301,-0.08378592023879598,0.06306867136989966,25.7999992371,0.0,0.40313765216689423,0.8907374143405858
1648538995202389076,2893,3,3,1.07605624199,0.0673913136125,-0.0144287198782,0.0,25.7999992371,0.35988503076588624,0.02253890087374582,-0.004825658822140468,25.7999992371,0.0,0.5094531114747679,1.0782610134069501
1648538995202544117,2894,3,4,1.75665903091,-1.53828012943,0.205898940563,0.0,25.7999992371,0.5875113815752508,-0.5144749596755852,0.06886252192742474,25.7999992371,0.0,0.9772531560931973,2.344045878646961
1648538995202547178,2895,3,5,0.432161569595,-0.257845044136,0.112643584609,-0.242756426334,25.7999992371,0.14453564200501673,-0.08623580071438126,0.03767343966856187,25.7999992371,-0.03280492247756756,0.22185066361058106,0.5156900873333466
1648538995307436844,2896,4,0,0.0338652431965,0.0146502861753,-0.0289194490761,0.0,31.2000007629,0.011326168293143812,0.0048997612626421405,-0.009672056547190635,31.2000007629,0.0,0.01675027870932663,0.04688091420441177
1648538995307451414,2897,4,1,0.00555066484958,0.0454158857465,0.01021800749,0.0,31.2000007629,0.0018564096486889633,0.015189259446989964,0.0034173938093645484,31.2000007629,0.0,0.015414477484347787,0.046880915471833526
1648538995307464358,2898,4,2,0.733165740967,0.646077632904,0.119542494416,0.0,31.2000007629,0.24520593343377925,0.2160794758876254,0.0399807673632107,31.2000007629,0.0,0.40858565746013753,0.9844992226699447
1648538995307491149,2899,4,3,0.963202595711,-0.153827995062,0.133478239179,0.0,31.2000007629,0.322141336358194,-0.05144748998729097,0.04464155156488294,31.2000007629,0.0,0.4584723823822745,0.9844992294479102
1648538995307501043,2900,4,4,1.07576668262,0.0673913136125,-0.0288293473423,0.0,31.2000007629,0.3597881881672241,0.02253890087374582,-0.0096419221880602,31.2000007629,0.0,0.5093162894920054,1.0782609497954758
1648538995307529250,2901,4,5,0.434313029051,-0.146502867341,0.0984435528517,-0.161837622523,31.2000007629,0.1452551936625418,-0.04899761449531772,0.03292426516779264,31.2000007629,-0.021869948989594594,0.21118453730829068,0.46880916206987133
1648538995307534461,2902,4,6,0.870847344398,0.94347846508,0.273065209389,-0.161837622523,31.2000007629,0.29125329244080267,0.31554463715050163,0.09132615698628761,31.2000007629,-0.021869948989594594,0.5188693272391973,1.3126657304483196
1648538995307536506,2903,4,7,1.27065742016,-0.328166425228,-0.0287706144154,-0.161837622523,31.2000007629,0.42496903684280934,-0.10975465726688963,-0.00962227906869565,31.2000007629,-0.021869948989594594,0.6109365346269467,1.312665696325013
1648538995502288635,2904,6,0,0.0338652431965,0.0146502861753,-0.0289194490761,0.0,12.6999998093,0.011326168293143812,0.0048997612626421405,-0.009672056547190635,12.6999998093,0.0,0.01675027870932663,0.04688091420441177
1648538995502291351,2905,6,1,0.00548199005425,0.0454158857465,0.0102550154552,0.0,12.6999998093,0.001833441489715719,0.015189259446989964,0.003429771055250836,12.6999998093,0.0,0.01540897848464965,0.04688091546760183
1648538995502429194,2906,6,2,1.75800085068,-1.53828012943,0.194108590484,0.0,12.6999998093,0.5879601507290969,-0.5144749596755852,0.06491926103143812,12.6999998093,0.0,0.9777928010698175,2.344045838393624
1648538995502432521,2907,6,3,0.15359570086,0.158223092556,1.24642884731,-0.161837622523,12.6999998093,0.05136979961872909,0.05291742225953177,0.4168658352207358,12.6999998093,-0.021869948989594594,0.08987750666507359,1.2657847596440694
1648538995502434765,2908,6,4,0.677496850491,1.06800591946,0.0507178045809,-0.161837622523,12.6999998093,0.22658757541505015,0.35719261520401335,0.016962476448461536,12.6999998093,-0.021869948989594594,0.4798650049974726,1.2657847060730079
1648538995502511994,2909,6,5,0.433981984854,-0.0732514336705,0.161480292678,-0.0809188112617,12.6999998093,0.14514447653979934,-0.02449880724765886,0.054006786848829424,12.6999998093,-0.010934974494824324,0.20672210742100772,0.4688091516128644
