%time,field.header.seq,field.header.frame_id,field.point_id,field.x,field.y,field.z,field.velocity,field.intensity,normalized_x,normalized_y,normalized_z,normalized_intensity,normalized_velocity,normalized_range,range
1648479043016489015,59371,0,0,0.0130922468379,0.0439508594573,0.00973320472986,0.0,12.8999996185,0.004378677872207358,0.014699284099431437,0.0032552524180133775,12.8999996185,0.0,0.01595037908179347,0.04688091561193326
1648479043016538988,59372,0,1,0.0338654480875,0.0146502861753,-0.0289192087948,0.0,12.8999996185,0.011326236818561873,0.0048997612626421405,-0.009671976185551838,12.8999996185,0.0,0.016750371380097266,0.046880913989624615
1648479043016583898,59373,0,2,0.975026249886,-0.257845044136,0.215834990144,0.0,12.8999996185,0.326095735747826,-0.08623580071438126,0.07218561543277592,12.8999996185,0.0,0.469162520956952,1.0313801421991373
1648479043016658003,59374,0,3,1.8082331419,-1.46502864361,0.280241280794,0.0,12.8999996185,0.6047602481270903,-0.489976134986622,0.09372618086755853,12.8999996185,0.0,0.9856705982659257,2.3440459034593077
1648479043016662961,59375,0,4,2.30755186081,-1.33610606194,0.175337806344,0.0,12.8999996185,0.7717564751872908,-0.4468582146956522,0.05864140680401338,12.8999996185,0.0,1.1793635478630025,2.672212256804095
1648479043016666299,59376,0,5,0.568385541439,0.328166425228,0.00417775521055,0.161837622523,12.8999996185,0.1900954988090301,0.10975465726688963,0.001397242545334448,12.8999996185,0.021869948989594594,0.2903767933679968,0.656332827155879
